{
  "parent": "kmrpitems2:custom/kapkan2",
  "textures": {
    "all": "kmrpitems2:blocks/tire",
    "particle": "kmrpitems2:blocks/tire",
    "0": "kmrpitems2:blocks/mighty_all_in_one",
    "missing": "kmrpitems2:blocks/mighty_all_in_one"
  }
}