{
  "parent": "kmrpitems2:custom/kettle",
  "textures": {
    "all": "kmrpitems2:blocks/mighty_all_in_one",
    "particle": "kmrpitems2:blocks/mighty_all_in_one",
    "0": "kmrpitems2:blocks/mighty_all_in_one"
  }
}