{
  "parent": "kmrpitems2:custom/laptop_macro",
  "textures": {
    "all": "kmrpitems2:blocks/mpz",
    "particle": "kmrpitems2:blocks/mpz",
    "0": "kmrpitems2:blocks/mighty_all_in_one",
    "1": "kmrpitems2:blocks/mpz"
  }
}