{
  "parent": "kmrpitems2:custom/micro",
  "textures": {
    "all": "kmrpitems2:blocks/mpz",
    "particle": "kmrpitems2:blocks/mpz",
    "0": "kmrpitems2:blocks/mpz",
    "1": "kmrpitems2:blocks/mighty_all_in_one"
  }
}