{
  "_fv": 10,
  "_type": "procedure",
  "definition": {
    "procedurexml": "<xml xmlns=\"https://developers.google.com/blockly/xml\"><block type=\"event_trigger\" deletable=\"false\" x=\"165\" y=\"57\"><field name=\"trigger\">no_ext_trigger</field><next><block type=\"controls_if\"><mutation else=\"1\"/><value name=\"IF0\"><block type=\"logic_entity_compare\"><field name=\"entity\">EntityPlayer</field><value name=\"compareTo\"><block type=\"entity_from_deps\"/></value></block></value><statement name=\"DO0\"><block type=\"controls_if\"><value name=\"IF0\"><block type=\"logic_negate\"><value name=\"BOOL\"><block type=\"entity_iscreative\"><value name=\"entity\"><block type=\"entity_from_deps\"/></value></block></value></block></value><statement name=\"DO0\"><block type=\"entity_send_chat\"><value name=\"text\"><block type=\"text\"><field name=\"TEXT\">Вы попали в капкан. Зови ГМ.</field></block></value><value name=\"entity\"><block type=\"entity_from_deps\"/></value><value name=\"actbar\"><block type=\"logic_boolean\"><field name=\"BOOL\">TRUE</field></block></value><next><block type=\"entity_send_chat\"><value name=\"text\"><block type=\"text\"><field name=\"TEXT\">§4Вы попали в капкан. Зови ГМ.</field></block></value><value name=\"entity\"><block type=\"entity_from_deps\"/></value><value name=\"actbar\"><block type=\"logic_boolean\"><field name=\"BOOL\">FALSE</field></block></value><next><block type=\"entity_setinweb\"><value name=\"entity\"><block type=\"entity_from_deps\"/></value><next><block type=\"execute_command\"><value name=\"command\"><block type=\"text_join\"><mutation items=\"11\"/><value name=\"ADD0\"><block type=\"text\"><field name=\"TEXT\">dmsggmmine</field></block></value><value name=\"ADD1\"><block type=\"text\"><field name=\"TEXT\"> </field></block></value><value name=\"ADD2\"><block type=\"text\"><field name=\"TEXT\">капкан_уровня_3</field></block></value><value name=\"ADD3\"><block type=\"text\"><field name=\"TEXT\"> </field></block></value><value name=\"ADD4\"><block type=\"coord_x\"/></value><value name=\"ADD5\"><block type=\"text\"><field name=\"TEXT\"> </field></block></value><value name=\"ADD6\"><block type=\"coord_y\"/></value><value name=\"ADD7\"><block type=\"text\"><field name=\"TEXT\"> </field></block></value><value name=\"ADD8\"><block type=\"coord_z\"/></value><value name=\"ADD9\"><block type=\"text\"><field name=\"TEXT\"> </field></block></value><value name=\"ADD10\"><block type=\"entity_name\"><value name=\"entity\"><block type=\"entity_from_deps\"/></value></block></value></block></value><value name=\"x\"><block type=\"coord_x\"/></value><value name=\"y\"><block type=\"coord_y\"/></value><value name=\"z\"><block type=\"coord_z\"/></value><next><block type=\"block_remove\"><value name=\"x\"><block type=\"coord_x\"/></value><value name=\"y\"><block type=\"coord_y\"/></value><value name=\"z\"><block type=\"coord_z\"/></value><next><block type=\"play_sound\"><field name=\"sound\">item.shield.break</field><value name=\"x\"><block type=\"coord_x\"/></value><value name=\"y\"><block type=\"coord_y\"/></value><value name=\"z\"><block type=\"coord_z\"/></value><value name=\"level\"><block type=\"math_number\"><field name=\"NUM\">1</field></block></value><value name=\"pitch\"><block type=\"math_number\"><field name=\"NUM\">1</field></block></value></block></next></block></next></block></next></block></next></block></next></block></statement></block></statement><statement name=\"ELSE\"><block type=\"controls_if\"><value name=\"IF0\"><block type=\"logic_entity_compare\"><field name=\"entity\">EntityLiving</field><value name=\"compareTo\"><block type=\"entity_from_deps\"/></value></block></value><statement name=\"DO0\"><block type=\"entity_setinweb\"><value name=\"entity\"><block type=\"entity_from_deps\"/></value><next><block type=\"execute_command\"><value name=\"command\"><block type=\"text_join\"><mutation items=\"11\"/><value name=\"ADD0\"><block type=\"text\"><field name=\"TEXT\">dmsggmmine</field></block></value><value name=\"ADD1\"><block type=\"text\"><field name=\"TEXT\"> </field></block></value><value name=\"ADD2\"><block type=\"text\"><field name=\"TEXT\">капкан_уровня_3</field></block></value><value name=\"ADD3\"><block type=\"text\"><field name=\"TEXT\"> </field></block></value><value name=\"ADD4\"><block type=\"coord_x\"/></value><value name=\"ADD5\"><block type=\"text\"><field name=\"TEXT\"> </field></block></value><value name=\"ADD6\"><block type=\"coord_y\"/></value><value name=\"ADD7\"><block type=\"text\"><field name=\"TEXT\"> </field></block></value><value name=\"ADD8\"><block type=\"coord_z\"/></value><value name=\"ADD9\"><block type=\"text\"><field name=\"TEXT\"> </field></block></value><value name=\"ADD10\"><block type=\"entity_name\"><value name=\"entity\"><block type=\"entity_from_deps\"/></value></block></value></block></value><value name=\"x\"><block type=\"coord_x\"/></value><value name=\"y\"><block type=\"coord_y\"/></value><value name=\"z\"><block type=\"coord_z\"/></value><next><block type=\"play_sound\"><field name=\"sound\">item.shield.break</field><value name=\"x\"><block type=\"coord_x\"/></value><value name=\"y\"><block type=\"coord_y\"/></value><value name=\"z\"><block type=\"coord_z\"/></value><value name=\"level\"><block type=\"math_number\"><field name=\"NUM\">1</field></block></value><value name=\"pitch\"><block type=\"math_number\"><field name=\"NUM\">1</field></block></value><next><block type=\"block_remove\"><value name=\"x\"><block type=\"coord_x\"/></value><value name=\"y\"><block type=\"coord_y\"/></value><value name=\"z\"><block type=\"coord_z\"/></value></block></next></block></next></block></next></block></statement></block></statement></block></next></block></xml>"
  }
}