{
  "variants": {
    "normal": {
      "model": "kmrpitems2:mine_1"
    },
    "facing=north": {
      "model": "kmrpitems2:mine_1"
    },
    "facing=east": {
      "model": "kmrpitems2:mine_1",
      "y": 90
    },
    "facing=south": {
      "model": "kmrpitems2:mine_1",
      "y": 180
    },
    "facing=west": {
      "model": "kmrpitems2:mine_1",
      "y": 270
    }
  }
}