{
	"credit": "Made with Blockbench",
	"textures": {
		"0": "block/texture1",
		"1": "block/texture2",
		"2": "block/texture3",
		"3": "block/texture11",
		"particle": "block/texture1"
	},
	"elements": [
		{
			"from": [-2.5, 3.645, -7],
			"to": [18.5, 25.245, -5.5],
			"rotation": {"angle": 0, "axis": "y", "origin": [9.5, 14.445, 5]},
			"faces": {
				"north": {"uv": [0, 0, 14, 16], "texture": "#0"},
				"east": {"uv": [0, 0, 1, 16], "texture": "#0"},
				"south": {"uv": [0, 0, 14, 16], "texture": "#0"},
				"west": {"uv": [0, 0, 1, 16], "texture": "#0"},
				"up": {"uv": [0, 0, 14, 1], "texture": "#0"},
				"down": {"uv": [0, 0, 14, 1], "texture": "#0"}
			}
		},
		{
			"from": [17, 3.645, -5.5],
			"to": [18.5, 25.245, 23],
			"rotation": {"angle": 0, "axis": "y", "origin": [17.75, 4.32, 5]},
			"faces": {
				"north": {"uv": [0, 0, 1, 16], "texture": "#0"},
				"east": {"uv": [0, 0, 16, 16], "texture": "#0"},
				"south": {"uv": [0, 0, 1, 16], "texture": "#0"},
				"west": {"uv": [0, 0, 16, 16], "texture": "#0"},
				"up": {"uv": [0, 0, 16, 1], "rotation": 90, "texture": "#0"},
				"down": {"uv": [0, 0, 16, 1], "rotation": 270, "texture": "#0"}
			}
		},
		{
			"from": [-3.25, 25.245, -7.75],
			"to": [19.25, 26.595, 23.75],
			"rotation": {"angle": 0, "axis": "y", "origin": [17.75, 4.32, 5]},
			"faces": {
				"north": {"uv": [0, 0, 15, 1], "texture": "#0"},
				"east": {"uv": [0, 0, 16, 1], "texture": "#0"},
				"south": {"uv": [0, 0, 15, 1], "texture": "#0"},
				"west": {"uv": [0, 0, 16, 1], "texture": "#0"},
				"up": {"uv": [0, 0, 16, 15], "rotation": 90, "texture": "#0"},
				"down": {"uv": [0, 0, 16, 15], "rotation": 270, "texture": "#0"}
			}
		},
		{
			"from": [-3.25, 27, -7.75],
			"to": [19.25, 28.8, 23.75],
			"rotation": {"angle": 0, "axis": "y", "origin": [17.75, 6.075, 5]},
			"faces": {
				"north": {"uv": [0, 0, 15, 1], "texture": "#3"},
				"east": {"uv": [0, 0, 16, 1], "texture": "#3"},
				"south": {"uv": [0, 0, 15, 1], "texture": "#3"},
				"west": {"uv": [0, 0, 16, 1], "texture": "#3"},
				"up": {"uv": [0, 0, 16, 15], "rotation": 90, "texture": "#3"},
				"down": {"uv": [0, 0, 16, 15], "rotation": 270, "texture": "#3"}
			}
		},
		{
			"from": [-1.75, 26.595, -6.25],
			"to": [17.75, 27.27, 22.25],
			"rotation": {"angle": 0, "axis": "y", "origin": [17.75, 5.67, 5]},
			"faces": {
				"north": {"uv": [0, 0, 13, 0.5], "texture": "#2"},
				"east": {"uv": [0, 0, 16, 0.5], "texture": "#2"},
				"south": {"uv": [0, 0, 13, 0.5], "texture": "#2"},
				"west": {"uv": [0, 0, 16, 0.5], "texture": "#2"},
				"up": {"uv": [0, 0, 16, 13], "rotation": 90, "texture": "#2"},
				"down": {"uv": [0, 0, 16, 13], "rotation": 270, "texture": "#2"}
			}
		},
		{
			"from": [-1, 3.645, 21.5],
			"to": [17, 25.245, 23],
			"rotation": {"angle": 0, "axis": "y", "origin": [0.875, 4.32, 18.875]},
			"faces": {
				"north": {"uv": [0, 0, 12, 16], "rotation": 180, "texture": "#0"},
				"east": {"uv": [0, 0, 1, 16], "rotation": 180, "texture": "#0"},
				"south": {"uv": [0, 0, 12, 16], "rotation": 180, "texture": "#0"},
				"west": {"uv": [0, 0, 1, 16], "rotation": 180, "texture": "#0"},
				"up": {"uv": [0, 0, 12, 1], "texture": "#0"},
				"down": {"uv": [0, 0, 12, 1], "texture": "#0"}
			}
		},
		{
			"from": [-2.5, 3.645, -5.5],
			"to": [-1, 25.245, 23],
			"rotation": {"angle": 0, "axis": "y", "origin": [0.875, 4.32, 9.875]},
			"faces": {
				"north": {"uv": [0, 0, 1, 16], "rotation": 180, "texture": "#0"},
				"east": {"uv": [0, 0, 16, 16], "rotation": 180, "texture": "#0"},
				"south": {"uv": [0, 0, 1, 16], "rotation": 180, "texture": "#0"},
				"west": {"uv": [0, 0, 16, 16], "rotation": 180, "texture": "#0"},
				"up": {"uv": [0, 0, 16, 1], "rotation": 90, "texture": "#0"},
				"down": {"uv": [0, 0, 16, 1], "rotation": 270, "texture": "#0"}
			}
		},
		{
			"from": [-2.65, 3.51, -7.15],
			"to": [18.65, 4.995, 23.15],
			"rotation": {"angle": 0, "axis": "y", "origin": [0.875, 4.32, 9.875]},
			"faces": {
				"north": {"uv": [0, 0, 14.2, 1.1], "rotation": 180, "texture": "#0"},
				"east": {"uv": [0, 0, 16, 1.1], "rotation": 180, "texture": "#0"},
				"south": {"uv": [0, 0, 14.2, 1.1], "rotation": 180, "texture": "#0"},
				"west": {"uv": [0, 0, 16, 1.1], "rotation": 180, "texture": "#0"},
				"up": {"uv": [0, 0, 16, 14.2], "rotation": 90, "texture": "#0"},
				"down": {"uv": [0, 0, 16, 14.2], "rotation": 270, "texture": "#0"}
			}
		},
		{
			"from": [-2.5, 1.02127, -4.84209],
			"to": [-2.15, 4.80127, -3.75459],
			"rotation": {"angle": 0, "axis": "y", "origin": [-1.75, 2.91127, -4.50459]},
			"faces": {
				"north": {"uv": [0, 2.3, 2.8, 1.2], "rotation": 90, "texture": "#1"},
				"east": {"uv": [0, 1.45, 2.8, 0.725], "rotation": 270, "texture": "#1"},
				"south": {"uv": [0, 2.3, 2.8, 1.2], "rotation": 90, "texture": "#1"},
				"west": {"uv": [0, 1.45, 2.8, 0.725], "rotation": 90, "texture": "#1"},
				"up": {"uv": [1.2, 0.725, 2.3, 0], "texture": "#1"},
				"down": {"uv": [1.2, 0.725, 2.3, 0], "rotation": 180, "texture": "#1"}
			}
		},
		{
			"from": [-1.2, 2.16, -4.9],
			"to": [-0.85, 3.51, -0.7],
			"rotation": {"angle": -45, "axis": "x", "origin": [-1.75, 2.835, -2.8]},
			"faces": {
				"north": {"uv": [2.3, 0, 1.2, 1], "rotation": 180, "texture": "#1"},
				"east": {"uv": [5.6, 0, 2.8, 1], "rotation": 180, "texture": "#1"},
				"south": {"uv": [2.3, 0, 1.2, 1], "rotation": 180, "texture": "#1"},
				"west": {"uv": [5.6, 0, 2.8, 1], "rotation": 180, "texture": "#1"},
				"up": {"uv": [2.8, 1.2, 0, 2.3], "rotation": 90, "texture": "#1"},
				"down": {"uv": [2.8, 1.2, 0, 2.3], "rotation": 270, "texture": "#1"}
			}
		},
		{
			"from": [-2.15, 2.37127, -4.84209],
			"to": [-1.2, 4.80127, -2.85459],
			"rotation": {"angle": 0, "axis": "y", "origin": [-1.75, 2.91127, -4.50459]},
			"faces": {
				"north": {"uv": [0, 2.3, 1.6, 1.2], "rotation": 90, "texture": "#1"},
				"east": {"uv": [0, 2.65, 1.6, 1.325], "rotation": 270, "texture": "#1"},
				"south": {"uv": [0, 2.3, 1.6, 1.2], "rotation": 90, "texture": "#1"},
				"west": {"uv": [0, 2.65, 1.6, 1.325], "rotation": 90, "texture": "#1"},
				"up": {"uv": [1.2, 1.325, 2.3, 0], "texture": "#1"},
				"down": {"uv": [1.2, 1.325, 2.3, 0], "rotation": 180, "texture": "#1"}
			}
		},
		{
			"from": [17.2, 2.37127, -4.84209],
			"to": [18.15, 4.80127, -2.85459],
			"rotation": {"angle": 0, "axis": "y", "origin": [17.6, 2.91127, -4.50459]},
			"faces": {
				"north": {"uv": [0, 2.3, 1.6, 1.2], "rotation": 90, "texture": "#1"},
				"east": {"uv": [0, 2.65, 1.6, 1.325], "rotation": 270, "texture": "#1"},
				"south": {"uv": [0, 2.3, 1.6, 1.2], "rotation": 90, "texture": "#1"},
				"west": {"uv": [0, 2.65, 1.6, 1.325], "rotation": 90, "texture": "#1"},
				"up": {"uv": [1.2, 1.325, 2.3, 0], "texture": "#1"},
				"down": {"uv": [1.2, 1.325, 2.3, 0], "rotation": 180, "texture": "#1"}
			}
		},
		{
			"from": [-1.2, 1.02127, 19.75459],
			"to": [-0.85, 4.80127, 20.84209],
			"rotation": {"angle": 0, "axis": "y", "origin": [-1.75, 2.91127, 20.50459]},
			"faces": {
				"north": {"uv": [0, 1.2, 2.8, 2.3], "rotation": 90, "texture": "#1"},
				"east": {"uv": [0, 0.725, 2.8, 1.45], "rotation": 270, "texture": "#1"},
				"south": {"uv": [0, 1.2, 2.8, 2.3], "rotation": 90, "texture": "#1"},
				"west": {"uv": [0, 0.725, 2.8, 1.45], "rotation": 90, "texture": "#1"},
				"up": {"uv": [1.2, 0, 2.3, 0.725], "texture": "#1"},
				"down": {"uv": [1.2, 0, 2.3, 0.725], "rotation": 180, "texture": "#1"}
			}
		},
		{
			"from": [-1.2, 2.64127, 18.85459],
			"to": [-0.85, 4.80127, 20.84209],
			"rotation": {"angle": 0, "axis": "y", "origin": [-0.45, 2.91127, 20.50459]},
			"faces": {
				"north": {"uv": [0, 1.2, 1.6, 2.3], "rotation": 90, "texture": "#1"},
				"east": {"uv": [0, 1.325, 1.6, 2.65], "rotation": 270, "texture": "#1"},
				"south": {"uv": [0, 1.2, 1.6, 2.3], "rotation": 90, "texture": "#1"},
				"west": {"uv": [0, 1.325, 1.6, 2.65], "rotation": 90, "texture": "#1"},
				"up": {"uv": [1.2, 0, 2.3, 1.325], "texture": "#1"},
				"down": {"uv": [1.2, 0, 2.3, 1.325], "rotation": 180, "texture": "#1"}
			}
		},
		{
			"from": [-1.2, 2.16, 16.7],
			"to": [-0.85, 3.51, 20.9],
			"rotation": {"angle": 45, "axis": "x", "origin": [-1.75, 2.835, 18.8]},
			"faces": {
				"north": {"uv": [1.2, 0, 2.3, 1], "rotation": 180, "texture": "#1"},
				"east": {"uv": [2.8, 0, 5.6, 1], "rotation": 180, "texture": "#1"},
				"south": {"uv": [1.2, 0, 2.3, 1], "rotation": 180, "texture": "#1"},
				"west": {"uv": [2.8, 0, 5.6, 1], "rotation": 180, "texture": "#1"},
				"up": {"uv": [0, 1.2, 2.8, 2.3], "rotation": 90, "texture": "#1"},
				"down": {"uv": [0, 1.2, 2.8, 2.3], "rotation": 270, "texture": "#1"}
			}
		},
		{
			"from": [-2.15, 2.37127, 18.85459],
			"to": [-1.2, 4.80127, 20.84209],
			"rotation": {"angle": 0, "axis": "y", "origin": [-1.75, 2.91127, 20.50459]},
			"faces": {
				"north": {"uv": [0, 1.2, 1.6, 2.3], "rotation": 90, "texture": "#1"},
				"east": {"uv": [0, 1.325, 1.6, 2.65], "rotation": 270, "texture": "#1"},
				"south": {"uv": [0, 1.2, 1.6, 2.3], "rotation": 90, "texture": "#1"},
				"west": {"uv": [0, 1.325, 1.6, 2.65], "rotation": 90, "texture": "#1"},
				"up": {"uv": [1.2, 0, 2.3, 1.325], "texture": "#1"},
				"down": {"uv": [1.2, 0, 2.3, 1.325], "rotation": 180, "texture": "#1"}
			}
		},
		{
			"from": [-2.5, 1.02127, 19.75459],
			"to": [-2.15, 4.80127, 20.84209],
			"rotation": {"angle": 0, "axis": "y", "origin": [-1.75, 2.91127, 20.50459]},
			"faces": {
				"north": {"uv": [0, 1.2, 2.8, 2.3], "rotation": 90, "texture": "#1"},
				"east": {"uv": [0, 0.725, 2.8, 1.45], "rotation": 270, "texture": "#1"},
				"south": {"uv": [0, 1.2, 2.8, 2.3], "rotation": 90, "texture": "#1"},
				"west": {"uv": [0, 0.725, 2.8, 1.45], "rotation": 90, "texture": "#1"},
				"up": {"uv": [1.2, 0, 2.3, 0.725], "texture": "#1"},
				"down": {"uv": [1.2, 0, 2.3, 0.725], "rotation": 180, "texture": "#1"}
			}
		},
		{
			"from": [-2.5, 2.64127, 18.85459],
			"to": [-2.15, 4.80127, 20.84209],
			"rotation": {"angle": 0, "axis": "y", "origin": [-1.75, 2.91127, 20.50459]},
			"faces": {
				"north": {"uv": [0, 1.2, 1.6, 2.3], "rotation": 90, "texture": "#1"},
				"east": {"uv": [0, 1.325, 1.6, 2.65], "rotation": 270, "texture": "#1"},
				"south": {"uv": [0, 1.2, 1.6, 2.3], "rotation": 90, "texture": "#1"},
				"west": {"uv": [0, 1.325, 1.6, 2.65], "rotation": 90, "texture": "#1"},
				"up": {"uv": [1.2, 0, 2.3, 1.325], "texture": "#1"},
				"down": {"uv": [1.2, 0, 2.3, 1.325], "rotation": 180, "texture": "#1"}
			}
		},
		{
			"from": [-2.5, 2.16, 16.7],
			"to": [-2.15, 3.51, 20.9],
			"rotation": {"angle": 45, "axis": "x", "origin": [-1.75, 2.835, 18.8]},
			"faces": {
				"north": {"uv": [1.2, 0, 2.3, 1], "rotation": 180, "texture": "#1"},
				"east": {"uv": [2.8, 0, 5.6, 1], "rotation": 180, "texture": "#1"},
				"south": {"uv": [1.2, 0, 2.3, 1], "rotation": 180, "texture": "#1"},
				"west": {"uv": [2.8, 0, 5.6, 1], "rotation": 180, "texture": "#1"},
				"up": {"uv": [0, 1.2, 2.8, 2.3], "rotation": 90, "texture": "#1"},
				"down": {"uv": [0, 1.2, 2.8, 2.3], "rotation": 270, "texture": "#1"}
			}
		},
		{
			"from": [16.85, 1.02127, 19.75459],
			"to": [17.2, 4.80127, 20.84209],
			"rotation": {"angle": 0, "axis": "y", "origin": [17.75, 2.91127, 20.50459]},
			"faces": {
				"north": {"uv": [0, 2.3, 2.8, 1.2], "rotation": 90, "texture": "#1"},
				"east": {"uv": [0, 1.45, 2.8, 0.725], "rotation": 90, "texture": "#1"},
				"south": {"uv": [0, 2.3, 2.8, 1.2], "rotation": 90, "texture": "#1"},
				"west": {"uv": [0, 1.45, 2.8, 0.725], "rotation": 270, "texture": "#1"},
				"up": {"uv": [2.3, 0, 1.2, 0.725], "texture": "#1"},
				"down": {"uv": [2.3, 0, 1.2, 0.725], "rotation": 180, "texture": "#1"}
			}
		},
		{
			"from": [16.85, 2.16, 16.7],
			"to": [17.2, 3.51, 20.9],
			"rotation": {"angle": 45, "axis": "x", "origin": [17.75, 2.835, 18.8]},
			"faces": {
				"north": {"uv": [2.3, 0, 1.2, 1], "rotation": 180, "texture": "#1"},
				"east": {"uv": [5.6, 0, 2.8, 1], "rotation": 180, "texture": "#1"},
				"south": {"uv": [2.3, 0, 1.2, 1], "rotation": 180, "texture": "#1"},
				"west": {"uv": [5.6, 0, 2.8, 1], "rotation": 180, "texture": "#1"},
				"up": {"uv": [0, 2.3, 2.8, 1.2], "rotation": 90, "texture": "#1"},
				"down": {"uv": [0, 2.3, 2.8, 1.2], "rotation": 270, "texture": "#1"}
			}
		},
		{
			"from": [16.85, 2.64127, 18.85459],
			"to": [17.2, 4.80127, 20.84209],
			"rotation": {"angle": 0, "axis": "y", "origin": [16.45, 2.91127, 20.50459]},
			"faces": {
				"north": {"uv": [0, 2.3, 1.6, 1.2], "rotation": 90, "texture": "#1"},
				"east": {"uv": [0, 2.65, 1.6, 1.325], "rotation": 90, "texture": "#1"},
				"south": {"uv": [0, 2.3, 1.6, 1.2], "rotation": 90, "texture": "#1"},
				"west": {"uv": [0, 2.65, 1.6, 1.325], "rotation": 270, "texture": "#1"},
				"up": {"uv": [2.3, 0, 1.2, 1.325], "texture": "#1"},
				"down": {"uv": [2.3, 0, 1.2, 1.325], "rotation": 180, "texture": "#1"}
			}
		},
		{
			"from": [18.15, 2.64127, 18.85459],
			"to": [18.5, 4.80127, 20.84209],
			"rotation": {"angle": 0, "axis": "y", "origin": [17.75, 2.91127, 20.50459]},
			"faces": {
				"north": {"uv": [0, 2.3, 1.6, 1.2], "rotation": 90, "texture": "#1"},
				"east": {"uv": [0, 2.65, 1.6, 1.325], "rotation": 90, "texture": "#1"},
				"south": {"uv": [0, 2.3, 1.6, 1.2], "rotation": 90, "texture": "#1"},
				"west": {"uv": [0, 2.65, 1.6, 1.325], "rotation": 270, "texture": "#1"},
				"up": {"uv": [2.3, 0, 1.2, 1.325], "texture": "#1"},
				"down": {"uv": [2.3, 0, 1.2, 1.325], "rotation": 180, "texture": "#1"}
			}
		},
		{
			"from": [18.15, 1.02127, 19.75459],
			"to": [18.5, 4.80127, 20.84209],
			"rotation": {"angle": 0, "axis": "y", "origin": [17.75, 2.91127, 20.50459]},
			"faces": {
				"north": {"uv": [0, 2.3, 2.8, 1.2], "rotation": 90, "texture": "#1"},
				"east": {"uv": [0, 1.45, 2.8, 0.725], "rotation": 90, "texture": "#1"},
				"south": {"uv": [0, 2.3, 2.8, 1.2], "rotation": 90, "texture": "#1"},
				"west": {"uv": [0, 1.45, 2.8, 0.725], "rotation": 270, "texture": "#1"},
				"up": {"uv": [2.3, 0, 1.2, 0.725], "texture": "#1"},
				"down": {"uv": [2.3, 0, 1.2, 0.725], "rotation": 180, "texture": "#1"}
			}
		},
		{
			"from": [18.15, 2.16, 16.7],
			"to": [18.5, 3.51, 20.9],
			"rotation": {"angle": 45, "axis": "x", "origin": [17.75, 2.835, 18.8]},
			"faces": {
				"north": {"uv": [2.3, 0, 1.2, 1], "rotation": 180, "texture": "#1"},
				"east": {"uv": [5.6, 0, 2.8, 1], "rotation": 180, "texture": "#1"},
				"south": {"uv": [2.3, 0, 1.2, 1], "rotation": 180, "texture": "#1"},
				"west": {"uv": [5.6, 0, 2.8, 1], "rotation": 180, "texture": "#1"},
				"up": {"uv": [0, 2.3, 2.8, 1.2], "rotation": 90, "texture": "#1"},
				"down": {"uv": [0, 2.3, 2.8, 1.2], "rotation": 270, "texture": "#1"}
			}
		},
		{
			"from": [17.2, 2.37127, 18.85459],
			"to": [18.15, 4.80127, 20.84209],
			"rotation": {"angle": 0, "axis": "y", "origin": [17.6, 2.91127, 20.50459]},
			"faces": {
				"north": {"uv": [0, 1.2, 1.6, 2.3], "rotation": 90, "texture": "#1"},
				"east": {"uv": [0, 1.325, 1.6, 2.65], "rotation": 270, "texture": "#1"},
				"south": {"uv": [0, 1.2, 1.6, 2.3], "rotation": 90, "texture": "#1"},
				"west": {"uv": [0, 1.325, 1.6, 2.65], "rotation": 90, "texture": "#1"},
				"up": {"uv": [1.2, 0, 2.3, 1.325], "texture": "#1"},
				"down": {"uv": [1.2, 0, 2.3, 1.325], "rotation": 180, "texture": "#1"}
			}
		},
		{
			"from": [-1.2, 1.02127, -4.84209],
			"to": [-0.85, 4.80127, -3.75459],
			"rotation": {"angle": 0, "axis": "y", "origin": [-1.75, 2.91127, -4.50459]},
			"faces": {
				"north": {"uv": [0, 2.3, 2.8, 1.2], "rotation": 90, "texture": "#1"},
				"east": {"uv": [0, 1.45, 2.8, 0.725], "rotation": 270, "texture": "#1"},
				"south": {"uv": [0, 2.3, 2.8, 1.2], "rotation": 90, "texture": "#1"},
				"west": {"uv": [0, 1.45, 2.8, 0.725], "rotation": 90, "texture": "#1"},
				"up": {"uv": [1.2, 0.725, 2.3, 0], "texture": "#1"},
				"down": {"uv": [1.2, 0.725, 2.3, 0], "rotation": 180, "texture": "#1"}
			}
		},
		{
			"from": [-2.5, 2.64127, -4.84209],
			"to": [-2.15, 4.80127, -2.85459],
			"rotation": {"angle": 0, "axis": "y", "origin": [-1.75, 2.91127, -4.50459]},
			"faces": {
				"north": {"uv": [0, 2.3, 1.6, 1.2], "rotation": 90, "texture": "#1"},
				"east": {"uv": [0, 2.65, 1.6, 1.325], "rotation": 270, "texture": "#1"},
				"south": {"uv": [0, 2.3, 1.6, 1.2], "rotation": 90, "texture": "#1"},
				"west": {"uv": [0, 2.65, 1.6, 1.325], "rotation": 90, "texture": "#1"},
				"up": {"uv": [1.2, 1.325, 2.3, 0], "texture": "#1"},
				"down": {"uv": [1.2, 1.325, 2.3, 0], "rotation": 180, "texture": "#1"}
			}
		},
		{
			"from": [-1.2, 2.64127, -4.84209],
			"to": [-0.85, 4.80127, -2.85459],
			"rotation": {"angle": 0, "axis": "y", "origin": [-0.45, 2.91127, -4.50459]},
			"faces": {
				"north": {"uv": [0, 2.3, 1.6, 1.2], "rotation": 90, "texture": "#1"},
				"east": {"uv": [0, 2.65, 1.6, 1.325], "rotation": 270, "texture": "#1"},
				"south": {"uv": [0, 2.3, 1.6, 1.2], "rotation": 90, "texture": "#1"},
				"west": {"uv": [0, 2.65, 1.6, 1.325], "rotation": 90, "texture": "#1"},
				"up": {"uv": [1.2, 1.325, 2.3, 0], "texture": "#1"},
				"down": {"uv": [1.2, 1.325, 2.3, 0], "rotation": 180, "texture": "#1"}
			}
		},
		{
			"from": [-2.15, 2.16, -2.9],
			"to": [-1.2, 3.51, -0.7],
			"rotation": {"angle": -45, "axis": "x", "origin": [-1.75, 2.835, -2.8]},
			"faces": {
				"north": {"uv": [2.3, 0, 1.2, 1], "rotation": 180, "texture": "#1"},
				"east": {"uv": [5.6, 0, 2.8, 1], "rotation": 180, "texture": "#1"},
				"south": {"uv": [2.3, 0, 1.2, 1], "rotation": 180, "texture": "#1"},
				"west": {"uv": [5.6, 0, 2.8, 1], "rotation": 180, "texture": "#1"},
				"up": {"uv": [2.8, 1.2, 0, 2.3], "rotation": 90, "texture": "#1"},
				"down": {"uv": [2.8, 1.2, 0, 2.3], "rotation": 270, "texture": "#1"}
			}
		},
		{
			"from": [17.15, 0.5319, 18.94834],
			"to": [18.2, 1.51065, 21.64834],
			"rotation": {"angle": 0, "axis": "y", "origin": [17.675, 1.02127, 20.29834]},
			"faces": {
				"north": {"uv": [0, 0, 0.7, 0.725], "texture": "#2"},
				"east": {"uv": [0, 0, 1.8, 0.725], "texture": "#2"},
				"south": {"uv": [0, 0, 0.7, 0.725], "texture": "#2"},
				"west": {"uv": [0, 0, 1.8, 0.725], "texture": "#2"},
				"up": {"uv": [0, 0, 1.8, 0.7], "rotation": 270, "texture": "#2"},
				"down": {"uv": [0, 0, 1.8, 0.7], "rotation": 90, "texture": "#2"}
			}
		},
		{
			"from": [17.15, -0.19373, 19.75459],
			"to": [18.2, 2.23627, 20.84209],
			"rotation": {"angle": 0, "axis": "y", "origin": [17.675, 1.02127, 20.29834]},
			"faces": {
				"north": {"uv": [0, 0, 1.8, 0.7], "rotation": 90, "texture": "#2"},
				"east": {"uv": [0, 0, 1.8, 0.725], "rotation": 90, "texture": "#2"},
				"south": {"uv": [0, 0, 1.8, 0.7], "rotation": 90, "texture": "#2"},
				"west": {"uv": [0, 0, 1.8, 0.725], "rotation": 270, "texture": "#2"},
				"up": {"uv": [0, 0, 0.7, 0.725], "texture": "#2"},
				"down": {"uv": [0, 0, 0.7, 0.725], "rotation": 180, "texture": "#2"}
			}
		},
		{
			"from": [17.15, 0.5319, 18.94834],
			"to": [18.2, 1.51065, 21.64834],
			"rotation": {"angle": 45, "axis": "x", "origin": [17.675, 1.02127, 20.29834]},
			"faces": {
				"north": {"uv": [0, 0, 0.7, 0.725], "texture": "#2"},
				"east": {"uv": [0, 0, 1.8, 0.725], "texture": "#2"},
				"south": {"uv": [0, 0, 0.7, 0.725], "texture": "#2"},
				"west": {"uv": [0, 0, 1.8, 0.725], "texture": "#2"},
				"up": {"uv": [0, 0, 1.8, 0.7], "rotation": 270, "texture": "#2"},
				"down": {"uv": [0, 0, 1.8, 0.7], "rotation": 90, "texture": "#2"}
			}
		},
		{
			"from": [-2.2, -0.19373, 19.75459],
			"to": [-1.15, 2.23627, 20.84209],
			"rotation": {"angle": 45, "axis": "x", "origin": [-1.675, 1.02127, 20.29834]},
			"faces": {
				"north": {"uv": [0, 0.7, 1.8, 0], "rotation": 90, "texture": "#2"},
				"east": {"uv": [0, 0.725, 1.8, 0], "rotation": 270, "texture": "#2"},
				"south": {"uv": [0, 0.7, 1.8, 0], "rotation": 90, "texture": "#2"},
				"west": {"uv": [0, 0.725, 1.8, 0], "rotation": 90, "texture": "#2"},
				"up": {"uv": [0.7, 0, 0, 0.725], "texture": "#2"},
				"down": {"uv": [0.7, 0, 0, 0.725], "rotation": 180, "texture": "#2"}
			}
		},
		{
			"from": [-2.2, -0.19373, 19.75459],
			"to": [-1.15, 2.23627, 20.84209],
			"rotation": {"angle": 0, "axis": "y", "origin": [-1.675, 1.02127, 20.29834]},
			"faces": {
				"north": {"uv": [0, 0.7, 1.8, 0], "rotation": 90, "texture": "#2"},
				"east": {"uv": [0, 0.725, 1.8, 0], "rotation": 270, "texture": "#2"},
				"south": {"uv": [0, 0.7, 1.8, 0], "rotation": 90, "texture": "#2"},
				"west": {"uv": [0, 0.725, 1.8, 0], "rotation": 90, "texture": "#2"},
				"up": {"uv": [0.7, 0, 0, 0.725], "texture": "#2"},
				"down": {"uv": [0.7, 0, 0, 0.725], "rotation": 180, "texture": "#2"}
			}
		},
		{
			"from": [-2.2, 0.5319, 18.94834],
			"to": [-1.15, 1.51065, 21.64834],
			"rotation": {"angle": 0, "axis": "y", "origin": [-1.675, 1.02127, 20.29834]},
			"faces": {
				"north": {"uv": [0.7, 0, 0, 0.725], "texture": "#2"},
				"east": {"uv": [1.8, 0, 0, 0.725], "texture": "#2"},
				"south": {"uv": [0.7, 0, 0, 0.725], "texture": "#2"},
				"west": {"uv": [1.8, 0, 0, 0.725], "texture": "#2"},
				"up": {"uv": [0, 0.7, 1.8, 0], "rotation": 270, "texture": "#2"},
				"down": {"uv": [0, 0.7, 1.8, 0], "rotation": 90, "texture": "#2"}
			}
		},
		{
			"from": [-2.2, 0.5319, 18.94834],
			"to": [-1.15, 1.51065, 21.64834],
			"rotation": {"angle": 45, "axis": "x", "origin": [-1.675, 1.02127, 20.29834]},
			"faces": {
				"north": {"uv": [0.7, 0, 0, 0.725], "texture": "#2"},
				"east": {"uv": [1.8, 0, 0, 0.725], "texture": "#2"},
				"south": {"uv": [0.7, 0, 0, 0.725], "texture": "#2"},
				"west": {"uv": [1.8, 0, 0, 0.725], "texture": "#2"},
				"up": {"uv": [0, 0.7, 1.8, 0], "rotation": 270, "texture": "#2"},
				"down": {"uv": [0, 0.7, 1.8, 0], "rotation": 90, "texture": "#2"}
			}
		},
		{
			"from": [17.15, 0.5319, -5.64834],
			"to": [18.2, 1.51065, -2.94834],
			"rotation": {"angle": -45, "axis": "x", "origin": [17.675, 1.02127, -4.29834]},
			"faces": {
				"north": {"uv": [0.7, 0, 0, 0.725], "texture": "#2"},
				"east": {"uv": [1.8, 0, 0, 0.725], "texture": "#2"},
				"south": {"uv": [0.7, 0, 0, 0.725], "texture": "#2"},
				"west": {"uv": [1.8, 0, 0, 0.725], "texture": "#2"},
				"up": {"uv": [1.8, 0, 0, 0.7], "rotation": 270, "texture": "#2"},
				"down": {"uv": [1.8, 0, 0, 0.7], "rotation": 90, "texture": "#2"}
			}
		},
		{
			"from": [17.15, -0.19373, -4.84209],
			"to": [18.2, 2.23627, -3.75459],
			"rotation": {"angle": 0, "axis": "y", "origin": [17.675, 1.02127, -4.29834]},
			"faces": {
				"north": {"uv": [0, 0.7, 1.8, 0], "rotation": 90, "texture": "#2"},
				"east": {"uv": [0, 0.725, 1.8, 0], "rotation": 90, "texture": "#2"},
				"south": {"uv": [0, 0.7, 1.8, 0], "rotation": 90, "texture": "#2"},
				"west": {"uv": [0, 0.725, 1.8, 0], "rotation": 270, "texture": "#2"},
				"up": {"uv": [0, 0.725, 0.7, 0], "texture": "#2"},
				"down": {"uv": [0, 0.725, 0.7, 0], "rotation": 180, "texture": "#2"}
			}
		},
		{
			"from": [17.15, 0.5319, -5.64834],
			"to": [18.2, 1.51065, -2.94834],
			"rotation": {"angle": 0, "axis": "y", "origin": [17.675, 1.02127, -4.29834]},
			"faces": {
				"north": {"uv": [0.7, 0, 0, 0.725], "texture": "#2"},
				"east": {"uv": [1.8, 0, 0, 0.725], "texture": "#2"},
				"south": {"uv": [0.7, 0, 0, 0.725], "texture": "#2"},
				"west": {"uv": [1.8, 0, 0, 0.725], "texture": "#2"},
				"up": {"uv": [1.8, 0, 0, 0.7], "rotation": 270, "texture": "#2"},
				"down": {"uv": [1.8, 0, 0, 0.7], "rotation": 90, "texture": "#2"}
			}
		},
		{
			"from": [17.15, -0.19373, -4.84209],
			"to": [18.2, 2.23627, -3.75459],
			"rotation": {"angle": -45, "axis": "x", "origin": [17.675, 1.02127, -4.29834]},
			"faces": {
				"north": {"uv": [0, 0.7, 1.8, 0], "rotation": 90, "texture": "#2"},
				"east": {"uv": [0, 0.725, 1.8, 0], "rotation": 90, "texture": "#2"},
				"south": {"uv": [0, 0.7, 1.8, 0], "rotation": 90, "texture": "#2"},
				"west": {"uv": [0, 0.725, 1.8, 0], "rotation": 270, "texture": "#2"},
				"up": {"uv": [0, 0.725, 0.7, 0], "texture": "#2"},
				"down": {"uv": [0, 0.725, 0.7, 0], "rotation": 180, "texture": "#2"}
			}
		},
		{
			"from": [-2.2, -0.19373, -4.84209],
			"to": [-1.15, 2.23627, -3.75459],
			"rotation": {"angle": -45, "axis": "x", "origin": [-1.675, 1.02127, -4.29834]},
			"faces": {
				"north": {"uv": [0, 0, 1.8, 0.7], "rotation": 90, "texture": "#2"},
				"east": {"uv": [0, 0, 1.8, 0.725], "rotation": 270, "texture": "#2"},
				"south": {"uv": [0, 0, 1.8, 0.7], "rotation": 90, "texture": "#2"},
				"west": {"uv": [0, 0, 1.8, 0.725], "rotation": 90, "texture": "#2"},
				"up": {"uv": [0.7, 0.725, 0, 0], "texture": "#2"},
				"down": {"uv": [0.7, 0.725, 0, 0], "rotation": 180, "texture": "#2"}
			}
		},
		{
			"from": [-2.2, -0.19373, -4.84209],
			"to": [-1.15, 2.23627, -3.75459],
			"rotation": {"angle": 0, "axis": "y", "origin": [-1.675, 1.02127, -4.29834]},
			"faces": {
				"north": {"uv": [0, 0, 1.8, 0.7], "rotation": 90, "texture": "#2"},
				"east": {"uv": [0, 0, 1.8, 0.725], "rotation": 270, "texture": "#2"},
				"south": {"uv": [0, 0, 1.8, 0.7], "rotation": 90, "texture": "#2"},
				"west": {"uv": [0, 0, 1.8, 0.725], "rotation": 90, "texture": "#2"},
				"up": {"uv": [0.7, 0.725, 0, 0], "texture": "#2"},
				"down": {"uv": [0.7, 0.725, 0, 0], "rotation": 180, "texture": "#2"}
			}
		},
		{
			"from": [-2.2, 0.5319, -5.64834],
			"to": [-1.15, 1.51065, -2.94834],
			"rotation": {"angle": 0, "axis": "y", "origin": [-1.675, 1.02127, -4.29834]},
			"faces": {
				"north": {"uv": [0, 0, 0.7, 0.725], "texture": "#2"},
				"east": {"uv": [0, 0, 1.8, 0.725], "texture": "#2"},
				"south": {"uv": [0, 0, 0.7, 0.725], "texture": "#2"},
				"west": {"uv": [0, 0, 1.8, 0.725], "texture": "#2"},
				"up": {"uv": [1.8, 0.7, 0, 0], "rotation": 270, "texture": "#2"},
				"down": {"uv": [1.8, 0.7, 0, 0], "rotation": 90, "texture": "#2"}
			}
		},
		{
			"from": [-2.2, 0.5319, -5.64834],
			"to": [-1.15, 1.51065, -2.94834],
			"rotation": {"angle": -45, "axis": "x", "origin": [-1.675, 1.02127, -4.29834]},
			"faces": {
				"north": {"uv": [0, 0, 0.7, 0.725], "texture": "#2"},
				"east": {"uv": [0, 0, 1.8, 0.725], "texture": "#2"},
				"south": {"uv": [0, 0, 0.7, 0.725], "texture": "#2"},
				"west": {"uv": [0, 0, 1.8, 0.725], "texture": "#2"},
				"up": {"uv": [1.8, 0.7, 0, 0], "rotation": 270, "texture": "#2"},
				"down": {"uv": [1.8, 0.7, 0, 0], "rotation": 90, "texture": "#2"}
			}
		},
		{
			"from": [17.15, -0.19373, 19.75459],
			"to": [18.2, 2.23627, 20.84209],
			"rotation": {"angle": 45, "axis": "x", "origin": [17.675, 1.02127, 20.29834]},
			"faces": {
				"north": {"uv": [0, 0, 1.8, 0.7], "rotation": 90, "texture": "#2"},
				"east": {"uv": [0, 0, 1.8, 0.725], "rotation": 90, "texture": "#2"},
				"south": {"uv": [0, 0, 1.8, 0.7], "rotation": 90, "texture": "#2"},
				"west": {"uv": [0, 0, 1.8, 0.725], "rotation": 270, "texture": "#2"},
				"up": {"uv": [0, 0, 0.7, 0.725], "texture": "#2"},
				"down": {"uv": [0, 0, 0.7, 0.725], "rotation": 180, "texture": "#2"}
			}
		},
		{
			"from": [-3.1, 3.645, -5.5],
			"to": [-1.3, 15.795, 0.5],
			"rotation": {"angle": 0, "axis": "y", "origin": [0.875, 4.32, 9.875]},
			"faces": {
				"north": {"uv": [0, 0, 1.2, 9], "rotation": 180, "texture": "#0"},
				"east": {"uv": [0, 0, 4, 9], "rotation": 180, "texture": "#0"},
				"south": {"uv": [0, 0, 1.2, 9], "rotation": 180, "texture": "#0"},
				"west": {"uv": [0, 0, 4, 9], "rotation": 180, "texture": "#0"},
				"up": {"uv": [0, 0, 4, 1.2], "rotation": 90, "texture": "#0"},
				"down": {"uv": [0, 0, 4, 1.2], "rotation": 270, "texture": "#0"}
			}
		},
		{
			"from": [-3.1, 3.645, 15.5],
			"to": [-1.3, 15.795, 21.5],
			"rotation": {"angle": 0, "axis": "y", "origin": [0.875, 4.32, 30.875]},
			"faces": {
				"north": {"uv": [0, 0, 1.2, 9], "rotation": 180, "texture": "#0"},
				"east": {"uv": [0, 0, 4, 9], "rotation": 180, "texture": "#0"},
				"south": {"uv": [0, 0, 1.2, 9], "rotation": 180, "texture": "#0"},
				"west": {"uv": [0, 0, 4, 9], "rotation": 180, "texture": "#0"},
				"up": {"uv": [0, 0, 4, 1.2], "rotation": 90, "texture": "#0"},
				"down": {"uv": [0, 0, 4, 1.2], "rotation": 270, "texture": "#0"}
			}
		},
		{
			"from": [17.3, 3.645, -5.5],
			"to": [19.1, 15.795, 0.5],
			"rotation": {"angle": 0, "axis": "y", "origin": [15.125, 4.32, 9.875]},
			"faces": {
				"north": {"uv": [1.1, 0, 2.3, 9], "rotation": 180, "texture": "#0"},
				"east": {"uv": [4, 0, 8, 9], "rotation": 180, "texture": "#0"},
				"south": {"uv": [1.1, 0, 2.3, 9], "rotation": 180, "texture": "#0"},
				"west": {"uv": [4, 0, 8, 9], "rotation": 180, "texture": "#0"},
				"up": {"uv": [0, 1.1, 4, 2.3], "rotation": 90, "texture": "#0"},
				"down": {"uv": [0, 1.1, 4, 2.3], "rotation": 270, "texture": "#0"}
			}
		},
		{
			"from": [17.3, 3.645, 15.5],
			"to": [19.1, 15.795, 21.5],
			"rotation": {"angle": 0, "axis": "y", "origin": [15.125, 4.32, 30.875]},
			"faces": {
				"north": {"uv": [1.1, 0, 2.3, 9], "rotation": 180, "texture": "#0"},
				"east": {"uv": [4, 0, 8, 9], "rotation": 180, "texture": "#0"},
				"south": {"uv": [1.1, 0, 2.3, 9], "rotation": 180, "texture": "#0"},
				"west": {"uv": [4, 0, 8, 9], "rotation": 180, "texture": "#0"},
				"up": {"uv": [0, 1.1, 4, 2.3], "rotation": 90, "texture": "#0"},
				"down": {"uv": [0, 1.1, 4, 2.3], "rotation": 270, "texture": "#0"}
			}
		},
		{
			"from": [19.25, 22.005, 12.5],
			"to": [19.55, 26.595, 18.5],
			"rotation": {"angle": 0, "axis": "y", "origin": [17.075, 15.12, 27.875]},
			"faces": {
				"north": {"uv": [1.1, 0, 1.3, 3.4], "rotation": 180, "texture": "#0"},
				"east": {"uv": [4, 0, 8, 3.4], "rotation": 180, "texture": "#0"},
				"south": {"uv": [1.1, 0, 1.3, 3.4], "rotation": 180, "texture": "#0"},
				"west": {"uv": [4, 0, 8, 3.4], "rotation": 180, "texture": "#0"},
				"up": {"uv": [0, 1.1, 4, 1.3], "rotation": 90, "texture": "#0"},
				"down": {"uv": [0, 1.1, 4, 1.3], "rotation": 270, "texture": "#0"}
			}
		},
		{
			"from": [-4, 25.95375, -5.5],
			"to": [-2.2, 27.70875, 0.5],
			"rotation": {"angle": 45, "axis": "z", "origin": [-3.1, 26.83125, 5]},
			"faces": {
				"north": {"uv": [1.1, 0, 2.3, 1.3], "rotation": 180, "texture": "#3"},
				"east": {"uv": [4, 0, 8, 1.3], "rotation": 180, "texture": "#3"},
				"south": {"uv": [1.1, 0, 2.3, 1.3], "rotation": 180, "texture": "#3"},
				"west": {"uv": [4, 0, 8, 1.3], "rotation": 180, "texture": "#3"},
				"up": {"uv": [0, 1.1, 4, 2.3], "rotation": 90, "texture": "#3"},
				"down": {"uv": [0, 1.1, 4, 2.3], "rotation": 270, "texture": "#3"}
			}
		},
		{
			"from": [-4, 25.95375, 15.5],
			"to": [-2.2, 27.70875, 21.5],
			"rotation": {"angle": 45, "axis": "z", "origin": [-3.1, 26.83125, 11]},
			"faces": {
				"north": {"uv": [1.1, 0, 2.3, 1.3], "rotation": 180, "texture": "#3"},
				"east": {"uv": [4, 0, 8, 1.3], "rotation": 180, "texture": "#3"},
				"south": {"uv": [1.1, 0, 2.3, 1.3], "rotation": 180, "texture": "#3"},
				"west": {"uv": [4, 0, 8, 1.3], "rotation": 180, "texture": "#3"},
				"up": {"uv": [0, 1.1, 4, 2.3], "rotation": 90, "texture": "#3"},
				"down": {"uv": [0, 1.1, 4, 2.3], "rotation": 270, "texture": "#3"}
			}
		},
		{
			"from": [19.25, 27.36, 9.5],
			"to": [19.85, 28.44, 15.5],
			"rotation": {"angle": -45, "axis": "y", "origin": [19.55, 27.8325, 12.5]},
			"faces": {
				"north": {"uv": [1.1, 0, 1.5, 0.8], "rotation": 180, "texture": "#3"},
				"east": {"uv": [4, 0, 8, 0.8], "rotation": 180, "texture": "#3"},
				"south": {"uv": [1.1, 0, 1.5, 0.8], "rotation": 180, "texture": "#3"},
				"west": {"uv": [4, 0, 8, 0.8], "rotation": 180, "texture": "#3"},
				"up": {"uv": [0, 1.1, 4, 1.5], "rotation": 90, "texture": "#3"},
				"down": {"uv": [0, 1.1, 4, 1.5], "rotation": 270, "texture": "#3"}
			}
		},
		{
			"from": [16.55, 27.36, 3.2],
			"to": [22.55, 28.44, 3.8],
			"rotation": {"angle": -45, "axis": "y", "origin": [19.55, 27.9, 3.5]},
			"faces": {
				"north": {"uv": [4, 0, 8, 0.8], "rotation": 180, "texture": "#3"},
				"east": {"uv": [1.1, 0, 1.5, 0.8], "rotation": 180, "texture": "#3"},
				"south": {"uv": [4, 0, 8, 0.8], "rotation": 180, "texture": "#3"},
				"west": {"uv": [1.1, 0, 1.5, 0.8], "rotation": 180, "texture": "#3"},
				"up": {"uv": [0, 1.1, 4, 1.5], "texture": "#3"},
				"down": {"uv": [0, 1.1, 4, 1.5], "texture": "#3"}
			}
		},
		{
			"from": [-3.85, 20.655, 9.5],
			"to": [-3.25, 21.735, 15.5],
			"rotation": {"angle": 45, "axis": "y", "origin": [-3.55, 21.1275, 12.5]},
			"faces": {
				"north": {"uv": [1.5, 0, 1.9, 0.8], "rotation": 180, "texture": "#0"},
				"east": {"uv": [8, 0, 12, 0.8], "rotation": 180, "texture": "#0"},
				"south": {"uv": [1.5, 0, 1.9, 0.8], "rotation": 180, "texture": "#0"},
				"west": {"uv": [8, 0, 12, 0.8], "rotation": 180, "texture": "#0"},
				"up": {"uv": [0, 1.5, 4, 1.9], "rotation": 90, "texture": "#0"},
				"down": {"uv": [0, 1.5, 4, 1.9], "rotation": 270, "texture": "#0"}
			}
		},
		{
			"from": [-5.88345, 20.655, 5.41581],
			"to": [-5.28345, 21.735, 10.59081],
			"rotation": {"angle": 0, "axis": "y", "origin": [-5.58345, 21.195, 7.59081]},
			"faces": {
				"north": {"uv": [1.5, 0, 1.9, 0.8], "rotation": 180, "texture": "#0"},
				"east": {"uv": [7.45, 0, 10.9, 0.8], "rotation": 180, "texture": "#0"},
				"south": {"uv": [1.5, 0, 1.9, 0.8], "rotation": 180, "texture": "#0"},
				"west": {"uv": [7.45, 0, 10.9, 0.8], "rotation": 180, "texture": "#0"},
				"up": {"uv": [0, 1.5, 3.45, 1.9], "rotation": 90, "texture": "#0"},
				"down": {"uv": [0, 1.5, 3.45, 1.9], "rotation": 270, "texture": "#0"}
			}
		},
		{
			"from": [-6.59393, 20.655, 3.10056],
			"to": [-0.44393, 21.735, 3.70056],
			"rotation": {"angle": 45, "axis": "y", "origin": [-3.44393, 21.195, 3.40056]},
			"faces": {
				"north": {"uv": [8.1, 0, 12.2, 0.8], "rotation": 180, "texture": "#0"},
				"east": {"uv": [1.5, 0, 1.9, 0.8], "rotation": 180, "texture": "#0"},
				"south": {"uv": [8.1, 0, 12.2, 0.8], "rotation": 180, "texture": "#0"},
				"west": {"uv": [1.5, 0, 1.9, 0.8], "rotation": 180, "texture": "#0"},
				"up": {"uv": [4.1, 1.1, 8.2, 1.5], "texture": "#0"},
				"down": {"uv": [4.1, 1.1, 8.2, 1.5], "texture": "#0"}
			}
		},
		{
			"from": [21.28345, 27.36, 5.41581],
			"to": [21.88345, 28.44, 10.59081],
			"rotation": {"angle": 0, "axis": "y", "origin": [21.58345, 27.9, 7.59081]},
			"faces": {
				"north": {"uv": [1.1, 0, 1.5, 0.8], "rotation": 180, "texture": "#3"},
				"east": {"uv": [4, 0, 7.45, 0.8], "rotation": 180, "texture": "#3"},
				"south": {"uv": [1.1, 0, 1.5, 0.8], "rotation": 180, "texture": "#3"},
				"west": {"uv": [4, 0, 7.45, 0.8], "rotation": 180, "texture": "#3"},
				"up": {"uv": [0, 1.1, 3.45, 1.5], "rotation": 90, "texture": "#3"},
				"down": {"uv": [0, 1.1, 3.45, 1.5], "rotation": 270, "texture": "#3"}
			}
		},
		{
			"from": [19.25, 22.005, -2.5],
			"to": [19.55, 26.595, 3.5],
			"rotation": {"angle": 0, "axis": "y", "origin": [17.075, 15.12, 12.875]},
			"faces": {
				"north": {"uv": [1.1, 0, 1.3, 3.4], "rotation": 180, "texture": "#0"},
				"east": {"uv": [4, 0, 8, 3.4], "rotation": 180, "texture": "#0"},
				"south": {"uv": [1.1, 0, 1.3, 3.4], "rotation": 180, "texture": "#0"},
				"west": {"uv": [4, 0, 8, 3.4], "rotation": 180, "texture": "#0"},
				"up": {"uv": [0, 1.1, 4, 1.3], "rotation": 90, "texture": "#0"},
				"down": {"uv": [0, 1.1, 4, 1.3], "rotation": 270, "texture": "#0"}
			}
		},
		{
			"from": [12.8, 20.03798, 23.85546],
			"to": [14.45, 22.73798, 24.30546],
			"rotation": {"angle": -45, "axis": "x", "origin": [13.625, 20.71298, 24.08046]},
			"faces": {
				"north": {"uv": [1.1, 0, 2.2, 2], "rotation": 180, "texture": "#0"},
				"east": {"uv": [4, 0, 4.3, 2], "rotation": 180, "texture": "#0"},
				"south": {"uv": [1.1, 0, 2.2, 2], "rotation": 180, "texture": "#0"},
				"west": {"uv": [4, 0, 4.3, 2], "rotation": 180, "texture": "#0"},
				"up": {"uv": [0, 1.1, 0.3, 2.2], "rotation": 90, "texture": "#0"},
				"down": {"uv": [0, 1.1, 0.3, 2.2], "rotation": 270, "texture": "#0"}
			}
		},
		{
			"from": [12.8, 16.11058, 21.73414],
			"to": [14.45, 18.81058, 22.18414],
			"rotation": {"angle": 45, "axis": "x", "origin": [13.625, 15.43558, 21.95914]},
			"faces": {
				"north": {"uv": [1.1, 0, 2.2, 2], "rotation": 180, "texture": "#0"},
				"east": {"uv": [4, 0, 4.3, 2], "rotation": 180, "texture": "#0"},
				"south": {"uv": [1.1, 0, 2.2, 2], "rotation": 180, "texture": "#0"},
				"west": {"uv": [4, 0, 4.3, 2], "rotation": 180, "texture": "#0"},
				"up": {"uv": [0, 1.1, 0.3, 2.2], "rotation": 90, "texture": "#0"},
				"down": {"uv": [0, 1.1, 0.3, 2.2], "rotation": 270, "texture": "#0"}
			}
		},
		{
			"from": [12.8, 17.67887, 24.31989],
			"to": [14.45, 20.37887, 24.76989],
			"rotation": {"angle": 0, "axis": "y", "origin": [13.625, 17.00387, 24.54489]},
			"faces": {
				"north": {"uv": [1.1, 0, 2.2, 2], "rotation": 180, "texture": "#0"},
				"east": {"uv": [4, 0, 4.3, 2], "rotation": 180, "texture": "#0"},
				"south": {"uv": [1.1, 0, 2.2, 2], "rotation": 180, "texture": "#0"},
				"west": {"uv": [4, 0, 4.3, 2], "rotation": 180, "texture": "#0"},
				"up": {"uv": [0, 1.1, 0.3, 2.2], "rotation": 90, "texture": "#0"},
				"down": {"uv": [0, 1.1, 0.3, 2.2], "rotation": 270, "texture": "#0"}
			}
		},
		{
			"from": [12.8, 16.11058, -6.18414],
			"to": [14.45, 18.81058, -5.73414],
			"rotation": {"angle": -45, "axis": "x", "origin": [13.625, 15.43558, -5.95914]},
			"faces": {
				"north": {"uv": [2.2, 0, 3.3, 2], "rotation": 180, "texture": "#0"},
				"east": {"uv": [4.3, 0, 4.6, 2], "rotation": 180, "texture": "#0"},
				"south": {"uv": [2.2, 0, 3.3, 2], "rotation": 180, "texture": "#0"},
				"west": {"uv": [4.3, 0, 4.6, 2], "rotation": 180, "texture": "#0"},
				"up": {"uv": [0.3, 1.1, 0.6, 2.2], "rotation": 90, "texture": "#0"},
				"down": {"uv": [0.3, 1.1, 0.6, 2.2], "rotation": 270, "texture": "#0"}
			}
		},
		{
			"from": [12.8, 20.03798, -8.30546],
			"to": [14.45, 22.73798, -7.85546],
			"rotation": {"angle": 45, "axis": "x", "origin": [13.625, 20.71298, -8.08046]},
			"faces": {
				"north": {"uv": [2.2, 0, 3.3, 2], "rotation": 180, "texture": "#0"},
				"east": {"uv": [4.3, 0, 4.6, 2], "rotation": 180, "texture": "#0"},
				"south": {"uv": [2.2, 0, 3.3, 2], "rotation": 180, "texture": "#0"},
				"west": {"uv": [4.3, 0, 4.6, 2], "rotation": 180, "texture": "#0"},
				"up": {"uv": [0.3, 1.1, 0.6, 2.2], "rotation": 90, "texture": "#0"},
				"down": {"uv": [0.3, 1.1, 0.6, 2.2], "rotation": 270, "texture": "#0"}
			}
		},
		{
			"from": [12.8, 17.67887, -8.76989],
			"to": [14.45, 20.37887, -8.31989],
			"rotation": {"angle": 0, "axis": "y", "origin": [13.625, 17.00387, -8.54489]},
			"faces": {
				"north": {"uv": [2.2, 0, 3.3, 2], "rotation": 180, "texture": "#0"},
				"east": {"uv": [4.3, 0, 4.6, 2], "rotation": 180, "texture": "#0"},
				"south": {"uv": [2.2, 0, 3.3, 2], "rotation": 180, "texture": "#0"},
				"west": {"uv": [4.3, 0, 4.6, 2], "rotation": 180, "texture": "#0"},
				"up": {"uv": [0.3, 1.1, 0.6, 2.2], "rotation": 90, "texture": "#0"},
				"down": {"uv": [0.3, 1.1, 0.6, 2.2], "rotation": 270, "texture": "#0"}
			}
		},
		{
			"from": [-2.5, 2.16, -4.9],
			"to": [-2.15, 3.51, -0.7],
			"rotation": {"angle": -45, "axis": "x", "origin": [-1.75, 2.835, -2.8]},
			"faces": {
				"north": {"uv": [2.3, 0, 1.2, 1], "rotation": 180, "texture": "#1"},
				"east": {"uv": [5.6, 0, 2.8, 1], "rotation": 180, "texture": "#1"},
				"south": {"uv": [2.3, 0, 1.2, 1], "rotation": 180, "texture": "#1"},
				"west": {"uv": [5.6, 0, 2.8, 1], "rotation": 180, "texture": "#1"},
				"up": {"uv": [2.8, 1.2, 0, 2.3], "rotation": 90, "texture": "#1"},
				"down": {"uv": [2.8, 1.2, 0, 2.3], "rotation": 270, "texture": "#1"}
			}
		},
		{
			"from": [16.85, 1.02127, -4.84209],
			"to": [17.2, 4.80127, -3.75459],
			"rotation": {"angle": 0, "axis": "y", "origin": [17.75, 2.91127, -4.50459]},
			"faces": {
				"north": {"uv": [0, 1.2, 2.8, 2.3], "rotation": 90, "texture": "#1"},
				"east": {"uv": [0, 0.725, 2.8, 1.45], "rotation": 90, "texture": "#1"},
				"south": {"uv": [0, 1.2, 2.8, 2.3], "rotation": 90, "texture": "#1"},
				"west": {"uv": [0, 0.725, 2.8, 1.45], "rotation": 270, "texture": "#1"},
				"up": {"uv": [2.3, 0.725, 1.2, 0], "texture": "#1"},
				"down": {"uv": [2.3, 0.725, 1.2, 0], "rotation": 180, "texture": "#1"}
			}
		},
		{
			"from": [16.85, 2.64127, -4.84209],
			"to": [17.2, 4.80127, -2.85459],
			"rotation": {"angle": 0, "axis": "y", "origin": [16.45, 2.91127, -4.50459]},
			"faces": {
				"north": {"uv": [0, 1.2, 1.6, 2.3], "rotation": 90, "texture": "#1"},
				"east": {"uv": [0, 1.325, 1.6, 2.65], "rotation": 90, "texture": "#1"},
				"south": {"uv": [0, 1.2, 1.6, 2.3], "rotation": 90, "texture": "#1"},
				"west": {"uv": [0, 1.325, 1.6, 2.65], "rotation": 270, "texture": "#1"},
				"up": {"uv": [2.3, 1.325, 1.2, 0], "texture": "#1"},
				"down": {"uv": [2.3, 1.325, 1.2, 0], "rotation": 180, "texture": "#1"}
			}
		},
		{
			"from": [16.85, 2.16, -4.9],
			"to": [17.2, 3.51, -0.7],
			"rotation": {"angle": -45, "axis": "x", "origin": [17.75, 2.835, -2.8]},
			"faces": {
				"north": {"uv": [1.2, 0, 2.3, 1], "rotation": 180, "texture": "#1"},
				"east": {"uv": [2.8, 0, 5.6, 1], "rotation": 180, "texture": "#1"},
				"south": {"uv": [1.2, 0, 2.3, 1], "rotation": 180, "texture": "#1"},
				"west": {"uv": [2.8, 0, 5.6, 1], "rotation": 180, "texture": "#1"},
				"up": {"uv": [2.8, 2.3, 0, 1.2], "rotation": 90, "texture": "#1"},
				"down": {"uv": [2.8, 2.3, 0, 1.2], "rotation": 270, "texture": "#1"}
			}
		},
		{
			"from": [17.2, 2.16, -2.9],
			"to": [18.15, 3.51, -0.7],
			"rotation": {"angle": -45, "axis": "x", "origin": [17.75, 2.835, -2.8]},
			"faces": {
				"north": {"uv": [1.2, 0, 2.3, 1], "rotation": 180, "texture": "#1"},
				"east": {"uv": [2.8, 0, 5.6, 1], "rotation": 180, "texture": "#1"},
				"south": {"uv": [1.2, 0, 2.3, 1], "rotation": 180, "texture": "#1"},
				"west": {"uv": [2.8, 0, 5.6, 1], "rotation": 180, "texture": "#1"},
				"up": {"uv": [2.8, 2.3, 0, 1.2], "rotation": 90, "texture": "#1"},
				"down": {"uv": [2.8, 2.3, 0, 1.2], "rotation": 270, "texture": "#1"}
			}
		},
		{
			"from": [18.15, 2.64127, -4.84209],
			"to": [18.5, 4.80127, -2.85459],
			"rotation": {"angle": 0, "axis": "y", "origin": [17.75, 2.91127, -4.50459]},
			"faces": {
				"north": {"uv": [0, 1.2, 1.6, 2.3], "rotation": 90, "texture": "#1"},
				"east": {"uv": [0, 1.325, 1.6, 2.65], "rotation": 90, "texture": "#1"},
				"south": {"uv": [0, 1.2, 1.6, 2.3], "rotation": 90, "texture": "#1"},
				"west": {"uv": [0, 1.325, 1.6, 2.65], "rotation": 270, "texture": "#1"},
				"up": {"uv": [2.3, 1.325, 1.2, 0], "texture": "#1"},
				"down": {"uv": [2.3, 1.325, 1.2, 0], "rotation": 180, "texture": "#1"}
			}
		},
		{
			"from": [18.15, 1.02127, -4.84209],
			"to": [18.5, 4.80127, -3.75459],
			"rotation": {"angle": 0, "axis": "y", "origin": [17.75, 2.91127, -4.50459]},
			"faces": {
				"north": {"uv": [0, 1.2, 2.8, 2.3], "rotation": 90, "texture": "#1"},
				"east": {"uv": [0, 0.725, 2.8, 1.45], "rotation": 90, "texture": "#1"},
				"south": {"uv": [0, 1.2, 2.8, 2.3], "rotation": 90, "texture": "#1"},
				"west": {"uv": [0, 0.725, 2.8, 1.45], "rotation": 270, "texture": "#1"},
				"up": {"uv": [2.3, 0.725, 1.2, 0], "texture": "#1"},
				"down": {"uv": [2.3, 0.725, 1.2, 0], "rotation": 180, "texture": "#1"}
			}
		},
		{
			"from": [18.15, 2.16, -4.9],
			"to": [18.5, 3.51, -0.7],
			"rotation": {"angle": -45, "axis": "x", "origin": [17.75, 2.835, -2.8]},
			"faces": {
				"north": {"uv": [1.2, 0, 2.3, 1], "rotation": 180, "texture": "#1"},
				"east": {"uv": [2.8, 0, 5.6, 1], "rotation": 180, "texture": "#1"},
				"south": {"uv": [1.2, 0, 2.3, 1], "rotation": 180, "texture": "#1"},
				"west": {"uv": [2.8, 0, 5.6, 1], "rotation": 180, "texture": "#1"},
				"up": {"uv": [2.8, 2.3, 0, 1.2], "rotation": 90, "texture": "#1"},
				"down": {"uv": [2.8, 2.3, 0, 1.2], "rotation": 270, "texture": "#1"}
			}
		}
	],
	"display": {
		"thirdperson_righthand": {
			"rotation": [68, 90, 0],
			"translation": [-5.75, 8, -9]
		},
		"firstperson_righthand": {
			"rotation": [0, 90, 0],
			"translation": [-9.25, -12.25, -8.5]
		},
		"firstperson_lefthand": {
			"rotation": [0, 90, 0],
			"translation": [-9.25, -12.25, -8.5]
		},
		"gui": {
			"rotation": [0, -127.5, 0],
			"translation": [0, -3, 0],
			"scale": [0.4, 0.4, 0.4]
		}
	}
}