{
	"credit": "Made with Blockbench",
	"textures": {
		"0": "landmine/MIGHTY_ALL_IN_ONE",
		"particle": "landmine/MIGHTY_ALL_IN_ONE"
	},
	"elements": [
		{
			"from": [8.22316, -1.285, 5.18651],
			"to": [9.05516, -0.995, 5.60251],
			"rotation": {"angle": -45, "axis": "y", "origin": [8.59541, -1.09, 7.28659]},
			"faces": {
				"north": {"uv": [14.25, 6.375, 14.375, 6.5], "texture": "#0"},
				"east": {"uv": [14.25, 6.375, 14.375, 6.5], "texture": "#0"},
				"south": {"uv": [14.25, 6.375, 14.375, 6.5], "texture": "#0"},
				"west": {"uv": [14.25, 6.375, 14.375, 6.5], "texture": "#0"},
				"up": {"uv": [14.25, 6.375, 14.375, 6.5], "texture": "#0"},
				"down": {"uv": [14.25, 6.375, 14.375, 6.5], "texture": "#0"}
			}
		},
		{
			"from": [8.22316, -1.285, 5.20392],
			"to": [9.05516, -0.995, 5.59992],
			"rotation": {"angle": -22.5, "axis": "y", "origin": [8.59541, -1.09, 7.28659]},
			"faces": {
				"north": {"uv": [14.25, 6.375, 14.375, 6.5], "texture": "#0"},
				"east": {"uv": [14.25, 6.375, 14.375, 6.5], "texture": "#0"},
				"south": {"uv": [14.25, 6.375, 14.375, 6.5], "texture": "#0"},
				"west": {"uv": [14.25, 6.375, 14.375, 6.5], "texture": "#0"},
				"up": {"uv": [14.25, 6.375, 14.375, 6.5], "texture": "#0"},
				"down": {"uv": [14.25, 6.375, 14.375, 6.5], "texture": "#0"}
			}
		},
		{
			"from": [8.20419, -1.285, 10.41905],
			"to": [9.03619, -0.995, 10.81505],
			"rotation": {"angle": 22.5, "axis": "y", "origin": [8.59541, -1.09, 8.68659]},
			"faces": {
				"north": {"uv": [14.25, 6.375, 14.375, 6.5], "texture": "#0"},
				"east": {"uv": [14.25, 6.375, 14.375, 6.5], "texture": "#0"},
				"south": {"uv": [14.25, 6.375, 14.375, 6.5], "texture": "#0"},
				"west": {"uv": [14.25, 6.375, 14.375, 6.5], "texture": "#0"},
				"up": {"uv": [14.25, 6.375, 14.375, 6.5], "texture": "#0"},
				"down": {"uv": [14.25, 6.375, 14.375, 6.5], "texture": "#0"}
			}
		},
		{
			"from": [8.20419, -1.285, 5.23231],
			"to": [9.03619, -0.995, 5.64831],
			"rotation": {"angle": 22.5, "axis": "y", "origin": [8.59541, -1.09, 7.28659]},
			"faces": {
				"north": {"uv": [14.25, 6.375, 14.375, 6.5], "texture": "#0"},
				"east": {"uv": [14.25, 6.375, 14.375, 6.5], "texture": "#0"},
				"south": {"uv": [14.25, 6.375, 14.375, 6.5], "texture": "#0"},
				"west": {"uv": [14.25, 6.375, 14.375, 6.5], "texture": "#0"},
				"up": {"uv": [14.25, 6.375, 14.375, 6.5], "texture": "#0"},
				"down": {"uv": [14.25, 6.375, 14.375, 6.5], "texture": "#0"}
			}
		},
		{
			"from": [9.91557, -1.285, 6.90768],
			"to": [10.71157, -0.995, 7.73968],
			"rotation": {"angle": 22.5, "axis": "y", "origin": [8.59541, -1.09, 7.28659]},
			"faces": {
				"north": {"uv": [14.25, 6.375, 14.375, 6.5], "texture": "#0"},
				"east": {"uv": [14.25, 6.375, 14.375, 6.5], "texture": "#0"},
				"south": {"uv": [14.25, 6.375, 14.375, 6.5], "texture": "#0"},
				"west": {"uv": [14.25, 6.375, 14.375, 6.5], "texture": "#0"},
				"up": {"uv": [14.25, 6.375, 14.375, 6.5], "texture": "#0"},
				"down": {"uv": [14.25, 6.375, 14.375, 6.5], "texture": "#0"}
			}
		},
		{
			"from": [8.22316, -1.285, 10.37326],
			"to": [9.05516, -0.995, 10.76926],
			"rotation": {"angle": -45, "axis": "y", "origin": [8.59541, -1.09, 8.68659]},
			"faces": {
				"north": {"uv": [14.25, 6.375, 14.375, 6.5], "texture": "#0"},
				"east": {"uv": [14.25, 6.375, 14.375, 6.5], "texture": "#0"},
				"south": {"uv": [14.25, 6.375, 14.375, 6.5], "texture": "#0"},
				"west": {"uv": [14.25, 6.375, 14.375, 6.5], "texture": "#0"},
				"up": {"uv": [14.25, 6.375, 14.375, 6.5], "texture": "#0"},
				"down": {"uv": [14.25, 6.375, 14.375, 6.5], "texture": "#0"}
			}
		},
		{
			"from": [8.2165, -1.285, 5.22],
			"to": [9.0485, -0.995, 5.636],
			"rotation": {"angle": 0, "axis": "y", "origin": [8.59541, -1.09, 7.28659]},
			"faces": {
				"north": {"uv": [14.25, 6.375, 14.375, 6.5], "texture": "#0"},
				"east": {"uv": [14.25, 6.375, 14.375, 6.5], "texture": "#0"},
				"south": {"uv": [14.25, 6.375, 14.375, 6.5], "texture": "#0"},
				"west": {"uv": [14.25, 6.375, 14.375, 6.5], "texture": "#0"},
				"up": {"uv": [14.25, 6.375, 14.375, 6.5], "texture": "#0"},
				"down": {"uv": [14.25, 6.375, 14.375, 6.5], "texture": "#0"}
			}
		},
		{
			"from": [6.92787, -1.285, 6.89537],
			"to": [10.72387, -0.995, 9.12737],
			"rotation": {"angle": 0, "axis": "y", "origin": [8.59541, -1.09, 7.98659]},
			"faces": {
				"north": {"uv": [14.25, 6.375, 14.375, 6.5], "texture": "#0"},
				"east": {"uv": [14.25, 6.375, 14.375, 6.5], "texture": "#0"},
				"south": {"uv": [14.25, 6.375, 14.375, 6.5], "texture": "#0"},
				"west": {"uv": [14.25, 6.375, 14.375, 6.5], "texture": "#0"},
				"up": {"uv": [14.25, 6.375, 14.375, 6.5], "texture": "#0"},
				"down": {"uv": [14.25, 6.375, 14.375, 6.5], "texture": "#0"}
			}
		},
		{
			"from": [6.54113, -1.285, 6.89537],
			"to": [6.95713, -0.995, 9.12737],
			"rotation": {"angle": 0, "axis": "y", "origin": [8.59541, -1.09, 7.98659]},
			"faces": {
				"north": {"uv": [14.25, 6.375, 14.375, 6.5], "texture": "#0"},
				"east": {"uv": [14.25, 6.375, 14.375, 6.5], "texture": "#0"},
				"south": {"uv": [14.25, 6.375, 14.375, 6.5], "texture": "#0"},
				"west": {"uv": [14.25, 6.375, 14.375, 6.5], "texture": "#0"},
				"up": {"uv": [14.25, 6.375, 14.375, 6.5], "texture": "#0"},
				"down": {"uv": [14.25, 6.375, 14.375, 6.5], "texture": "#0"}
			}
		},
		{
			"from": [8.2165, -1.285, 10.40675],
			"to": [9.0485, -0.995, 10.80275],
			"rotation": {"angle": 0, "axis": "y", "origin": [8.59541, -1.09, 8.68659]},
			"faces": {
				"north": {"uv": [14.25, 6.375, 14.375, 6.5], "texture": "#0"},
				"east": {"uv": [14.25, 6.375, 14.375, 6.5], "texture": "#0"},
				"south": {"uv": [14.25, 6.375, 14.375, 6.5], "texture": "#0"},
				"west": {"uv": [14.25, 6.375, 14.375, 6.5], "texture": "#0"},
				"up": {"uv": [14.25, 6.375, 14.375, 6.5], "texture": "#0"},
				"down": {"uv": [14.25, 6.375, 14.375, 6.5], "texture": "#0"}
			}
		},
		{
			"from": [10.31453, -1.285, 8.27929],
			"to": [10.73053, -0.995, 9.11129],
			"rotation": {"angle": -22.5, "axis": "y", "origin": [8.59541, -1.09, 8.68659]},
			"faces": {
				"north": {"uv": [14.25, 6.375, 14.375, 6.5], "texture": "#0"},
				"east": {"uv": [14.25, 6.375, 14.375, 6.5], "texture": "#0"},
				"south": {"uv": [14.25, 6.375, 14.375, 6.5], "texture": "#0"},
				"west": {"uv": [14.25, 6.375, 14.375, 6.5], "texture": "#0"},
				"up": {"uv": [14.25, 6.375, 14.375, 6.5], "texture": "#0"},
				"down": {"uv": [14.25, 6.375, 14.375, 6.5], "texture": "#0"}
			}
		},
		{
			"from": [6.54779, -1.285, 6.87929],
			"to": [6.94379, -0.995, 7.71129],
			"rotation": {"angle": -22.5, "axis": "y", "origin": [8.59541, -1.09, 7.28659]},
			"faces": {
				"north": {"uv": [14.25, 6.375, 14.375, 6.5], "texture": "#0"},
				"east": {"uv": [14.25, 6.375, 14.375, 6.5], "texture": "#0"},
				"south": {"uv": [14.25, 6.375, 14.375, 6.5], "texture": "#0"},
				"west": {"uv": [14.25, 6.375, 14.375, 6.5], "texture": "#0"},
				"up": {"uv": [14.25, 6.375, 14.375, 6.5], "texture": "#0"},
				"down": {"uv": [14.25, 6.375, 14.375, 6.5], "texture": "#0"}
			}
		},
		{
			"from": [6.76887, -1.285, 7.38364],
			"to": [10.56487, -0.995, 9.01564],
			"rotation": {"angle": -22.5, "axis": "y", "origin": [8.56687, -1.09, 8.18714]},
			"faces": {
				"north": {"uv": [14.25, 6.375, 14.375, 6.5], "texture": "#0"},
				"east": {"uv": [14.25, 6.375, 14.375, 6.5], "texture": "#0"},
				"south": {"uv": [14.25, 6.375, 14.375, 6.5], "texture": "#0"},
				"west": {"uv": [14.25, 6.375, 14.375, 6.5], "texture": "#0"},
				"up": {"uv": [14.25, 6.375, 14.375, 6.5], "texture": "#0"},
				"down": {"uv": [14.25, 6.375, 14.375, 6.5], "texture": "#0"}
			}
		},
		{
			"from": [7.79571, -1.285, 5.63897],
			"to": [9.30271, -0.995, 10.53497],
			"rotation": {"angle": 22.5, "axis": "y", "origin": [8.59541, -1.09, 7.98659]},
			"faces": {
				"north": {"uv": [14.25, 6.375, 14.375, 6.5], "texture": "#0"},
				"east": {"uv": [14.25, 6.375, 14.375, 6.5], "texture": "#0"},
				"south": {"uv": [14.25, 6.375, 14.375, 6.5], "texture": "#0"},
				"west": {"uv": [14.25, 6.375, 14.375, 6.5], "texture": "#0"},
				"up": {"uv": [14.25, 6.375, 14.375, 6.5], "rotation": 90, "texture": "#0"},
				"down": {"uv": [14.25, 6.375, 14.375, 6.5], "rotation": 270, "texture": "#0"}
			}
		},
		{
			"from": [7.91337, -1.285, 5.58914],
			"to": [9.42037, -0.995, 10.48514],
			"rotation": {"angle": -22.5, "axis": "y", "origin": [8.71687, -1.09, 7.98714]},
			"faces": {
				"north": {"uv": [14.25, 6.375, 14.375, 6.5], "texture": "#0"},
				"east": {"uv": [14.25, 6.375, 14.375, 6.5], "texture": "#0"},
				"south": {"uv": [14.25, 6.375, 14.375, 6.5], "texture": "#0"},
				"west": {"uv": [14.25, 6.375, 14.375, 6.5], "texture": "#0"},
				"up": {"uv": [14.25, 6.375, 14.375, 6.5], "rotation": 90, "texture": "#0"},
				"down": {"uv": [14.25, 6.375, 14.375, 6.5], "rotation": 270, "texture": "#0"}
			}
		},
		{
			"from": [7.89804, -1.285, 5.4912],
			"to": [9.40504, -0.995, 10.5622],
			"rotation": {"angle": 0, "axis": "y", "origin": [8.65154, -1.09, 8.0142]},
			"faces": {
				"north": {"uv": [14.25, 6.375, 14.375, 6.5], "texture": "#0"},
				"east": {"uv": [14.25, 6.375, 14.375, 6.5], "texture": "#0"},
				"south": {"uv": [14.25, 6.375, 14.375, 6.5], "texture": "#0"},
				"west": {"uv": [14.25, 6.375, 14.375, 6.5], "texture": "#0"},
				"up": {"uv": [14.25, 6.375, 14.375, 6.5], "rotation": 90, "texture": "#0"},
				"down": {"uv": [14.25, 6.375, 14.375, 6.5], "rotation": 270, "texture": "#0"}
			}
		},
		{
			"from": [6.94804, -1.285, 6.1912],
			"to": [8.80504, -0.995, 9.7622],
			"rotation": {"angle": 0, "axis": "y", "origin": [8.65154, -1.09, 8.0267]},
			"faces": {
				"north": {"uv": [14.25, 6.375, 14.375, 6.5], "texture": "#0"},
				"east": {"uv": [14.25, 6.375, 14.375, 6.5], "texture": "#0"},
				"south": {"uv": [14.25, 6.375, 14.375, 6.5], "texture": "#0"},
				"west": {"uv": [14.25, 6.375, 14.375, 6.5], "texture": "#0"},
				"up": {"uv": [14.25, 6.375, 14.375, 6.5], "rotation": 90, "texture": "#0"},
				"down": {"uv": [14.25, 6.375, 14.375, 6.5], "rotation": 270, "texture": "#0"}
			}
		},
		{
			"from": [8.18811, -1.285, 10.40571],
			"to": [9.02011, -0.995, 10.82171],
			"rotation": {"angle": 45, "axis": "y", "origin": [8.59541, -1.09, 8.68659]},
			"faces": {
				"north": {"uv": [14.25, 6.375, 14.375, 6.5], "texture": "#0"},
				"east": {"uv": [14.25, 6.375, 14.375, 6.5], "texture": "#0"},
				"south": {"uv": [14.25, 6.375, 14.375, 6.5], "texture": "#0"},
				"west": {"uv": [14.25, 6.375, 14.375, 6.5], "texture": "#0"},
				"up": {"uv": [14.25, 6.375, 14.375, 6.5], "texture": "#0"},
				"down": {"uv": [14.25, 6.375, 14.375, 6.5], "texture": "#0"}
			}
		},
		{
			"from": [8.18811, -1.285, 5.23897],
			"to": [9.02011, -0.995, 5.63497],
			"rotation": {"angle": 45, "axis": "y", "origin": [8.59541, -1.09, 7.28659]},
			"faces": {
				"north": {"uv": [14.25, 6.375, 14.375, 6.5], "texture": "#0"},
				"east": {"uv": [14.25, 6.375, 14.375, 6.5], "texture": "#0"},
				"south": {"uv": [14.25, 6.375, 14.375, 6.5], "texture": "#0"},
				"west": {"uv": [14.25, 6.375, 14.375, 6.5], "texture": "#0"},
				"up": {"uv": [14.25, 6.375, 14.375, 6.5], "texture": "#0"},
				"down": {"uv": [14.25, 6.375, 14.375, 6.5], "texture": "#0"}
			}
		},
		{
			"from": [8.22316, -1.285, 10.37067],
			"to": [9.05516, -0.995, 10.78667],
			"rotation": {"angle": -22.5, "axis": "y", "origin": [8.59541, -1.09, 8.68659]},
			"faces": {
				"north": {"uv": [14.25, 6.375, 14.375, 6.5], "texture": "#0"},
				"east": {"uv": [14.25, 6.375, 14.375, 6.5], "texture": "#0"},
				"south": {"uv": [14.25, 6.375, 14.375, 6.5], "texture": "#0"},
				"west": {"uv": [14.25, 6.375, 14.375, 6.5], "texture": "#0"},
				"up": {"uv": [14.25, 6.375, 14.375, 6.5], "texture": "#0"},
				"down": {"uv": [14.25, 6.375, 14.375, 6.5], "texture": "#0"}
			}
		},
		{
			"from": [6.52882, -1.285, 8.30768],
			"to": [6.94482, -0.995, 9.13968],
			"rotation": {"angle": 22.5, "axis": "y", "origin": [8.59541, -1.09, 8.68659]},
			"faces": {
				"north": {"uv": [14.25, 6.375, 14.375, 6.5], "texture": "#0"},
				"east": {"uv": [14.25, 6.375, 14.375, 6.5], "texture": "#0"},
				"south": {"uv": [14.25, 6.375, 14.375, 6.5], "texture": "#0"},
				"west": {"uv": [14.25, 6.375, 14.375, 6.5], "texture": "#0"},
				"up": {"uv": [14.25, 6.375, 14.375, 6.5], "texture": "#0"},
				"down": {"uv": [14.25, 6.375, 14.375, 6.5], "texture": "#0"}
			}
		},
		{
			"from": [12.0455, -1.275, 6.1085],
			"to": [12.5335, -0.475, 7.7005],
			"rotation": {"angle": 0, "axis": "y", "origin": [12.0855, -0.975, 7.0045]},
			"faces": {
				"north": {"uv": [9.375, 10.25, 9.5, 10.375], "texture": "#0"},
				"east": {"uv": [9.375, 10.25, 9.5, 10.375], "texture": "#0"},
				"south": {"uv": [9.375, 10.25, 9.5, 10.375], "texture": "#0"},
				"west": {"uv": [9.375, 10.25, 9.5, 10.375], "texture": "#0"},
				"up": {"uv": [9.375, 10.25, 9.5, 10.375], "texture": "#0"},
				"down": {"uv": [9.375, 10.25, 9.5, 10.375], "texture": "#0"}
			}
		},
		{
			"from": [3.5245, -1.275, 8.2995],
			"to": [4.0205, -0.475, 9.8915],
			"rotation": {"angle": 0, "axis": "y", "origin": [8.02944, -0.875, 11.37315]},
			"faces": {
				"north": {"uv": [9.5, 10.25, 9.375, 10.375], "texture": "#0"},
				"east": {"uv": [9.5, 10.25, 9.375, 10.375], "texture": "#0"},
				"south": {"uv": [9.5, 10.25, 9.375, 10.375], "texture": "#0"},
				"west": {"uv": [9.5, 10.25, 9.375, 10.375], "texture": "#0"},
				"up": {"uv": [9.375, 10.375, 9.5, 10.25], "texture": "#0"},
				"down": {"uv": [9.375, 10.375, 9.5, 10.25], "texture": "#0"}
			}
		},
		{
			"from": [4.43442, -1.275, 8.28032],
			"to": [4.93042, -0.475, 10.07232],
			"rotation": {"angle": 22.5, "axis": "y", "origin": [8.02944, -0.875, 11.37315]},
			"faces": {
				"north": {"uv": [9.5, 10.25, 9.375, 10.375], "texture": "#0"},
				"east": {"uv": [9.5, 10.25, 9.375, 10.375], "texture": "#0"},
				"south": {"uv": [9.5, 10.25, 9.375, 10.375], "texture": "#0"},
				"west": {"uv": [9.5, 10.25, 9.375, 10.375], "texture": "#0"},
				"up": {"uv": [9.375, 10.375, 9.5, 10.25], "texture": "#0"},
				"down": {"uv": [9.375, 10.375, 9.5, 10.25], "texture": "#0"}
			}
		},
		{
			"from": [6.22315, -1.275, 13.18516],
			"to": [8.01515, -0.475, 13.68116],
			"rotation": {"angle": -22.5, "axis": "y", "origin": [8.02944, -0.875, 11.37315]},
			"faces": {
				"north": {"uv": [9.5, 10.25, 9.375, 10.375], "texture": "#0"},
				"east": {"uv": [9.5, 10.25, 9.375, 10.375], "texture": "#0"},
				"south": {"uv": [9.5, 10.25, 9.375, 10.375], "texture": "#0"},
				"west": {"uv": [9.5, 10.25, 9.375, 10.375], "texture": "#0"},
				"up": {"uv": [9.375, 10.375, 9.5, 10.25], "texture": "#0"},
				"down": {"uv": [9.375, 10.375, 9.5, 10.25], "texture": "#0"}
			}
		},
		{
			"from": [5.45188, -1.275, 13.70071],
			"to": [7.24388, -0.475, 14.19671],
			"rotation": {"angle": -45, "axis": "y", "origin": [8.02944, -0.875, 11.37315]},
			"faces": {
				"north": {"uv": [9.5, 10.25, 9.375, 10.375], "texture": "#0"},
				"east": {"uv": [9.5, 10.25, 9.375, 10.375], "texture": "#0"},
				"south": {"uv": [9.5, 10.25, 9.375, 10.375], "texture": "#0"},
				"west": {"uv": [9.5, 10.25, 9.375, 10.375], "texture": "#0"},
				"up": {"uv": [9.375, 10.375, 9.5, 10.25], "texture": "#0"},
				"down": {"uv": [9.375, 10.375, 9.5, 10.25], "texture": "#0"}
			}
		},
		{
			"from": [7.133, -1.275, 13.004],
			"to": [8.925, -0.475, 13.5],
			"rotation": {"angle": 0, "axis": "y", "origin": [8.02944, -0.875, 11.37315]},
			"faces": {
				"north": {"uv": [9.5, 10.25, 9.375, 10.375], "texture": "#0"},
				"east": {"uv": [9.5, 10.25, 9.375, 10.375], "texture": "#0"},
				"south": {"uv": [9.5, 10.25, 9.375, 10.375], "texture": "#0"},
				"west": {"uv": [9.5, 10.25, 9.375, 10.375], "texture": "#0"},
				"up": {"uv": [9.375, 10.375, 9.5, 10.25], "texture": "#0"},
				"down": {"uv": [9.375, 10.375, 9.5, 10.25], "texture": "#0"}
			}
		},
		{
			"from": [8.04292, -1.275, 13.18482],
			"to": [9.83492, -0.475, 13.68082],
			"rotation": {"angle": 22.5, "axis": "y", "origin": [8.02944, -0.875, 11.37315]},
			"faces": {
				"north": {"uv": [9.5, 10.25, 9.375, 10.375], "texture": "#0"},
				"east": {"uv": [9.5, 10.25, 9.375, 10.375], "texture": "#0"},
				"south": {"uv": [9.5, 10.25, 9.375, 10.375], "texture": "#0"},
				"west": {"uv": [9.5, 10.25, 9.375, 10.375], "texture": "#0"},
				"up": {"uv": [9.375, 10.375, 9.5, 10.25], "texture": "#0"},
				"down": {"uv": [9.375, 10.375, 9.5, 10.25], "texture": "#0"}
			}
		},
		{
			"from": [8.81438, -1.275, 13.70008],
			"to": [10.60638, -0.475, 14.19608],
			"rotation": {"angle": 45, "axis": "y", "origin": [8.02944, -0.875, 11.37315]},
			"faces": {
				"north": {"uv": [9.5, 10.25, 9.375, 10.375], "texture": "#0"},
				"east": {"uv": [9.5, 10.25, 9.375, 10.375], "texture": "#0"},
				"south": {"uv": [9.5, 10.25, 9.375, 10.375], "texture": "#0"},
				"west": {"uv": [9.5, 10.25, 9.375, 10.375], "texture": "#0"},
				"up": {"uv": [9.375, 10.375, 9.5, 10.25], "texture": "#0"},
				"down": {"uv": [9.375, 10.375, 9.5, 10.25], "texture": "#0"}
			}
		},
		{
			"from": [11.12764, -1.275, 8.28066],
			"to": [11.62364, -0.475, 10.07266],
			"rotation": {"angle": -22.5, "axis": "y", "origin": [8.02944, -0.875, 11.37315]},
			"faces": {
				"north": {"uv": [9.5, 10.25, 9.375, 10.375], "texture": "#0"},
				"east": {"uv": [9.5, 10.25, 9.375, 10.375], "texture": "#0"},
				"south": {"uv": [9.5, 10.25, 9.375, 10.375], "texture": "#0"},
				"west": {"uv": [9.5, 10.25, 9.375, 10.375], "texture": "#0"},
				"up": {"uv": [9.375, 10.375, 9.5, 10.25], "texture": "#0"},
				"down": {"uv": [9.375, 10.375, 9.5, 10.25], "texture": "#0"}
			}
		},
		{
			"from": [11.22764, -0.475, 8.48066],
			"to": [11.62364, -0.375, 9.87266],
			"rotation": {"angle": -22.5, "axis": "y", "origin": [8.02944, -0.075, 11.37315]},
			"faces": {
				"north": {"uv": [9.5, 10.25, 9.375, 10.375], "texture": "#0"},
				"east": {"uv": [9.5, 10.25, 9.375, 10.375], "texture": "#0"},
				"south": {"uv": [9.5, 10.25, 9.375, 10.375], "texture": "#0"},
				"west": {"uv": [9.5, 10.25, 9.375, 10.375], "texture": "#0"},
				"up": {"uv": [9.375, 10.375, 9.5, 10.25], "texture": "#0"},
				"down": {"uv": [9.375, 10.375, 9.5, 10.25], "texture": "#0"}
			}
		},
		{
			"from": [3.80003, 0.225, 10.57623],
			"to": [3.89603, 0.425, 10.76823],
			"rotation": {"angle": 22.5, "axis": "y", "origin": [3.92303, -0.0625, 10.67223]},
			"faces": {
				"north": {"uv": [9.375, 10.25, 9.5, 10.375], "texture": "#0"},
				"east": {"uv": [9.375, 10.25, 9.5, 10.375], "texture": "#0"},
				"south": {"uv": [9.375, 10.25, 9.5, 10.375], "texture": "#0"},
				"west": {"uv": [9.375, 10.25, 9.5, 10.375], "texture": "#0"},
				"up": {"uv": [9.5, 10.375, 9.375, 10.25], "texture": "#0"},
				"down": {"uv": [9.5, 10.375, 9.375, 10.25], "texture": "#0"}
			}
		},
		{
			"from": [3.80003, -0.075, 10.47623],
			"to": [3.99603, 0.225, 10.86823],
			"rotation": {"angle": 22.5, "axis": "y", "origin": [3.92303, -0.0625, 10.67223]},
			"faces": {
				"north": {"uv": [9.375, 10.25, 9.5, 10.375], "texture": "#0"},
				"east": {"uv": [9.375, 10.25, 9.5, 10.375], "texture": "#0"},
				"south": {"uv": [9.375, 10.25, 9.5, 10.375], "texture": "#0"},
				"west": {"uv": [9.375, 10.25, 9.5, 10.375], "texture": "#0"},
				"up": {"uv": [9.5, 10.375, 9.375, 10.25], "texture": "#0"},
				"down": {"uv": [9.5, 10.375, 9.375, 10.25], "texture": "#0"}
			}
		},
		{
			"from": [3.80003, -0.375, 10.17623],
			"to": [4.09603, -0.075, 11.16823],
			"rotation": {"angle": 22.5, "axis": "y", "origin": [3.92303, -0.0625, 10.67223]},
			"faces": {
				"north": {"uv": [9.375, 10.25, 9.5, 10.375], "texture": "#0"},
				"east": {"uv": [9.375, 10.25, 9.5, 10.375], "texture": "#0"},
				"south": {"uv": [9.375, 10.25, 9.5, 10.375], "texture": "#0"},
				"west": {"uv": [9.375, 10.25, 9.5, 10.375], "texture": "#0"},
				"up": {"uv": [9.5, 10.375, 9.375, 10.25], "texture": "#0"},
				"down": {"uv": [9.5, 10.375, 9.375, 10.25], "texture": "#0"}
			}
		},
		{
			"from": [3.80003, -0.475, 9.97623],
			"to": [4.19603, -0.375, 11.36823],
			"rotation": {"angle": 22.5, "axis": "y", "origin": [3.92303, -0.0625, 10.67223]},
			"faces": {
				"north": {"uv": [9.375, 10.25, 9.5, 10.375], "texture": "#0"},
				"east": {"uv": [9.375, 10.25, 9.5, 10.375], "texture": "#0"},
				"south": {"uv": [9.375, 10.25, 9.5, 10.375], "texture": "#0"},
				"west": {"uv": [9.375, 10.25, 9.5, 10.375], "texture": "#0"},
				"up": {"uv": [9.5, 10.375, 9.375, 10.25], "texture": "#0"},
				"down": {"uv": [9.5, 10.375, 9.375, 10.25], "texture": "#0"}
			}
		},
		{
			"from": [4.80003, -0.475, 11.37623],
			"to": [5.19603, -0.375, 12.76823],
			"rotation": {"angle": 45, "axis": "y", "origin": [4.92303, -0.0625, 12.07223]},
			"faces": {
				"north": {"uv": [9.375, 10.25, 9.5, 10.375], "texture": "#0"},
				"east": {"uv": [9.375, 10.25, 9.5, 10.375], "texture": "#0"},
				"south": {"uv": [9.375, 10.25, 9.5, 10.375], "texture": "#0"},
				"west": {"uv": [9.375, 10.25, 9.5, 10.375], "texture": "#0"},
				"up": {"uv": [9.5, 10.375, 9.375, 10.25], "texture": "#0"},
				"down": {"uv": [9.5, 10.375, 9.375, 10.25], "texture": "#0"}
			}
		},
		{
			"from": [4.80003, -0.375, 11.57623],
			"to": [5.09603, -0.075, 12.56823],
			"rotation": {"angle": 45, "axis": "y", "origin": [4.92303, -0.0625, 12.07223]},
			"faces": {
				"north": {"uv": [9.375, 10.25, 9.5, 10.375], "texture": "#0"},
				"east": {"uv": [9.375, 10.25, 9.5, 10.375], "texture": "#0"},
				"south": {"uv": [9.375, 10.25, 9.5, 10.375], "texture": "#0"},
				"west": {"uv": [9.375, 10.25, 9.5, 10.375], "texture": "#0"},
				"up": {"uv": [9.5, 10.375, 9.375, 10.25], "texture": "#0"},
				"down": {"uv": [9.5, 10.375, 9.375, 10.25], "texture": "#0"}
			}
		},
		{
			"from": [4.80003, -0.075, 11.87623],
			"to": [4.99603, 0.225, 12.26823],
			"rotation": {"angle": 45, "axis": "y", "origin": [4.92303, -0.0625, 12.07223]},
			"faces": {
				"north": {"uv": [9.375, 10.25, 9.5, 10.375], "texture": "#0"},
				"east": {"uv": [9.375, 10.25, 9.5, 10.375], "texture": "#0"},
				"south": {"uv": [9.375, 10.25, 9.5, 10.375], "texture": "#0"},
				"west": {"uv": [9.375, 10.25, 9.5, 10.375], "texture": "#0"},
				"up": {"uv": [9.5, 10.375, 9.375, 10.25], "texture": "#0"},
				"down": {"uv": [9.5, 10.375, 9.375, 10.25], "texture": "#0"}
			}
		},
		{
			"from": [4.80003, 0.225, 11.97623],
			"to": [4.89603, 0.425, 12.16823],
			"rotation": {"angle": 45, "axis": "y", "origin": [4.92303, -0.0625, 12.07223]},
			"faces": {
				"north": {"uv": [9.375, 10.25, 9.5, 10.375], "texture": "#0"},
				"east": {"uv": [9.375, 10.25, 9.5, 10.375], "texture": "#0"},
				"south": {"uv": [9.375, 10.25, 9.5, 10.375], "texture": "#0"},
				"west": {"uv": [9.375, 10.25, 9.5, 10.375], "texture": "#0"},
				"up": {"uv": [9.5, 10.375, 9.375, 10.25], "texture": "#0"},
				"down": {"uv": [9.5, 10.375, 9.375, 10.25], "texture": "#0"}
			}
		},
		{
			"from": [11.32764, -0.375, 8.68066],
			"to": [11.62364, -0.075, 9.67266],
			"rotation": {"angle": -22.5, "axis": "y", "origin": [8.02944, -0.075, 11.37315]},
			"faces": {
				"north": {"uv": [9.5, 10.25, 9.375, 10.375], "texture": "#0"},
				"east": {"uv": [9.5, 10.25, 9.375, 10.375], "texture": "#0"},
				"south": {"uv": [9.5, 10.25, 9.375, 10.375], "texture": "#0"},
				"west": {"uv": [9.5, 10.25, 9.375, 10.375], "texture": "#0"},
				"up": {"uv": [9.375, 10.375, 9.5, 10.25], "texture": "#0"},
				"down": {"uv": [9.375, 10.375, 9.5, 10.25], "texture": "#0"}
			}
		},
		{
			"from": [5.65203, -0.475, 12.77423],
			"to": [7.04403, -0.375, 13.17023],
			"rotation": {"angle": -22.5, "axis": "y", "origin": [6.34803, -0.0625, 13.04723]},
			"faces": {
				"north": {"uv": [9.375, 10.25, 9.5, 10.375], "texture": "#0"},
				"east": {"uv": [9.375, 10.25, 9.5, 10.375], "texture": "#0"},
				"south": {"uv": [9.375, 10.25, 9.5, 10.375], "texture": "#0"},
				"west": {"uv": [9.375, 10.25, 9.5, 10.375], "texture": "#0"},
				"up": {"uv": [9.5, 10.375, 9.375, 10.25], "rotation": 270, "texture": "#0"},
				"down": {"uv": [9.5, 10.375, 9.375, 10.25], "rotation": 90, "texture": "#0"}
			}
		},
		{
			"from": [5.85203, -0.375, 12.87423],
			"to": [6.84403, -0.075, 13.17023],
			"rotation": {"angle": -22.5, "axis": "y", "origin": [6.34803, -0.0625, 13.04723]},
			"faces": {
				"north": {"uv": [9.375, 10.25, 9.5, 10.375], "texture": "#0"},
				"east": {"uv": [9.375, 10.25, 9.5, 10.375], "texture": "#0"},
				"south": {"uv": [9.375, 10.25, 9.5, 10.375], "texture": "#0"},
				"west": {"uv": [9.375, 10.25, 9.5, 10.375], "texture": "#0"},
				"up": {"uv": [9.5, 10.375, 9.375, 10.25], "rotation": 270, "texture": "#0"},
				"down": {"uv": [9.5, 10.375, 9.375, 10.25], "rotation": 90, "texture": "#0"}
			}
		},
		{
			"from": [6.15203, -0.075, 12.97423],
			"to": [6.54403, 0.225, 13.17023],
			"rotation": {"angle": -22.5, "axis": "y", "origin": [6.34803, -0.0625, 13.04723]},
			"faces": {
				"north": {"uv": [9.375, 10.25, 9.5, 10.375], "texture": "#0"},
				"east": {"uv": [9.375, 10.25, 9.5, 10.375], "texture": "#0"},
				"south": {"uv": [9.375, 10.25, 9.5, 10.375], "texture": "#0"},
				"west": {"uv": [9.375, 10.25, 9.5, 10.375], "texture": "#0"},
				"up": {"uv": [9.5, 10.375, 9.375, 10.25], "rotation": 270, "texture": "#0"},
				"down": {"uv": [9.5, 10.375, 9.375, 10.25], "rotation": 90, "texture": "#0"}
			}
		},
		{
			"from": [6.25203, 0.225, 13.07423],
			"to": [6.44403, 0.425, 13.17023],
			"rotation": {"angle": -22.5, "axis": "y", "origin": [6.34803, -0.0625, 13.04723]},
			"faces": {
				"north": {"uv": [9.375, 10.25, 9.5, 10.375], "texture": "#0"},
				"east": {"uv": [9.375, 10.25, 9.5, 10.375], "texture": "#0"},
				"south": {"uv": [9.375, 10.25, 9.5, 10.375], "texture": "#0"},
				"west": {"uv": [9.375, 10.25, 9.5, 10.375], "texture": "#0"},
				"up": {"uv": [9.5, 10.375, 9.375, 10.25], "rotation": 270, "texture": "#0"},
				"down": {"uv": [9.5, 10.375, 9.375, 10.25], "rotation": 90, "texture": "#0"}
			}
		},
		{
			"from": [11.42764, -0.075, 8.98066],
			"to": [11.62364, 0.225, 9.37266],
			"rotation": {"angle": -22.5, "axis": "y", "origin": [8.02944, -0.075, 11.37315]},
			"faces": {
				"north": {"uv": [9.5, 10.25, 9.375, 10.375], "texture": "#0"},
				"east": {"uv": [9.5, 10.25, 9.375, 10.375], "texture": "#0"},
				"south": {"uv": [9.5, 10.25, 9.375, 10.375], "texture": "#0"},
				"west": {"uv": [9.5, 10.25, 9.375, 10.375], "texture": "#0"},
				"up": {"uv": [9.375, 10.375, 9.5, 10.25], "texture": "#0"},
				"down": {"uv": [9.375, 10.375, 9.5, 10.25], "texture": "#0"}
			}
		},
		{
			"from": [10.80397, -0.475, 11.37623],
			"to": [11.19997, -0.375, 12.76823],
			"rotation": {"angle": -45, "axis": "y", "origin": [11.07697, -0.0625, 12.07223]},
			"faces": {
				"north": {"uv": [9.5, 10.25, 9.375, 10.375], "texture": "#0"},
				"east": {"uv": [9.5, 10.25, 9.375, 10.375], "texture": "#0"},
				"south": {"uv": [9.5, 10.25, 9.375, 10.375], "texture": "#0"},
				"west": {"uv": [9.5, 10.25, 9.375, 10.375], "texture": "#0"},
				"up": {"uv": [9.375, 10.375, 9.5, 10.25], "texture": "#0"},
				"down": {"uv": [9.375, 10.375, 9.5, 10.25], "texture": "#0"}
			}
		},
		{
			"from": [10.90397, -0.375, 11.57623],
			"to": [11.19997, -0.075, 12.56823],
			"rotation": {"angle": -45, "axis": "y", "origin": [11.07697, -0.0625, 12.07223]},
			"faces": {
				"north": {"uv": [9.5, 10.25, 9.375, 10.375], "texture": "#0"},
				"east": {"uv": [9.5, 10.25, 9.375, 10.375], "texture": "#0"},
				"south": {"uv": [9.5, 10.25, 9.375, 10.375], "texture": "#0"},
				"west": {"uv": [9.5, 10.25, 9.375, 10.375], "texture": "#0"},
				"up": {"uv": [9.375, 10.375, 9.5, 10.25], "texture": "#0"},
				"down": {"uv": [9.375, 10.375, 9.5, 10.25], "texture": "#0"}
			}
		},
		{
			"from": [11.00397, -0.075, 11.87623],
			"to": [11.19997, 0.225, 12.26823],
			"rotation": {"angle": -45, "axis": "y", "origin": [11.07697, -0.0625, 12.07223]},
			"faces": {
				"north": {"uv": [9.5, 10.25, 9.375, 10.375], "texture": "#0"},
				"east": {"uv": [9.5, 10.25, 9.375, 10.375], "texture": "#0"},
				"south": {"uv": [9.5, 10.25, 9.375, 10.375], "texture": "#0"},
				"west": {"uv": [9.5, 10.25, 9.375, 10.375], "texture": "#0"},
				"up": {"uv": [9.375, 10.375, 9.5, 10.25], "texture": "#0"},
				"down": {"uv": [9.375, 10.375, 9.5, 10.25], "texture": "#0"}
			}
		},
		{
			"from": [11.10397, 0.225, 11.97623],
			"to": [11.19997, 0.425, 12.16823],
			"rotation": {"angle": -45, "axis": "y", "origin": [11.07697, -0.0625, 12.07223]},
			"faces": {
				"north": {"uv": [9.5, 10.25, 9.375, 10.375], "texture": "#0"},
				"east": {"uv": [9.5, 10.25, 9.375, 10.375], "texture": "#0"},
				"south": {"uv": [9.5, 10.25, 9.375, 10.375], "texture": "#0"},
				"west": {"uv": [9.5, 10.25, 9.375, 10.375], "texture": "#0"},
				"up": {"uv": [9.375, 10.375, 9.5, 10.25], "texture": "#0"},
				"down": {"uv": [9.375, 10.375, 9.5, 10.25], "texture": "#0"}
			}
		},
		{
			"from": [11.52764, 0.225, 9.08066],
			"to": [11.62364, 0.425, 9.27266],
			"rotation": {"angle": -22.5, "axis": "y", "origin": [8.02944, 0.225, 11.37315]},
			"faces": {
				"north": {"uv": [9.5, 10.25, 9.375, 10.375], "texture": "#0"},
				"east": {"uv": [9.5, 10.25, 9.375, 10.375], "texture": "#0"},
				"south": {"uv": [9.5, 10.25, 9.375, 10.375], "texture": "#0"},
				"west": {"uv": [9.5, 10.25, 9.375, 10.375], "texture": "#0"},
				"up": {"uv": [9.375, 10.375, 9.5, 10.25], "texture": "#0"},
				"down": {"uv": [9.375, 10.375, 9.5, 10.25], "texture": "#0"}
			}
		},
		{
			"from": [5.65203, -0.475, 12.77423],
			"to": [7.04403, -0.375, 13.17023],
			"rotation": {"angle": -22.5, "axis": "y", "origin": [6.34803, -0.0625, 13.04723]},
			"color": 2,
			"faces": {
				"north": {"uv": [9.375, 10.25, 9.5, 10.375], "texture": "#missing"},
				"east": {"uv": [9.375, 10.25, 9.5, 10.375], "texture": "#missing"},
				"south": {"uv": [9.375, 10.25, 9.5, 10.375], "texture": "#missing"},
				"west": {"uv": [9.375, 10.25, 9.5, 10.375], "texture": "#missing"},
				"up": {"uv": [9.5, 10.375, 9.375, 10.25], "rotation": 270, "texture": "#missing"},
				"down": {"uv": [9.5, 10.375, 9.375, 10.25], "rotation": 90, "texture": "#missing"}
			}
		},
		{
			"from": [5.85203, -0.375, 12.87423],
			"to": [6.84403, -0.075, 13.17023],
			"rotation": {"angle": -22.5, "axis": "y", "origin": [6.34803, -0.0625, 13.04723]},
			"color": 2,
			"faces": {
				"north": {"uv": [9.375, 10.25, 9.5, 10.375], "texture": "#missing"},
				"east": {"uv": [9.375, 10.25, 9.5, 10.375], "texture": "#missing"},
				"south": {"uv": [9.375, 10.25, 9.5, 10.375], "texture": "#missing"},
				"west": {"uv": [9.375, 10.25, 9.5, 10.375], "texture": "#missing"},
				"up": {"uv": [9.5, 10.375, 9.375, 10.25], "rotation": 270, "texture": "#missing"},
				"down": {"uv": [9.5, 10.375, 9.375, 10.25], "rotation": 90, "texture": "#missing"}
			}
		},
		{
			"from": [6.15203, -0.075, 12.97423],
			"to": [6.54403, 0.225, 13.17023],
			"rotation": {"angle": -22.5, "axis": "y", "origin": [6.34803, -0.0625, 13.04723]},
			"color": 2,
			"faces": {
				"north": {"uv": [9.375, 10.25, 9.5, 10.375], "texture": "#missing"},
				"east": {"uv": [9.375, 10.25, 9.5, 10.375], "texture": "#missing"},
				"south": {"uv": [9.375, 10.25, 9.5, 10.375], "texture": "#missing"},
				"west": {"uv": [9.375, 10.25, 9.5, 10.375], "texture": "#missing"},
				"up": {"uv": [9.5, 10.375, 9.375, 10.25], "rotation": 270, "texture": "#missing"},
				"down": {"uv": [9.5, 10.375, 9.375, 10.25], "rotation": 90, "texture": "#missing"}
			}
		},
		{
			"from": [6.25203, 0.225, 13.07423],
			"to": [6.44403, 0.425, 13.17023],
			"rotation": {"angle": -22.5, "axis": "y", "origin": [6.34803, -0.0625, 13.04723]},
			"color": 2,
			"faces": {
				"north": {"uv": [9.375, 10.25, 9.5, 10.375], "texture": "#missing"},
				"east": {"uv": [9.375, 10.25, 9.5, 10.375], "texture": "#missing"},
				"south": {"uv": [9.375, 10.25, 9.5, 10.375], "texture": "#missing"},
				"west": {"uv": [9.375, 10.25, 9.5, 10.375], "texture": "#missing"},
				"up": {"uv": [9.5, 10.375, 9.375, 10.25], "rotation": 270, "texture": "#missing"},
				"down": {"uv": [9.5, 10.375, 9.375, 10.25], "rotation": 90, "texture": "#missing"}
			}
		},
		{
			"from": [11.80397, -0.475, 4.63177],
			"to": [12.19997, -0.375, 6.02377],
			"rotation": {"angle": 22.5, "axis": "y", "origin": [12.07697, -0.0625, 5.32777]},
			"faces": {
				"north": {"uv": [9.375, 10.25, 9.5, 10.375], "texture": "#0"},
				"east": {"uv": [9.375, 10.25, 9.5, 10.375], "texture": "#0"},
				"south": {"uv": [9.375, 10.25, 9.5, 10.375], "texture": "#0"},
				"west": {"uv": [9.375, 10.25, 9.5, 10.375], "texture": "#0"},
				"up": {"uv": [9.375, 10.25, 9.5, 10.375], "texture": "#0"},
				"down": {"uv": [9.375, 10.25, 9.5, 10.375], "texture": "#0"}
			}
		},
		{
			"from": [10.80397, -0.475, 3.23177],
			"to": [11.19997, -0.375, 4.62377],
			"rotation": {"angle": 45, "axis": "y", "origin": [11.07697, -0.0625, 3.92777]},
			"faces": {
				"north": {"uv": [9.375, 10.25, 9.5, 10.375], "texture": "#0"},
				"east": {"uv": [9.375, 10.25, 9.5, 10.375], "texture": "#0"},
				"south": {"uv": [9.375, 10.25, 9.5, 10.375], "texture": "#0"},
				"west": {"uv": [9.375, 10.25, 9.5, 10.375], "texture": "#0"},
				"up": {"uv": [9.375, 10.25, 9.5, 10.375], "texture": "#0"},
				"down": {"uv": [9.375, 10.25, 9.5, 10.375], "texture": "#0"}
			}
		},
		{
			"from": [10.90397, -0.375, 3.43177],
			"to": [11.19997, -0.075, 4.42377],
			"rotation": {"angle": 45, "axis": "y", "origin": [11.07697, -0.0625, 3.92777]},
			"faces": {
				"north": {"uv": [9.375, 10.25, 9.5, 10.375], "texture": "#0"},
				"east": {"uv": [9.375, 10.25, 9.5, 10.375], "texture": "#0"},
				"south": {"uv": [9.375, 10.25, 9.5, 10.375], "texture": "#0"},
				"west": {"uv": [9.375, 10.25, 9.5, 10.375], "texture": "#0"},
				"up": {"uv": [9.375, 10.25, 9.5, 10.375], "texture": "#0"},
				"down": {"uv": [9.375, 10.25, 9.5, 10.375], "texture": "#0"}
			}
		},
		{
			"from": [11.00397, -0.075, 3.73177],
			"to": [11.19997, 0.225, 4.12377],
			"rotation": {"angle": 45, "axis": "y", "origin": [11.07697, -0.0625, 3.92777]},
			"faces": {
				"north": {"uv": [9.375, 10.25, 9.5, 10.375], "texture": "#0"},
				"east": {"uv": [9.375, 10.25, 9.5, 10.375], "texture": "#0"},
				"south": {"uv": [9.375, 10.25, 9.5, 10.375], "texture": "#0"},
				"west": {"uv": [9.375, 10.25, 9.5, 10.375], "texture": "#0"},
				"up": {"uv": [9.375, 10.25, 9.5, 10.375], "texture": "#0"},
				"down": {"uv": [9.375, 10.25, 9.5, 10.375], "texture": "#0"}
			}
		},
		{
			"from": [11.10397, 0.225, 3.83177],
			"to": [11.19997, 0.425, 4.02377],
			"rotation": {"angle": 45, "axis": "y", "origin": [11.07697, -0.0625, 3.92777]},
			"faces": {
				"north": {"uv": [9.375, 10.25, 9.5, 10.375], "texture": "#0"},
				"east": {"uv": [9.375, 10.25, 9.5, 10.375], "texture": "#0"},
				"south": {"uv": [9.375, 10.25, 9.5, 10.375], "texture": "#0"},
				"west": {"uv": [9.375, 10.25, 9.5, 10.375], "texture": "#0"},
				"up": {"uv": [9.375, 10.25, 9.5, 10.375], "texture": "#0"},
				"down": {"uv": [9.375, 10.25, 9.5, 10.375], "texture": "#0"}
			}
		},
		{
			"from": [11.90397, -0.375, 4.83177],
			"to": [12.19997, -0.075, 5.82377],
			"rotation": {"angle": 22.5, "axis": "y", "origin": [12.07697, -0.0625, 5.32777]},
			"faces": {
				"north": {"uv": [9.375, 10.25, 9.5, 10.375], "texture": "#0"},
				"east": {"uv": [9.375, 10.25, 9.5, 10.375], "texture": "#0"},
				"south": {"uv": [9.375, 10.25, 9.5, 10.375], "texture": "#0"},
				"west": {"uv": [9.375, 10.25, 9.5, 10.375], "texture": "#0"},
				"up": {"uv": [9.375, 10.25, 9.5, 10.375], "texture": "#0"},
				"down": {"uv": [9.375, 10.25, 9.5, 10.375], "texture": "#0"}
			}
		},
		{
			"from": [4.80003, -0.475, 3.23177],
			"to": [5.19603, -0.375, 4.62377],
			"rotation": {"angle": -45, "axis": "y", "origin": [4.92303, -0.0625, 3.92777]},
			"faces": {
				"north": {"uv": [9.5, 10.25, 9.375, 10.375], "texture": "#0"},
				"east": {"uv": [9.5, 10.25, 9.375, 10.375], "texture": "#0"},
				"south": {"uv": [9.5, 10.25, 9.375, 10.375], "texture": "#0"},
				"west": {"uv": [9.5, 10.25, 9.375, 10.375], "texture": "#0"},
				"up": {"uv": [9.5, 10.25, 9.375, 10.375], "texture": "#0"},
				"down": {"uv": [9.5, 10.25, 9.375, 10.375], "texture": "#0"}
			}
		},
		{
			"from": [4.80003, -0.375, 3.43177],
			"to": [5.09603, -0.075, 4.42377],
			"rotation": {"angle": -45, "axis": "y", "origin": [4.92303, -0.0625, 3.92777]},
			"faces": {
				"north": {"uv": [9.5, 10.25, 9.375, 10.375], "texture": "#0"},
				"east": {"uv": [9.5, 10.25, 9.375, 10.375], "texture": "#0"},
				"south": {"uv": [9.5, 10.25, 9.375, 10.375], "texture": "#0"},
				"west": {"uv": [9.5, 10.25, 9.375, 10.375], "texture": "#0"},
				"up": {"uv": [9.5, 10.25, 9.375, 10.375], "texture": "#0"},
				"down": {"uv": [9.5, 10.25, 9.375, 10.375], "texture": "#0"}
			}
		},
		{
			"from": [4.80003, -0.075, 3.73177],
			"to": [4.99603, 0.225, 4.12377],
			"rotation": {"angle": -45, "axis": "y", "origin": [4.92303, -0.0625, 3.92777]},
			"faces": {
				"north": {"uv": [9.5, 10.25, 9.375, 10.375], "texture": "#0"},
				"east": {"uv": [9.5, 10.25, 9.375, 10.375], "texture": "#0"},
				"south": {"uv": [9.5, 10.25, 9.375, 10.375], "texture": "#0"},
				"west": {"uv": [9.5, 10.25, 9.375, 10.375], "texture": "#0"},
				"up": {"uv": [9.5, 10.25, 9.375, 10.375], "texture": "#0"},
				"down": {"uv": [9.5, 10.25, 9.375, 10.375], "texture": "#0"}
			}
		},
		{
			"from": [4.80003, 0.225, 3.83177],
			"to": [4.89603, 0.425, 4.02377],
			"rotation": {"angle": -45, "axis": "y", "origin": [4.92303, -0.0625, 3.92777]},
			"faces": {
				"north": {"uv": [9.5, 10.25, 9.375, 10.375], "texture": "#0"},
				"east": {"uv": [9.5, 10.25, 9.375, 10.375], "texture": "#0"},
				"south": {"uv": [9.5, 10.25, 9.375, 10.375], "texture": "#0"},
				"west": {"uv": [9.5, 10.25, 9.375, 10.375], "texture": "#0"},
				"up": {"uv": [9.5, 10.25, 9.375, 10.375], "texture": "#0"},
				"down": {"uv": [9.5, 10.25, 9.375, 10.375], "texture": "#0"}
			}
		},
		{
			"from": [12.00397, -0.075, 5.13177],
			"to": [12.19997, 0.225, 5.52377],
			"rotation": {"angle": 22.5, "axis": "y", "origin": [12.07697, -0.0625, 5.32777]},
			"faces": {
				"north": {"uv": [9.375, 10.25, 9.5, 10.375], "texture": "#0"},
				"east": {"uv": [9.375, 10.25, 9.5, 10.375], "texture": "#0"},
				"south": {"uv": [9.375, 10.25, 9.5, 10.375], "texture": "#0"},
				"west": {"uv": [9.375, 10.25, 9.5, 10.375], "texture": "#0"},
				"up": {"uv": [9.375, 10.25, 9.5, 10.375], "texture": "#0"},
				"down": {"uv": [9.375, 10.25, 9.5, 10.375], "texture": "#0"}
			}
		},
		{
			"from": [12.10397, 0.225, 5.23177],
			"to": [12.19997, 0.425, 5.42377],
			"rotation": {"angle": 22.5, "axis": "y", "origin": [12.07697, -0.0625, 5.32777]},
			"faces": {
				"north": {"uv": [9.375, 10.25, 9.5, 10.375], "texture": "#0"},
				"east": {"uv": [9.375, 10.25, 9.5, 10.375], "texture": "#0"},
				"south": {"uv": [9.375, 10.25, 9.5, 10.375], "texture": "#0"},
				"west": {"uv": [9.375, 10.25, 9.5, 10.375], "texture": "#0"},
				"up": {"uv": [9.375, 10.25, 9.5, 10.375], "texture": "#0"},
				"down": {"uv": [9.375, 10.25, 9.5, 10.375], "texture": "#0"}
			}
		},
		{
			"from": [3.80003, -0.475, 4.63177],
			"to": [4.19603, -0.375, 6.02377],
			"rotation": {"angle": -22.5, "axis": "y", "origin": [3.92303, -0.0625, 5.32777]},
			"faces": {
				"north": {"uv": [9.5, 10.25, 9.375, 10.375], "texture": "#0"},
				"east": {"uv": [9.5, 10.25, 9.375, 10.375], "texture": "#0"},
				"south": {"uv": [9.5, 10.25, 9.375, 10.375], "texture": "#0"},
				"west": {"uv": [9.5, 10.25, 9.375, 10.375], "texture": "#0"},
				"up": {"uv": [9.5, 10.25, 9.375, 10.375], "texture": "#0"},
				"down": {"uv": [9.5, 10.25, 9.375, 10.375], "texture": "#0"}
			}
		},
		{
			"from": [3.80003, -0.375, 4.83177],
			"to": [4.09603, -0.075, 5.82377],
			"rotation": {"angle": -22.5, "axis": "y", "origin": [3.92303, -0.0625, 5.32777]},
			"faces": {
				"north": {"uv": [9.5, 10.25, 9.375, 10.375], "texture": "#0"},
				"east": {"uv": [9.5, 10.25, 9.375, 10.375], "texture": "#0"},
				"south": {"uv": [9.5, 10.25, 9.375, 10.375], "texture": "#0"},
				"west": {"uv": [9.5, 10.25, 9.375, 10.375], "texture": "#0"},
				"up": {"uv": [9.5, 10.25, 9.375, 10.375], "texture": "#0"},
				"down": {"uv": [9.5, 10.25, 9.375, 10.375], "texture": "#0"}
			}
		},
		{
			"from": [3.80003, -0.075, 5.13177],
			"to": [3.99603, 0.225, 5.52377],
			"rotation": {"angle": -22.5, "axis": "y", "origin": [3.92303, -0.0625, 5.32777]},
			"faces": {
				"north": {"uv": [9.5, 10.25, 9.375, 10.375], "texture": "#0"},
				"east": {"uv": [9.5, 10.25, 9.375, 10.375], "texture": "#0"},
				"south": {"uv": [9.5, 10.25, 9.375, 10.375], "texture": "#0"},
				"west": {"uv": [9.5, 10.25, 9.375, 10.375], "texture": "#0"},
				"up": {"uv": [9.5, 10.25, 9.375, 10.375], "texture": "#0"},
				"down": {"uv": [9.5, 10.25, 9.375, 10.375], "texture": "#0"}
			}
		},
		{
			"from": [3.80003, 0.225, 5.23177],
			"to": [3.89603, 0.425, 5.42377],
			"rotation": {"angle": -22.5, "axis": "y", "origin": [3.92303, -0.0625, 5.32777]},
			"faces": {
				"north": {"uv": [9.5, 10.25, 9.375, 10.375], "texture": "#0"},
				"east": {"uv": [9.5, 10.25, 9.375, 10.375], "texture": "#0"},
				"south": {"uv": [9.5, 10.25, 9.375, 10.375], "texture": "#0"},
				"west": {"uv": [9.5, 10.25, 9.375, 10.375], "texture": "#0"},
				"up": {"uv": [9.5, 10.25, 9.375, 10.375], "texture": "#0"},
				"down": {"uv": [9.5, 10.25, 9.375, 10.375], "texture": "#0"}
			}
		},
		{
			"from": [12.0455, -1.275, 8.2995],
			"to": [12.5335, -0.475, 9.8915],
			"rotation": {"angle": 0, "axis": "y", "origin": [8.02944, -0.875, 11.37315]},
			"faces": {
				"north": {"uv": [9.5, 10.25, 9.375, 10.375], "texture": "#0"},
				"east": {"uv": [9.5, 10.25, 9.375, 10.375], "texture": "#0"},
				"south": {"uv": [9.5, 10.25, 9.375, 10.375], "texture": "#0"},
				"west": {"uv": [9.5, 10.25, 9.375, 10.375], "texture": "#0"},
				"up": {"uv": [9.375, 10.375, 9.5, 10.25], "texture": "#0"},
				"down": {"uv": [9.375, 10.375, 9.5, 10.25], "texture": "#0"}
			}
		},
		{
			"from": [12.5205, -1.425, 7.1995],
			"to": [12.7085, -0.325, 8.7915],
			"rotation": {"angle": 0, "axis": "y", "origin": [8.50444, -1.025, 10.27315]},
			"faces": {
				"north": {"uv": [6, 12.5, 5.875, 12.625], "texture": "#0"},
				"east": {"uv": [6, 12.5, 5.875, 12.625], "texture": "#0"},
				"south": {"uv": [6, 12.5, 5.875, 12.625], "texture": "#0"},
				"west": {"uv": [6, 12.5, 5.875, 12.625], "texture": "#0"},
				"up": {"uv": [6, 12.5, 5.875, 12.625], "texture": "#0"},
				"down": {"uv": [6, 12.5, 5.875, 12.625], "texture": "#0"}
			}
		},
		{
			"from": [12.5205, -1.19644, 6.89032],
			"to": [12.7085, -0.42144, 7.66532],
			"rotation": {"angle": 45, "axis": "x", "origin": [12.6145, -0.74644, 7.16132]},
			"faces": {
				"north": {"uv": [6, 12.5, 5.875, 12.625], "texture": "#0"},
				"east": {"uv": [6, 12.5, 5.875, 12.625], "texture": "#0"},
				"south": {"uv": [6, 12.5, 5.875, 12.625], "texture": "#0"},
				"west": {"uv": [6, 12.5, 5.875, 12.625], "texture": "#0"},
				"up": {"uv": [6, 12.5, 5.875, 12.625], "texture": "#0"},
				"down": {"uv": [6, 12.5, 5.875, 12.625], "texture": "#0"}
			}
		},
		{
			"from": [12.5205, -1.19644, 8.48232],
			"to": [12.7085, -0.42144, 9.25732],
			"rotation": {"angle": 45, "axis": "x", "origin": [12.6145, -0.74644, 8.75332]},
			"faces": {
				"north": {"uv": [6, 12.5, 5.875, 12.625], "texture": "#0"},
				"east": {"uv": [6, 12.5, 5.875, 12.625], "texture": "#0"},
				"south": {"uv": [6, 12.5, 5.875, 12.625], "texture": "#0"},
				"west": {"uv": [6, 12.5, 5.875, 12.625], "texture": "#0"},
				"up": {"uv": [6, 12.5, 5.875, 12.625], "texture": "#0"},
				"down": {"uv": [6, 12.5, 5.875, 12.625], "texture": "#0"}
			}
		},
		{
			"from": [11.7705, -1.03551, 8.504],
			"to": [12.8085, -0.76051, 8.779],
			"rotation": {"angle": 45, "axis": "x", "origin": [12.7145, -0.94801, 8.6915]},
			"faces": {
				"north": {"uv": [5.25, 9.75, 5.375, 9.875], "texture": "#0"},
				"east": {"uv": [5.25, 9.75, 5.375, 9.875], "texture": "#0"},
				"south": {"uv": [5.25, 9.75, 5.375, 9.875], "texture": "#0"},
				"west": {"uv": [5.25, 9.75, 5.375, 9.875], "texture": "#0"},
				"up": {"uv": [5.25, 9.75, 5.375, 9.875], "texture": "#0"},
				"down": {"uv": [5.25, 9.75, 5.375, 9.875], "texture": "#0"}
			}
		},
		{
			"from": [11.7705, -1.03551, 7.104],
			"to": [12.8085, -0.76051, 7.379],
			"rotation": {"angle": 45, "axis": "x", "origin": [12.7145, -0.94801, 7.2915]},
			"faces": {
				"north": {"uv": [5.25, 9.75, 5.375, 9.875], "texture": "#0"},
				"east": {"uv": [5.25, 9.75, 5.375, 9.875], "texture": "#0"},
				"south": {"uv": [5.25, 9.75, 5.375, 9.875], "texture": "#0"},
				"west": {"uv": [5.25, 9.75, 5.375, 9.875], "texture": "#0"},
				"up": {"uv": [5.25, 9.75, 5.375, 9.875], "texture": "#0"},
				"down": {"uv": [5.25, 9.75, 5.375, 9.875], "texture": "#0"}
			}
		},
		{
			"from": [3.25, -1.03551, 8.504],
			"to": [4.288, -0.76051, 8.779],
			"rotation": {"angle": 45, "axis": "x", "origin": [3.3605, -0.94801, 8.6915]},
			"faces": {
				"north": {"uv": [5.25, 9.75, 5.375, 9.875], "texture": "#0"},
				"east": {"uv": [5.25, 9.75, 5.375, 9.875], "texture": "#0"},
				"south": {"uv": [5.25, 9.75, 5.375, 9.875], "texture": "#0"},
				"west": {"uv": [5.25, 9.75, 5.375, 9.875], "texture": "#0"},
				"up": {"uv": [5.25, 9.75, 5.375, 9.875], "texture": "#0"},
				"down": {"uv": [5.25, 9.75, 5.375, 9.875], "texture": "#0"}
			}
		},
		{
			"from": [3.25, -1.03551, 7.104],
			"to": [4.288, -0.76051, 7.379],
			"rotation": {"angle": 45, "axis": "x", "origin": [3.3605, -0.94801, 7.2915]},
			"faces": {
				"north": {"uv": [5.25, 9.75, 5.375, 9.875], "texture": "#0"},
				"east": {"uv": [5.25, 9.75, 5.375, 9.875], "texture": "#0"},
				"south": {"uv": [5.25, 9.75, 5.375, 9.875], "texture": "#0"},
				"west": {"uv": [5.25, 9.75, 5.375, 9.875], "texture": "#0"},
				"up": {"uv": [5.25, 9.75, 5.375, 9.875], "texture": "#0"},
				"down": {"uv": [5.25, 9.75, 5.375, 9.875], "texture": "#0"}
			}
		},
		{
			"from": [11.8705, -1.19644, 6.89032],
			"to": [12.0585, -0.42144, 7.66532],
			"rotation": {"angle": 45, "axis": "x", "origin": [11.9645, -0.74644, 7.16132]},
			"faces": {
				"north": {"uv": [6, 12.5, 5.875, 12.625], "texture": "#0"},
				"east": {"uv": [6, 12.5, 5.875, 12.625], "texture": "#0"},
				"south": {"uv": [6, 12.5, 5.875, 12.625], "texture": "#0"},
				"west": {"uv": [6, 12.5, 5.875, 12.625], "texture": "#0"},
				"up": {"uv": [6, 12.5, 5.875, 12.625], "texture": "#0"},
				"down": {"uv": [6, 12.5, 5.875, 12.625], "texture": "#0"}
			}
		},
		{
			"from": [8.95597, -0.475, 12.77423],
			"to": [10.34797, -0.375, 13.17023],
			"rotation": {"angle": 22.5, "axis": "y", "origin": [9.65197, -0.0625, 13.04723]},
			"faces": {
				"north": {"uv": [9.5, 10.25, 9.375, 10.375], "texture": "#0"},
				"east": {"uv": [9.5, 10.25, 9.375, 10.375], "texture": "#0"},
				"south": {"uv": [9.5, 10.25, 9.375, 10.375], "texture": "#0"},
				"west": {"uv": [9.5, 10.25, 9.375, 10.375], "texture": "#0"},
				"up": {"uv": [9.5, 10.25, 9.375, 10.375], "rotation": 270, "texture": "#0"},
				"down": {"uv": [9.5, 10.25, 9.375, 10.375], "rotation": 90, "texture": "#0"}
			}
		},
		{
			"from": [9.15597, -0.375, 12.87423],
			"to": [10.14797, -0.075, 13.17023],
			"rotation": {"angle": 22.5, "axis": "y", "origin": [9.65197, -0.0625, 13.04723]},
			"faces": {
				"north": {"uv": [9.5, 10.25, 9.375, 10.375], "texture": "#0"},
				"east": {"uv": [9.5, 10.25, 9.375, 10.375], "texture": "#0"},
				"south": {"uv": [9.5, 10.25, 9.375, 10.375], "texture": "#0"},
				"west": {"uv": [9.5, 10.25, 9.375, 10.375], "texture": "#0"},
				"up": {"uv": [9.5, 10.25, 9.375, 10.375], "rotation": 270, "texture": "#0"},
				"down": {"uv": [9.5, 10.25, 9.375, 10.375], "rotation": 90, "texture": "#0"}
			}
		},
		{
			"from": [9.45597, -0.075, 12.97423],
			"to": [9.84797, 0.225, 13.17023],
			"rotation": {"angle": 22.5, "axis": "y", "origin": [9.65197, -0.0625, 13.04723]},
			"faces": {
				"north": {"uv": [9.5, 10.25, 9.375, 10.375], "texture": "#0"},
				"east": {"uv": [9.5, 10.25, 9.375, 10.375], "texture": "#0"},
				"south": {"uv": [9.5, 10.25, 9.375, 10.375], "texture": "#0"},
				"west": {"uv": [9.5, 10.25, 9.375, 10.375], "texture": "#0"},
				"up": {"uv": [9.5, 10.25, 9.375, 10.375], "rotation": 270, "texture": "#0"},
				"down": {"uv": [9.5, 10.25, 9.375, 10.375], "rotation": 90, "texture": "#0"}
			}
		},
		{
			"from": [9.55597, 0.225, 13.07423],
			"to": [9.74797, 0.425, 13.17023],
			"rotation": {"angle": 22.5, "axis": "y", "origin": [9.65197, -0.0625, 13.04723]},
			"faces": {
				"north": {"uv": [9.5, 10.25, 9.375, 10.375], "texture": "#0"},
				"east": {"uv": [9.5, 10.25, 9.375, 10.375], "texture": "#0"},
				"south": {"uv": [9.5, 10.25, 9.375, 10.375], "texture": "#0"},
				"west": {"uv": [9.5, 10.25, 9.375, 10.375], "texture": "#0"},
				"up": {"uv": [9.5, 10.25, 9.375, 10.375], "rotation": 270, "texture": "#0"},
				"down": {"uv": [9.5, 10.25, 9.375, 10.375], "rotation": 90, "texture": "#0"}
			}
		},
		{
			"from": [11.8705, -1.425, 7.1995],
			"to": [12.0585, -0.325, 8.7915],
			"rotation": {"angle": 0, "axis": "y", "origin": [7.85444, -1.025, 10.27315]},
			"faces": {
				"north": {"uv": [6, 12.5, 5.875, 12.625], "texture": "#0"},
				"east": {"uv": [6, 12.5, 5.875, 12.625], "texture": "#0"},
				"south": {"uv": [6, 12.5, 5.875, 12.625], "texture": "#0"},
				"west": {"uv": [6, 12.5, 5.875, 12.625], "texture": "#0"},
				"up": {"uv": [6, 12.5, 5.875, 12.625], "texture": "#0"},
				"down": {"uv": [6, 12.5, 5.875, 12.625], "texture": "#0"}
			}
		},
		{
			"from": [11.8705, -1.19644, 8.48232],
			"to": [12.0585, -0.42144, 9.25732],
			"rotation": {"angle": 45, "axis": "x", "origin": [11.9645, -0.74644, 8.75332]},
			"faces": {
				"north": {"uv": [6, 12.5, 5.875, 12.625], "texture": "#0"},
				"east": {"uv": [6, 12.5, 5.875, 12.625], "texture": "#0"},
				"south": {"uv": [6, 12.5, 5.875, 12.625], "texture": "#0"},
				"west": {"uv": [6, 12.5, 5.875, 12.625], "texture": "#0"},
				"up": {"uv": [6, 12.5, 5.875, 12.625], "texture": "#0"},
				"down": {"uv": [6, 12.5, 5.875, 12.625], "texture": "#0"}
			}
		},
		{
			"from": [3.9955, -1.19644, 6.89032],
			"to": [4.1835, -0.42144, 7.66532],
			"rotation": {"angle": 45, "axis": "x", "origin": [4.0895, -0.74644, 7.16132]},
			"faces": {
				"north": {"uv": [6, 12.5, 5.875, 12.625], "texture": "#0"},
				"east": {"uv": [6, 12.5, 5.875, 12.625], "texture": "#0"},
				"south": {"uv": [6, 12.5, 5.875, 12.625], "texture": "#0"},
				"west": {"uv": [6, 12.5, 5.875, 12.625], "texture": "#0"},
				"up": {"uv": [6, 12.5, 5.875, 12.625], "texture": "#0"},
				"down": {"uv": [6, 12.5, 5.875, 12.625], "texture": "#0"}
			}
		},
		{
			"from": [8.95597, -0.475, 2.82977],
			"to": [10.34797, -0.375, 3.22577],
			"rotation": {"angle": -22.5, "axis": "y", "origin": [9.65197, -0.0625, 2.95277]},
			"faces": {
				"north": {"uv": [9.375, 10.25, 9.5, 10.375], "texture": "#0"},
				"east": {"uv": [9.375, 10.25, 9.5, 10.375], "texture": "#0"},
				"south": {"uv": [9.375, 10.25, 9.5, 10.375], "texture": "#0"},
				"west": {"uv": [9.375, 10.25, 9.5, 10.375], "texture": "#0"},
				"up": {"uv": [9.375, 10.25, 9.5, 10.375], "rotation": 270, "texture": "#0"},
				"down": {"uv": [9.375, 10.25, 9.5, 10.375], "rotation": 90, "texture": "#0"}
			}
		},
		{
			"from": [9.15597, -0.375, 2.82977],
			"to": [10.14797, -0.075, 3.12577],
			"rotation": {"angle": -22.5, "axis": "y", "origin": [9.65197, -0.0625, 2.95277]},
			"faces": {
				"north": {"uv": [9.375, 10.25, 9.5, 10.375], "texture": "#0"},
				"east": {"uv": [9.375, 10.25, 9.5, 10.375], "texture": "#0"},
				"south": {"uv": [9.375, 10.25, 9.5, 10.375], "texture": "#0"},
				"west": {"uv": [9.375, 10.25, 9.5, 10.375], "texture": "#0"},
				"up": {"uv": [9.375, 10.25, 9.5, 10.375], "rotation": 270, "texture": "#0"},
				"down": {"uv": [9.375, 10.25, 9.5, 10.375], "rotation": 90, "texture": "#0"}
			}
		},
		{
			"from": [9.45597, -0.075, 2.82977],
			"to": [9.84797, 0.225, 3.02577],
			"rotation": {"angle": -22.5, "axis": "y", "origin": [9.65197, -0.0625, 2.95277]},
			"faces": {
				"north": {"uv": [9.375, 10.25, 9.5, 10.375], "texture": "#0"},
				"east": {"uv": [9.375, 10.25, 9.5, 10.375], "texture": "#0"},
				"south": {"uv": [9.375, 10.25, 9.5, 10.375], "texture": "#0"},
				"west": {"uv": [9.375, 10.25, 9.5, 10.375], "texture": "#0"},
				"up": {"uv": [9.375, 10.25, 9.5, 10.375], "rotation": 270, "texture": "#0"},
				"down": {"uv": [9.375, 10.25, 9.5, 10.375], "rotation": 90, "texture": "#0"}
			}
		},
		{
			"from": [9.55597, 0.225, 2.82977],
			"to": [9.74797, 0.425, 2.92577],
			"rotation": {"angle": -22.5, "axis": "y", "origin": [9.65197, -0.0625, 2.95277]},
			"faces": {
				"north": {"uv": [9.375, 10.25, 9.5, 10.375], "texture": "#0"},
				"east": {"uv": [9.375, 10.25, 9.5, 10.375], "texture": "#0"},
				"south": {"uv": [9.375, 10.25, 9.5, 10.375], "texture": "#0"},
				"west": {"uv": [9.375, 10.25, 9.5, 10.375], "texture": "#0"},
				"up": {"uv": [9.375, 10.25, 9.5, 10.375], "rotation": 270, "texture": "#0"},
				"down": {"uv": [9.375, 10.25, 9.5, 10.375], "rotation": 90, "texture": "#0"}
			}
		},
		{
			"from": [3.9955, -1.425, 7.1995],
			"to": [4.1835, -0.325, 8.7915],
			"rotation": {"angle": 0, "axis": "y", "origin": [-0.02056, -1.025, 10.27315]},
			"faces": {
				"north": {"uv": [6, 12.5, 5.875, 12.625], "texture": "#0"},
				"east": {"uv": [6, 12.5, 5.875, 12.625], "texture": "#0"},
				"south": {"uv": [6, 12.5, 5.875, 12.625], "texture": "#0"},
				"west": {"uv": [6, 12.5, 5.875, 12.625], "texture": "#0"},
				"up": {"uv": [6, 12.5, 5.875, 12.625], "texture": "#0"},
				"down": {"uv": [6, 12.5, 5.875, 12.625], "texture": "#0"}
			}
		},
		{
			"from": [3.9955, -1.19644, 8.48232],
			"to": [4.1835, -0.42144, 9.25732],
			"rotation": {"angle": 45, "axis": "x", "origin": [4.0895, -0.74644, 8.75332]},
			"faces": {
				"north": {"uv": [6, 12.5, 5.875, 12.625], "texture": "#0"},
				"east": {"uv": [6, 12.5, 5.875, 12.625], "texture": "#0"},
				"south": {"uv": [6, 12.5, 5.875, 12.625], "texture": "#0"},
				"west": {"uv": [6, 12.5, 5.875, 12.625], "texture": "#0"},
				"up": {"uv": [6, 12.5, 5.875, 12.625], "texture": "#0"},
				"down": {"uv": [6, 12.5, 5.875, 12.625], "texture": "#0"}
			}
		},
		{
			"from": [5.65203, -0.475, 2.82977],
			"to": [7.04403, -0.375, 3.22577],
			"rotation": {"angle": 22.5, "axis": "y", "origin": [6.34803, -0.0625, 2.95277]},
			"faces": {
				"north": {"uv": [9.5, 10.25, 9.375, 10.375], "texture": "#0"},
				"east": {"uv": [9.5, 10.25, 9.375, 10.375], "texture": "#0"},
				"south": {"uv": [9.5, 10.25, 9.375, 10.375], "texture": "#0"},
				"west": {"uv": [9.5, 10.25, 9.375, 10.375], "texture": "#0"},
				"up": {"uv": [9.375, 10.375, 9.5, 10.25], "rotation": 270, "texture": "#0"},
				"down": {"uv": [9.375, 10.375, 9.5, 10.25], "rotation": 90, "texture": "#0"}
			}
		},
		{
			"from": [5.85203, -0.375, 2.82977],
			"to": [6.84403, -0.075, 3.12577],
			"rotation": {"angle": 22.5, "axis": "y", "origin": [6.34803, -0.0625, 2.95277]},
			"faces": {
				"north": {"uv": [9.5, 10.25, 9.375, 10.375], "texture": "#0"},
				"east": {"uv": [9.5, 10.25, 9.375, 10.375], "texture": "#0"},
				"south": {"uv": [9.5, 10.25, 9.375, 10.375], "texture": "#0"},
				"west": {"uv": [9.5, 10.25, 9.375, 10.375], "texture": "#0"},
				"up": {"uv": [9.375, 10.375, 9.5, 10.25], "rotation": 270, "texture": "#0"},
				"down": {"uv": [9.375, 10.375, 9.5, 10.25], "rotation": 90, "texture": "#0"}
			}
		},
		{
			"from": [6.15203, -0.075, 2.82977],
			"to": [6.54403, 0.225, 3.02577],
			"rotation": {"angle": 22.5, "axis": "y", "origin": [6.34803, -0.0625, 2.95277]},
			"faces": {
				"north": {"uv": [9.5, 10.25, 9.375, 10.375], "texture": "#0"},
				"east": {"uv": [9.5, 10.25, 9.375, 10.375], "texture": "#0"},
				"south": {"uv": [9.5, 10.25, 9.375, 10.375], "texture": "#0"},
				"west": {"uv": [9.5, 10.25, 9.375, 10.375], "texture": "#0"},
				"up": {"uv": [9.375, 10.375, 9.5, 10.25], "rotation": 270, "texture": "#0"},
				"down": {"uv": [9.375, 10.375, 9.5, 10.25], "rotation": 90, "texture": "#0"}
			}
		},
		{
			"from": [6.25203, 0.225, 2.82977],
			"to": [6.44403, 0.425, 2.92577],
			"rotation": {"angle": 22.5, "axis": "y", "origin": [6.34803, -0.0625, 2.95277]},
			"faces": {
				"north": {"uv": [9.5, 10.25, 9.375, 10.375], "texture": "#0"},
				"east": {"uv": [9.5, 10.25, 9.375, 10.375], "texture": "#0"},
				"south": {"uv": [9.5, 10.25, 9.375, 10.375], "texture": "#0"},
				"west": {"uv": [9.5, 10.25, 9.375, 10.375], "texture": "#0"},
				"up": {"uv": [9.375, 10.375, 9.5, 10.25], "rotation": 270, "texture": "#0"},
				"down": {"uv": [9.375, 10.375, 9.5, 10.25], "rotation": 90, "texture": "#0"}
			}
		},
		{
			"from": [3.3455, -1.19644, 6.89032],
			"to": [3.5335, -0.42144, 7.66532],
			"rotation": {"angle": 45, "axis": "x", "origin": [3.4395, -0.74644, 7.16132]},
			"faces": {
				"north": {"uv": [6, 12.5, 5.875, 12.625], "texture": "#0"},
				"east": {"uv": [6, 12.5, 5.875, 12.625], "texture": "#0"},
				"south": {"uv": [6, 12.5, 5.875, 12.625], "texture": "#0"},
				"west": {"uv": [6, 12.5, 5.875, 12.625], "texture": "#0"},
				"up": {"uv": [6, 12.5, 5.875, 12.625], "texture": "#0"},
				"down": {"uv": [6, 12.5, 5.875, 12.625], "texture": "#0"}
			}
		},
		{
			"from": [3.3455, -1.425, 7.1995],
			"to": [3.5335, -0.325, 8.7915],
			"rotation": {"angle": 0, "axis": "y", "origin": [-0.67056, -1.025, 10.27315]},
			"faces": {
				"north": {"uv": [6, 12.5, 5.875, 12.625], "texture": "#0"},
				"east": {"uv": [6, 12.5, 5.875, 12.625], "texture": "#0"},
				"south": {"uv": [6, 12.5, 5.875, 12.625], "texture": "#0"},
				"west": {"uv": [6, 12.5, 5.875, 12.625], "texture": "#0"},
				"up": {"uv": [6, 12.5, 5.875, 12.625], "texture": "#0"},
				"down": {"uv": [6, 12.5, 5.875, 12.625], "texture": "#0"}
			}
		},
		{
			"from": [3.3455, -1.19644, 8.48232],
			"to": [3.5335, -0.42144, 9.25732],
			"rotation": {"angle": 45, "axis": "x", "origin": [3.4395, -0.74644, 8.75332]},
			"faces": {
				"north": {"uv": [6, 12.5, 5.875, 12.625], "texture": "#0"},
				"east": {"uv": [6, 12.5, 5.875, 12.625], "texture": "#0"},
				"south": {"uv": [6, 12.5, 5.875, 12.625], "texture": "#0"},
				"west": {"uv": [6, 12.5, 5.875, 12.625], "texture": "#0"},
				"up": {"uv": [6, 12.5, 5.875, 12.625], "texture": "#0"},
				"down": {"uv": [6, 12.5, 5.875, 12.625], "texture": "#0"}
			}
		},
		{
			"from": [11.7074, -1.275, 4.44899],
			"to": [12.2034, -0.475, 6.24099],
			"rotation": {"angle": 22.5, "axis": "y", "origin": [12.0354, -0.975, 5.34499]},
			"faces": {
				"north": {"uv": [9.375, 10.25, 9.5, 10.375], "texture": "#0"},
				"east": {"uv": [9.375, 10.25, 9.5, 10.375], "texture": "#0"},
				"south": {"uv": [9.375, 10.25, 9.5, 10.375], "texture": "#0"},
				"west": {"uv": [9.375, 10.25, 9.5, 10.375], "texture": "#0"},
				"up": {"uv": [9.375, 10.25, 9.5, 10.375], "texture": "#0"},
				"down": {"uv": [9.375, 10.25, 9.5, 10.375], "texture": "#0"}
			}
		},
		{
			"from": [10.00138, -1.275, 3.68812],
			"to": [11.79338, -0.475, 4.18412],
			"rotation": {"angle": -45, "axis": "y", "origin": [10.89738, -0.975, 4.13612]},
			"faces": {
				"north": {"uv": [9.375, 10.25, 9.5, 10.375], "texture": "#0"},
				"east": {"uv": [9.375, 10.25, 9.5, 10.375], "texture": "#0"},
				"south": {"uv": [9.375, 10.25, 9.5, 10.375], "texture": "#0"},
				"west": {"uv": [9.375, 10.25, 9.5, 10.375], "texture": "#0"},
				"up": {"uv": [9.375, 10.25, 9.5, 10.375], "texture": "#0"},
				"down": {"uv": [9.375, 10.25, 9.5, 10.375], "texture": "#0"}
			}
		},
		{
			"from": [8.68535, -1.275, 2.80878],
			"to": [10.47735, -0.475, 3.30478],
			"rotation": {"angle": -22.5, "axis": "y", "origin": [9.58135, -0.975, 3.25678]},
			"faces": {
				"north": {"uv": [9.375, 10.25, 9.5, 10.375], "texture": "#0"},
				"east": {"uv": [9.375, 10.25, 9.5, 10.375], "texture": "#0"},
				"south": {"uv": [9.375, 10.25, 9.5, 10.375], "texture": "#0"},
				"west": {"uv": [9.375, 10.25, 9.5, 10.375], "texture": "#0"},
				"up": {"uv": [9.375, 10.25, 9.5, 10.375], "texture": "#0"},
				"down": {"uv": [9.375, 10.25, 9.5, 10.375], "texture": "#0"}
			}
		},
		{
			"from": [7.133, -1.275, 2.5],
			"to": [8.925, -0.475, 2.996],
			"rotation": {"angle": 0, "axis": "y", "origin": [8.029, -0.975, 2.948]},
			"faces": {
				"north": {"uv": [9.375, 10.25, 9.5, 10.375], "texture": "#0"},
				"east": {"uv": [9.375, 10.25, 9.5, 10.375], "texture": "#0"},
				"south": {"uv": [9.375, 10.25, 9.5, 10.375], "texture": "#0"},
				"west": {"uv": [9.375, 10.25, 9.5, 10.375], "texture": "#0"},
				"up": {"uv": [9.375, 10.25, 9.5, 10.375], "texture": "#0"},
				"down": {"uv": [9.375, 10.25, 9.5, 10.375], "texture": "#0"}
			}
		},
		{
			"from": [7.233, -0.475, 2.5],
			"to": [8.825, -0.375, 2.896],
			"rotation": {"angle": 0, "axis": "y", "origin": [8.029, -0.975, 2.948]},
			"faces": {
				"north": {"uv": [9.375, 10.25, 9.5, 10.375], "texture": "#0"},
				"east": {"uv": [9.375, 10.25, 9.5, 10.375], "texture": "#0"},
				"south": {"uv": [9.375, 10.25, 9.5, 10.375], "texture": "#0"},
				"west": {"uv": [9.375, 10.25, 9.5, 10.375], "texture": "#0"},
				"up": {"uv": [9.375, 10.25, 9.5, 10.375], "texture": "#0"},
				"down": {"uv": [9.375, 10.25, 9.5, 10.375], "texture": "#0"}
			}
		},
		{
			"from": [7.933, 0.225, 13.404],
			"to": [8.125, 0.425, 13.5],
			"rotation": {"angle": 0, "axis": "y", "origin": [8.029, -0.975, 13.052]},
			"faces": {
				"north": {"uv": [9.5, 10.25, 9.375, 10.375], "texture": "#0"},
				"east": {"uv": [9.5, 10.25, 9.375, 10.375], "texture": "#0"},
				"south": {"uv": [9.5, 10.25, 9.375, 10.375], "texture": "#0"},
				"west": {"uv": [9.5, 10.25, 9.375, 10.375], "texture": "#0"},
				"up": {"uv": [9.375, 10.375, 9.5, 10.25], "texture": "#0"},
				"down": {"uv": [9.375, 10.375, 9.5, 10.25], "texture": "#0"}
			}
		},
		{
			"from": [7.833, -0.075, 13.304],
			"to": [8.225, 0.225, 13.5],
			"rotation": {"angle": 0, "axis": "y", "origin": [8.029, -0.975, 13.052]},
			"faces": {
				"north": {"uv": [9.5, 10.25, 9.375, 10.375], "texture": "#0"},
				"east": {"uv": [9.5, 10.25, 9.375, 10.375], "texture": "#0"},
				"south": {"uv": [9.5, 10.25, 9.375, 10.375], "texture": "#0"},
				"west": {"uv": [9.5, 10.25, 9.375, 10.375], "texture": "#0"},
				"up": {"uv": [9.375, 10.375, 9.5, 10.25], "texture": "#0"},
				"down": {"uv": [9.375, 10.375, 9.5, 10.25], "texture": "#0"}
			}
		},
		{
			"from": [7.433, -0.375, 13.204],
			"to": [8.625, -0.075, 13.5],
			"rotation": {"angle": 0, "axis": "y", "origin": [8.029, -0.975, 13.052]},
			"faces": {
				"north": {"uv": [9.5, 10.25, 9.375, 10.375], "texture": "#0"},
				"east": {"uv": [9.5, 10.25, 9.375, 10.375], "texture": "#0"},
				"south": {"uv": [9.5, 10.25, 9.375, 10.375], "texture": "#0"},
				"west": {"uv": [9.5, 10.25, 9.375, 10.375], "texture": "#0"},
				"up": {"uv": [9.375, 10.375, 9.5, 10.25], "texture": "#0"},
				"down": {"uv": [9.375, 10.375, 9.5, 10.25], "texture": "#0"}
			}
		},
		{
			"from": [7.233, -0.475, 13.104],
			"to": [8.825, -0.375, 13.5],
			"rotation": {"angle": 0, "axis": "y", "origin": [8.029, -0.975, 13.052]},
			"faces": {
				"north": {"uv": [9.5, 10.25, 9.375, 10.375], "texture": "#0"},
				"east": {"uv": [9.5, 10.25, 9.375, 10.375], "texture": "#0"},
				"south": {"uv": [9.5, 10.25, 9.375, 10.375], "texture": "#0"},
				"west": {"uv": [9.5, 10.25, 9.375, 10.375], "texture": "#0"},
				"up": {"uv": [9.375, 10.375, 9.5, 10.25], "texture": "#0"},
				"down": {"uv": [9.375, 10.375, 9.5, 10.25], "texture": "#0"}
			}
		},
		{
			"from": [7.433, -0.375, 2.5],
			"to": [8.625, -0.075, 2.796],
			"rotation": {"angle": 0, "axis": "y", "origin": [8.029, -0.975, 2.948]},
			"faces": {
				"north": {"uv": [9.375, 10.25, 9.5, 10.375], "texture": "#0"},
				"east": {"uv": [9.375, 10.25, 9.5, 10.375], "texture": "#0"},
				"south": {"uv": [9.375, 10.25, 9.5, 10.375], "texture": "#0"},
				"west": {"uv": [9.375, 10.25, 9.5, 10.375], "texture": "#0"},
				"up": {"uv": [9.375, 10.25, 9.5, 10.375], "texture": "#0"},
				"down": {"uv": [9.375, 10.25, 9.5, 10.375], "texture": "#0"}
			}
		},
		{
			"from": [7.833, -0.075, 2.5],
			"to": [8.225, 0.225, 2.696],
			"rotation": {"angle": 0, "axis": "y", "origin": [8.029, -0.975, 2.948]},
			"faces": {
				"north": {"uv": [9.375, 10.25, 9.5, 10.375], "texture": "#0"},
				"east": {"uv": [9.375, 10.25, 9.5, 10.375], "texture": "#0"},
				"south": {"uv": [9.375, 10.25, 9.5, 10.375], "texture": "#0"},
				"west": {"uv": [9.375, 10.25, 9.5, 10.375], "texture": "#0"},
				"up": {"uv": [9.375, 10.25, 9.5, 10.375], "texture": "#0"},
				"down": {"uv": [9.375, 10.25, 9.5, 10.375], "texture": "#0"}
			}
		},
		{
			"from": [7.933, 0.225, 2.5],
			"to": [8.125, 0.425, 2.596],
			"rotation": {"angle": 0, "axis": "y", "origin": [8.029, -0.975, 2.948]},
			"faces": {
				"north": {"uv": [9.375, 10.25, 9.5, 10.375], "texture": "#0"},
				"east": {"uv": [9.375, 10.25, 9.5, 10.375], "texture": "#0"},
				"south": {"uv": [9.375, 10.25, 9.5, 10.375], "texture": "#0"},
				"west": {"uv": [9.375, 10.25, 9.5, 10.375], "texture": "#0"},
				"up": {"uv": [9.375, 10.25, 9.5, 10.375], "texture": "#0"},
				"down": {"uv": [9.375, 10.25, 9.5, 10.375], "texture": "#0"}
			}
		},
		{
			"from": [5.58065, -1.275, 2.80878],
			"to": [7.37265, -0.475, 3.30478],
			"rotation": {"angle": 22.5, "axis": "y", "origin": [6.47665, -0.975, 3.25678]},
			"faces": {
				"north": {"uv": [9.375, 10.25, 9.5, 10.375], "texture": "#0"},
				"east": {"uv": [9.375, 10.25, 9.5, 10.375], "texture": "#0"},
				"south": {"uv": [9.375, 10.25, 9.5, 10.375], "texture": "#0"},
				"west": {"uv": [9.375, 10.25, 9.5, 10.375], "texture": "#0"},
				"up": {"uv": [9.375, 10.25, 9.5, 10.375], "texture": "#0"},
				"down": {"uv": [9.375, 10.25, 9.5, 10.375], "texture": "#0"}
			}
		},
		{
			"from": [4.26462, -1.275, 3.68812],
			"to": [6.05662, -0.475, 4.18412],
			"rotation": {"angle": 45, "axis": "y", "origin": [5.16062, -0.975, 4.13612]},
			"faces": {
				"north": {"uv": [9.375, 10.25, 9.5, 10.375], "texture": "#0"},
				"east": {"uv": [9.375, 10.25, 9.5, 10.375], "texture": "#0"},
				"south": {"uv": [9.375, 10.25, 9.5, 10.375], "texture": "#0"},
				"west": {"uv": [9.375, 10.25, 9.5, 10.375], "texture": "#0"},
				"up": {"uv": [9.375, 10.25, 9.5, 10.375], "texture": "#0"},
				"down": {"uv": [9.375, 10.25, 9.5, 10.375], "texture": "#0"}
			}
		},
		{
			"from": [3.83329, -1.275, 4.55614],
			"to": [4.32929, -0.475, 6.34814],
			"rotation": {"angle": -22.5, "axis": "y", "origin": [4.28129, -0.975, 5.45214]},
			"faces": {
				"north": {"uv": [9.375, 10.25, 9.5, 10.375], "texture": "#0"},
				"east": {"uv": [9.375, 10.25, 9.5, 10.375], "texture": "#0"},
				"south": {"uv": [9.375, 10.25, 9.5, 10.375], "texture": "#0"},
				"west": {"uv": [9.375, 10.25, 9.5, 10.375], "texture": "#0"},
				"up": {"uv": [9.375, 10.25, 9.5, 10.375], "texture": "#0"},
				"down": {"uv": [9.375, 10.25, 9.5, 10.375], "texture": "#0"}
			}
		},
		{
			"from": [3.5245, -1.275, 6.1085],
			"to": [4.0205, -0.475, 7.7005],
			"rotation": {"angle": 0, "axis": "y", "origin": [3.9725, -0.975, 7.0045]},
			"faces": {
				"north": {"uv": [9.375, 10.25, 9.5, 10.375], "texture": "#0"},
				"east": {"uv": [9.375, 10.25, 9.5, 10.375], "texture": "#0"},
				"south": {"uv": [9.375, 10.25, 9.5, 10.375], "texture": "#0"},
				"west": {"uv": [9.375, 10.25, 9.5, 10.375], "texture": "#0"},
				"up": {"uv": [9.375, 10.25, 9.5, 10.375], "texture": "#0"},
				"down": {"uv": [9.375, 10.25, 9.5, 10.375], "texture": "#0"}
			}
		},
		{
			"from": [2.8245, -1.675, 7.1085],
			"to": [13.1205, -1.425, 8.9005],
			"rotation": {"angle": 0, "axis": "y", "origin": [3.9725, -2.025, 8.0045]},
			"faces": {
				"north": {"uv": [9.375, 10.25, 9.5, 10.375], "texture": "#0"},
				"east": {"uv": [9.375, 10.25, 9.5, 10.375], "texture": "#0"},
				"south": {"uv": [9.375, 10.25, 9.5, 10.375], "texture": "#0"},
				"west": {"uv": [9.375, 10.25, 9.5, 10.375], "texture": "#0"},
				"up": {"uv": [9.375, 10.25, 9.5, 10.375], "texture": "#0"},
				"down": {"uv": [9.375, 10.25, 9.5, 10.375], "texture": "#0"}
			}
		},
		{
			"from": [8.0765, -1.8, 2.2565],
			"to": [9.1685, -1.475, 11.2525],
			"rotation": {"angle": 0, "axis": "y", "origin": [8.5725, -1.675, 8.0045]},
			"faces": {
				"north": {"uv": [5.5, 12.25, 5.625, 12.375], "rotation": 90, "texture": "#0"},
				"east": {"uv": [5.5, 12.25, 5.625, 12.375], "rotation": 90, "texture": "#0"},
				"south": {"uv": [5.5, 12.25, 5.625, 12.375], "rotation": 90, "texture": "#0"},
				"west": {"uv": [5.5, 12.25, 5.625, 12.375], "rotation": 90, "texture": "#0"},
				"up": {"uv": [5.5, 12.25, 5.625, 12.375], "rotation": 90, "texture": "#0"},
				"down": {"uv": [5.5, 12.25, 5.625, 12.375], "rotation": 90, "texture": "#0"}
			}
		},
		{
			"from": [8.3765, -1.8, 2.2315],
			"to": [9.0685, -0.175, 2.4525],
			"rotation": {"angle": 0, "axis": "y", "origin": [8.5725, -1.675, 7.8045]},
			"faces": {
				"north": {"uv": [5.5, 12.25, 5.625, 12.375], "rotation": 90, "texture": "#0"},
				"east": {"uv": [5.5, 12.25, 5.625, 12.375], "rotation": 90, "texture": "#0"},
				"south": {"uv": [5.5, 12.25, 5.625, 12.375], "rotation": 90, "texture": "#0"},
				"west": {"uv": [5.5, 12.25, 5.625, 12.375], "rotation": 90, "texture": "#0"},
				"up": {"uv": [5.5, 12.25, 5.625, 12.375], "rotation": 90, "texture": "#0"},
				"down": {"uv": [5.5, 12.25, 5.625, 12.375], "rotation": 90, "texture": "#0"}
			}
		},
		{
			"from": [8.4265, -1.8, 3.7315],
			"to": [8.9935, -1.275, 4.1775],
			"rotation": {"angle": 0, "axis": "y", "origin": [8.5975, -1.675, 7.8045]},
			"faces": {
				"north": {"uv": [5.5, 12.25, 5.625, 12.375], "rotation": 90, "texture": "#0"},
				"east": {"uv": [5.5, 12.25, 5.625, 12.375], "rotation": 90, "texture": "#0"},
				"south": {"uv": [5.5, 12.25, 5.625, 12.375], "rotation": 90, "texture": "#0"},
				"west": {"uv": [5.5, 12.25, 5.625, 12.375], "rotation": 90, "texture": "#0"},
				"up": {"uv": [5.5, 12.25, 5.625, 12.375], "rotation": 90, "texture": "#0"},
				"down": {"uv": [5.5, 12.25, 5.625, 12.375], "rotation": 90, "texture": "#0"}
			}
		},
		{
			"from": [8.4265, -1.3, 3.7315],
			"to": [8.5685, -0.775, 3.9525],
			"rotation": {"angle": 0, "axis": "y", "origin": [8.5725, -1.675, 7.8045]},
			"faces": {
				"north": {"uv": [5.5, 12.25, 5.625, 12.375], "rotation": 90, "texture": "#0"},
				"east": {"uv": [5.5, 12.25, 5.625, 12.375], "rotation": 90, "texture": "#0"},
				"south": {"uv": [5.5, 12.25, 5.625, 12.375], "rotation": 90, "texture": "#0"},
				"west": {"uv": [5.5, 12.25, 5.625, 12.375], "rotation": 90, "texture": "#0"},
				"up": {"uv": [5.5, 12.25, 5.625, 12.375], "rotation": 90, "texture": "#0"},
				"down": {"uv": [5.5, 12.25, 5.625, 12.375], "rotation": 90, "texture": "#0"}
			}
		},
		{
			"from": [8.3765, -0.975, 3.7815],
			"to": [8.5185, -0.825, 3.9275],
			"rotation": {"angle": 45, "axis": "x", "origin": [8.4475, -0.9, 3.8545]},
			"faces": {
				"north": {"uv": [6, 12.375, 6.125, 12.5], "rotation": 90, "texture": "#0"},
				"east": {"uv": [6, 12.375, 6.125, 12.5], "rotation": 90, "texture": "#0"},
				"south": {"uv": [6, 12.375, 6.125, 12.5], "rotation": 90, "texture": "#0"},
				"west": {"uv": [6, 12.375, 6.125, 12.5], "rotation": 90, "texture": "#0"},
				"up": {"uv": [6, 12.375, 6.125, 12.5], "rotation": 90, "texture": "#0"},
				"down": {"uv": [6, 12.375, 6.125, 12.5], "rotation": 90, "texture": "#0"}
			}
		},
		{
			"from": [8.9015, -0.975, 3.7815],
			"to": [9.0435, -0.825, 3.9275],
			"rotation": {"angle": 45, "axis": "x", "origin": [8.9725, -0.9, 3.8545]},
			"faces": {
				"north": {"uv": [6, 12.375, 6.125, 12.5], "rotation": 90, "texture": "#0"},
				"east": {"uv": [6, 12.375, 6.125, 12.5], "rotation": 90, "texture": "#0"},
				"south": {"uv": [6, 12.375, 6.125, 12.5], "rotation": 90, "texture": "#0"},
				"west": {"uv": [6, 12.375, 6.125, 12.5], "rotation": 90, "texture": "#0"},
				"up": {"uv": [6, 12.375, 6.125, 12.5], "rotation": 90, "texture": "#0"},
				"down": {"uv": [6, 12.375, 6.125, 12.5], "rotation": 90, "texture": "#0"}
			}
		},
		{
			"from": [8.4265, -1.3723, 3.84036],
			"to": [8.5685, -0.7973, 4.06136],
			"rotation": {"angle": -22.5, "axis": "x", "origin": [8.4975, -1.0598, 3.95086]},
			"faces": {
				"north": {"uv": [5.5, 12.25, 5.625, 12.375], "rotation": 90, "texture": "#0"},
				"east": {"uv": [5.5, 12.25, 5.625, 12.375], "rotation": 90, "texture": "#0"},
				"south": {"uv": [5.5, 12.25, 5.625, 12.375], "rotation": 90, "texture": "#0"},
				"west": {"uv": [5.5, 12.25, 5.625, 12.375], "rotation": 90, "texture": "#0"},
				"up": {"uv": [5.5, 12.25, 5.625, 12.375], "rotation": 90, "texture": "#0"},
				"down": {"uv": [5.5, 12.25, 5.625, 12.375], "rotation": 90, "texture": "#0"}
			}
		},
		{
			"from": [8.8515, -1.3, 3.7315],
			"to": [8.9935, -0.775, 3.9525],
			"rotation": {"angle": 0, "axis": "y", "origin": [8.9975, -1.675, 7.8045]},
			"faces": {
				"north": {"uv": [5.5, 12.25, 5.625, 12.375], "rotation": 90, "texture": "#0"},
				"east": {"uv": [5.5, 12.25, 5.625, 12.375], "rotation": 90, "texture": "#0"},
				"south": {"uv": [5.5, 12.25, 5.625, 12.375], "rotation": 90, "texture": "#0"},
				"west": {"uv": [5.5, 12.25, 5.625, 12.375], "rotation": 90, "texture": "#0"},
				"up": {"uv": [5.5, 12.25, 5.625, 12.375], "rotation": 90, "texture": "#0"},
				"down": {"uv": [5.5, 12.25, 5.625, 12.375], "rotation": 90, "texture": "#0"}
			}
		},
		{
			"from": [8.8515, -1.3723, 3.84036],
			"to": [8.9935, -0.7973, 4.06136],
			"rotation": {"angle": -22.5, "axis": "x", "origin": [8.9225, -1.0598, 3.95086]},
			"faces": {
				"north": {"uv": [5.5, 12.25, 5.625, 12.375], "rotation": 90, "texture": "#0"},
				"east": {"uv": [5.5, 12.25, 5.625, 12.375], "rotation": 90, "texture": "#0"},
				"south": {"uv": [5.5, 12.25, 5.625, 12.375], "rotation": 90, "texture": "#0"},
				"west": {"uv": [5.5, 12.25, 5.625, 12.375], "rotation": 90, "texture": "#0"},
				"up": {"uv": [5.5, 12.25, 5.625, 12.375], "rotation": 90, "texture": "#0"},
				"down": {"uv": [5.5, 12.25, 5.625, 12.375], "rotation": 90, "texture": "#0"}
			}
		},
		{
			"from": [8.5765, -0.4, 2.2315],
			"to": [8.8435, -0.025, 3.1525],
			"rotation": {"angle": 0, "axis": "y", "origin": [8.5725, -1.675, 7.8045]},
			"faces": {
				"north": {"uv": [5.5, 12.25, 5.625, 12.375], "rotation": 90, "texture": "#0"},
				"east": {"uv": [5.5, 12.25, 5.625, 12.375], "rotation": 90, "texture": "#0"},
				"south": {"uv": [5.5, 12.25, 5.625, 12.375], "rotation": 90, "texture": "#0"},
				"west": {"uv": [5.5, 12.25, 5.625, 12.375], "rotation": 90, "texture": "#0"},
				"up": {"uv": [5.5, 12.25, 5.625, 12.375], "rotation": 90, "texture": "#0"},
				"down": {"uv": [5.5, 12.25, 5.625, 12.375], "rotation": 90, "texture": "#0"}
			}
		},
		{
			"from": [8.5765, -0.56576, 3.06482],
			"to": [8.8435, -0.19076, 3.68582],
			"rotation": {"angle": 22.5, "axis": "x", "origin": [8.71, -0.32826, 3.52532]},
			"faces": {
				"north": {"uv": [5.5, 12.25, 5.625, 12.375], "rotation": 90, "texture": "#0"},
				"east": {"uv": [5.5, 12.25, 5.625, 12.375], "rotation": 90, "texture": "#0"},
				"south": {"uv": [5.5, 12.25, 5.625, 12.375], "rotation": 90, "texture": "#0"},
				"west": {"uv": [5.5, 12.25, 5.625, 12.375], "rotation": 90, "texture": "#0"},
				"up": {"uv": [5.5, 12.25, 5.625, 12.375], "rotation": 90, "texture": "#0"},
				"down": {"uv": [5.5, 12.25, 5.625, 12.375], "rotation": 90, "texture": "#0"}
			}
		},
		{
			"from": [8.5765, -0.81693, 3.53805],
			"to": [8.8435, -0.44193, 5.30905],
			"rotation": {"angle": 45, "axis": "x", "origin": [8.71, -0.57943, 3.84855]},
			"faces": {
				"north": {"uv": [5.5, 12.25, 5.625, 12.375], "rotation": 90, "texture": "#0"},
				"east": {"uv": [5.5, 12.25, 5.625, 12.375], "rotation": 90, "texture": "#0"},
				"south": {"uv": [5.5, 12.25, 5.625, 12.375], "rotation": 90, "texture": "#0"},
				"west": {"uv": [5.5, 12.25, 5.625, 12.375], "rotation": 90, "texture": "#0"},
				"up": {"uv": [5.5, 12.25, 5.625, 12.375], "rotation": 90, "texture": "#0"},
				"down": {"uv": [5.5, 12.25, 5.625, 12.375], "rotation": 90, "texture": "#0"}
			}
		},
		{
			"from": [8.16519, -1.8, 11.00699],
			"to": [8.93219, -1.475, 11.78199],
			"rotation": {"angle": 45, "axis": "y", "origin": [8.41119, -1.6375, 11.23199]},
			"faces": {
				"north": {"uv": [5.5, 12.25, 5.625, 12.375], "rotation": 90, "texture": "#0"},
				"east": {"uv": [5.5, 12.25, 5.625, 12.375], "rotation": 90, "texture": "#0"},
				"south": {"uv": [5.5, 12.25, 5.625, 12.375], "rotation": 90, "texture": "#0"},
				"west": {"uv": [5.5, 12.25, 5.625, 12.375], "rotation": 90, "texture": "#0"},
				"up": {"uv": [5.5, 12.25, 5.625, 12.375], "rotation": 90, "texture": "#0"},
				"down": {"uv": [5.5, 12.25, 5.625, 12.375], "rotation": 90, "texture": "#0"}
			}
		},
		{
			"from": [14.9894, -1.56464, 7.1085],
			"to": [15.1894, -1.01464, 8.9005],
			"rotation": {"angle": 45, "axis": "z", "origin": [14.9394, -1.11464, 8.0045]},
			"faces": {
				"north": {"uv": [9.5, 10.25, 9.375, 10.375], "texture": "#0"},
				"east": {"uv": [9.5, 10.25, 9.375, 10.375], "texture": "#0"},
				"south": {"uv": [9.5, 10.25, 9.375, 10.375], "texture": "#0"},
				"west": {"uv": [9.5, 10.25, 9.375, 10.375], "texture": "#0"},
				"up": {"uv": [9.5, 10.25, 9.375, 10.375], "texture": "#0"},
				"down": {"uv": [9.5, 10.25, 9.375, 10.375], "texture": "#0"}
			}
		},
		{
			"from": [14.33334, -1.07107, 7.1085],
			"to": [15.03834, -0.86607, 8.9005],
			"rotation": {"angle": 0, "axis": "z", "origin": [14.75834, -0.94216, 8.0045]},
			"faces": {
				"north": {"uv": [9.5, 10.25, 9.375, 10.375], "rotation": 90, "texture": "#0"},
				"east": {"uv": [9.5, 10.25, 9.375, 10.375], "rotation": 270, "texture": "#0"},
				"south": {"uv": [9.5, 10.25, 9.375, 10.375], "rotation": 270, "texture": "#0"},
				"west": {"uv": [9.5, 10.25, 9.375, 10.375], "rotation": 270, "texture": "#0"},
				"up": {"uv": [9.5, 10.25, 9.375, 10.375], "rotation": 270, "texture": "#0"},
				"down": {"uv": [9.5, 10.25, 9.375, 10.375], "rotation": 270, "texture": "#0"}
			}
		},
		{
			"from": [12.88609, -1.05557, 7.1085],
			"to": [14.36109, -0.85557, 8.9005],
			"rotation": {"angle": 22.5, "axis": "z", "origin": [14.37359, -0.93057, 8.0045]},
			"faces": {
				"north": {"uv": [9.5, 10.25, 9.375, 10.375], "rotation": 270, "texture": "#0"},
				"east": {"uv": [9.5, 10.25, 9.375, 10.375], "rotation": 90, "texture": "#0"},
				"south": {"uv": [9.5, 10.25, 9.375, 10.375], "rotation": 90, "texture": "#0"},
				"west": {"uv": [9.5, 10.25, 9.375, 10.375], "rotation": 90, "texture": "#0"},
				"up": {"uv": [9.5, 10.25, 9.375, 10.375], "rotation": 90, "texture": "#0"},
				"down": {"uv": [9.5, 10.25, 9.375, 10.375], "rotation": 90, "texture": "#0"}
			}
		},
		{
			"from": [14.81137, -1.81141, 7.1085],
			"to": [15.03637, -1.26141, 8.9005],
			"rotation": {"angle": -45, "axis": "z", "origin": [14.51756, -2.03918, 8.0045]},
			"faces": {
				"north": {"uv": [9.5, 10.375, 9.375, 10.25], "texture": "#0"},
				"east": {"uv": [9.5, 10.375, 9.375, 10.25], "texture": "#0"},
				"south": {"uv": [9.5, 10.375, 9.375, 10.25], "texture": "#0"},
				"west": {"uv": [9.5, 10.375, 9.375, 10.25], "texture": "#0"},
				"up": {"uv": [9.5, 10.375, 9.375, 10.25], "texture": "#0"},
				"down": {"uv": [9.5, 10.375, 9.375, 10.25], "texture": "#0"}
			}
		},
		{
			"from": [14.33334, -2.24607, 7.1085],
			"to": [15.03834, -2.04107, 8.9005],
			"rotation": {"angle": 0, "axis": "y", "origin": [14.51756, -2.03918, 8.0045]},
			"faces": {
				"north": {"uv": [9.375, 10.25, 9.5, 10.375], "rotation": 90, "texture": "#0"},
				"east": {"uv": [9.375, 10.25, 9.5, 10.375], "rotation": 270, "texture": "#0"},
				"south": {"uv": [9.375, 10.25, 9.5, 10.375], "rotation": 270, "texture": "#0"},
				"west": {"uv": [9.375, 10.25, 9.5, 10.375], "rotation": 270, "texture": "#0"},
				"up": {"uv": [9.375, 10.25, 9.5, 10.375], "rotation": 270, "texture": "#0"},
				"down": {"uv": [9.375, 10.25, 9.5, 10.375], "rotation": 270, "texture": "#0"}
			}
		},
		{
			"from": [12.95153, -2.30082, 7.1085],
			"to": [14.42653, -2.10082, 8.9005],
			"rotation": {"angle": -22.5, "axis": "z", "origin": [14.51756, -2.03918, 8.0045]},
			"faces": {
				"north": {"uv": [9.375, 10.25, 9.5, 10.375], "rotation": 270, "texture": "#0"},
				"east": {"uv": [9.375, 10.25, 9.5, 10.375], "rotation": 90, "texture": "#0"},
				"south": {"uv": [9.375, 10.25, 9.5, 10.375], "rotation": 90, "texture": "#0"},
				"west": {"uv": [9.375, 10.25, 9.5, 10.375], "rotation": 90, "texture": "#0"},
				"up": {"uv": [9.375, 10.25, 9.5, 10.375], "rotation": 90, "texture": "#0"},
				"down": {"uv": [9.375, 10.25, 9.5, 10.375], "rotation": 90, "texture": "#0"}
			}
		},
		{
			"from": [0.96166, -2.24607, 7.1085],
			"to": [1.66666, -2.04107, 8.9005],
			"rotation": {"angle": 0, "axis": "y", "origin": [1.36912, -1.5548, 8.0045]},
			"faces": {
				"north": {"uv": [9.375, 10.375, 9.5, 10.25], "rotation": 90, "texture": "#0"},
				"east": {"uv": [9.375, 10.375, 9.5, 10.25], "rotation": 270, "texture": "#0"},
				"south": {"uv": [9.375, 10.375, 9.5, 10.25], "rotation": 270, "texture": "#0"},
				"west": {"uv": [9.375, 10.375, 9.5, 10.25], "rotation": 270, "texture": "#0"},
				"up": {"uv": [9.375, 10.375, 9.5, 10.25], "rotation": 270, "texture": "#0"},
				"down": {"uv": [9.375, 10.375, 9.5, 10.25], "rotation": 270, "texture": "#0"}
			}
		},
		{
			"from": [0.58794, -1.74967, 7.1085],
			"to": [0.81294, -1.19967, 8.9005],
			"rotation": {"angle": 45, "axis": "z", "origin": [1.36912, -1.5548, 8.0045]},
			"faces": {
				"north": {"uv": [9.375, 10.375, 9.5, 10.25], "texture": "#0"},
				"east": {"uv": [9.375, 10.375, 9.5, 10.25], "texture": "#0"},
				"south": {"uv": [9.375, 10.375, 9.5, 10.25], "texture": "#0"},
				"west": {"uv": [9.375, 10.375, 9.5, 10.25], "texture": "#0"},
				"up": {"uv": [9.375, 10.375, 9.5, 10.25], "texture": "#0"},
				"down": {"uv": [9.375, 10.375, 9.5, 10.25], "texture": "#0"}
			}
		},
		{
			"from": [0.56562, -1.85607, 7.1085],
			"to": [0.76562, -1.25607, 8.9005],
			"rotation": {"angle": 0, "axis": "y", "origin": [1.36912, -1.5548, 8.0045]},
			"faces": {
				"north": {"uv": [9.375, 10.25, 9.5, 10.375], "rotation": 180, "texture": "#0"},
				"east": {"uv": [9.375, 10.25, 9.5, 10.375], "rotation": 180, "texture": "#0"},
				"south": {"uv": [9.375, 10.25, 9.5, 10.375], "rotation": 180, "texture": "#0"},
				"west": {"uv": [9.375, 10.25, 9.5, 10.375], "rotation": 180, "texture": "#0"},
				"up": {"uv": [9.375, 10.25, 9.5, 10.375], "rotation": 180, "texture": "#0"},
				"down": {"uv": [9.375, 10.25, 9.5, 10.375], "rotation": 180, "texture": "#0"}
			}
		},
		{
			"from": [0.58972, -1.91173, 7.1085],
			"to": [0.78972, -1.36173, 8.9005],
			"rotation": {"angle": -45, "axis": "z", "origin": [1.36912, -1.5548, 8.0045]},
			"faces": {
				"north": {"uv": [9.375, 10.25, 9.5, 10.375], "texture": "#0"},
				"east": {"uv": [9.375, 10.25, 9.5, 10.375], "texture": "#0"},
				"south": {"uv": [9.375, 10.25, 9.5, 10.375], "texture": "#0"},
				"west": {"uv": [9.375, 10.25, 9.5, 10.375], "texture": "#0"},
				"up": {"uv": [9.375, 10.25, 9.5, 10.375], "texture": "#0"},
				"down": {"uv": [9.375, 10.25, 9.5, 10.375], "texture": "#0"}
			}
		},
		{
			"from": [0.96166, -1.07107, 7.1085],
			"to": [1.66666, -0.86607, 8.9005],
			"rotation": {"angle": 0, "axis": "y", "origin": [1.36912, -1.5548, 8.0045]},
			"faces": {
				"north": {"uv": [9.5, 10.375, 9.375, 10.25], "rotation": 90, "texture": "#0"},
				"east": {"uv": [9.5, 10.375, 9.375, 10.25], "rotation": 270, "texture": "#0"},
				"south": {"uv": [9.5, 10.375, 9.375, 10.25], "rotation": 270, "texture": "#0"},
				"west": {"uv": [9.5, 10.375, 9.375, 10.25], "rotation": 270, "texture": "#0"},
				"up": {"uv": [9.5, 10.375, 9.375, 10.25], "rotation": 270, "texture": "#0"},
				"down": {"uv": [9.5, 10.375, 9.375, 10.25], "rotation": 270, "texture": "#0"}
			}
		},
		{
			"from": [1.38044, -1.00463, 7.1085],
			"to": [2.85544, -0.80463, 8.9005],
			"rotation": {"angle": -22.5, "axis": "z", "origin": [1.36912, -1.5548, 8.0045]},
			"faces": {
				"north": {"uv": [9.5, 10.375, 9.375, 10.25], "rotation": 270, "texture": "#0"},
				"east": {"uv": [9.5, 10.375, 9.375, 10.25], "rotation": 90, "texture": "#0"},
				"south": {"uv": [9.5, 10.375, 9.375, 10.25], "rotation": 90, "texture": "#0"},
				"west": {"uv": [9.5, 10.375, 9.375, 10.25], "rotation": 90, "texture": "#0"},
				"up": {"uv": [9.5, 10.375, 9.375, 10.25], "rotation": 90, "texture": "#0"},
				"down": {"uv": [9.5, 10.375, 9.375, 10.25], "rotation": 90, "texture": "#0"}
			}
		},
		{
			"from": [1.37948, -2.30731, 7.1085],
			"to": [2.85448, -2.10731, 8.9005],
			"rotation": {"angle": 22.5, "axis": "z", "origin": [1.36912, -1.5548, 8.0045]},
			"faces": {
				"north": {"uv": [9.375, 10.375, 9.5, 10.25], "rotation": 270, "texture": "#0"},
				"east": {"uv": [9.375, 10.375, 9.5, 10.25], "rotation": 90, "texture": "#0"},
				"south": {"uv": [9.375, 10.375, 9.5, 10.25], "rotation": 90, "texture": "#0"},
				"west": {"uv": [9.375, 10.375, 9.5, 10.25], "rotation": 90, "texture": "#0"},
				"up": {"uv": [9.375, 10.375, 9.5, 10.25], "rotation": 90, "texture": "#0"},
				"down": {"uv": [9.375, 10.375, 9.5, 10.25], "rotation": 90, "texture": "#0"}
			}
		},
		{
			"from": [15.23438, -1.85607, 7.1085],
			"to": [15.43438, -1.25607, 8.9005],
			"rotation": {"angle": 0, "axis": "z", "origin": [15.35938, -1.73107, 8.0045]},
			"faces": {
				"north": {"uv": [9.5, 10.25, 9.375, 10.375], "rotation": 180, "texture": "#0"},
				"east": {"uv": [9.5, 10.25, 9.375, 10.375], "rotation": 180, "texture": "#0"},
				"south": {"uv": [9.5, 10.25, 9.375, 10.375], "rotation": 180, "texture": "#0"},
				"west": {"uv": [9.5, 10.25, 9.375, 10.375], "rotation": 180, "texture": "#0"},
				"up": {"uv": [9.5, 10.25, 9.375, 10.375], "rotation": 180, "texture": "#0"},
				"down": {"uv": [9.5, 10.25, 9.375, 10.375], "rotation": 180, "texture": "#0"}
			}
		}
	],
	"display": {
		"thirdperson_righthand": {
			"rotation": [0, 0, -90],
			"translation": [6.25, -0.25, -4]
		},
		"thirdperson_lefthand": {
			"rotation": [0, 0, -90],
			"translation": [6.25, -4, -4]
		},
		"firstperson_righthand": {
			"rotation": [-51, 82, 46],
			"translation": [-1.25, 8.5, 1.25]
		},
		"firstperson_lefthand": {
			"rotation": [-51, 82, 46],
			"translation": [-1.25, 8.5, 1.25]
		},
		"ground": {
			"translation": [0, 4.5, 0]
		},
		"gui": {
			"rotation": [50, -107.5, 8],
			"translation": [2.5, 8, 0],
			"scale": [1.4, 1.4, 1.4]
		},
		"head": {
			"translation": [-3.5, 22, -2],
			"scale": [2, 2, 2]
		},
		"fixed": {
			"rotation": [-90, -180, 0],
			"translation": [4.25, 1.75, -15.25],
			"scale": [2, 2, 2]
		}
	},
	"groups": [
		{
			"name": "group",
			"origin": [10.47399, 2.2, 10.44948],
			"children": [0, 1, 2, 3, 4, 5, 6, 7, 8, 9, 10, 11, 12, 13, 14, 15, 16, 17, 18, 19, 20, 21, 22, 23, 24, 25, 26, 27, 28, 29, 30, 31, 32, 33, 34,
				{
					"name": "group",
					"origin": [4.92303, 1.3625, 12.07223],
					"children": [35, 36, 37, 38]
				}, 39,
				{
					"name": "group",
					"origin": [4.92303, 1.3625, 12.07223],
					"children": [40, 41, 42, 43]
				}, 44,
				{
					"name": "group",
					"origin": [4.92303, 1.3625, 12.07223],
					"children": [45, 46, 47, 48]
				}, 49,
				{
					"name": "group",
					"origin": [4.92303, 1.3625, 12.07223],
					"children": [50, 51, 52, 53]
				}, 54,
				{
					"name": "group",
					"origin": [4.92303, 1.3625, 12.07223],
					"children": [55, 56, 57, 58]
				}, 59,
				{
					"name": "group",
					"origin": [4.92303, 1.3625, 12.07223],
					"children": [60, 61, 62, 63]
				}, 64, 65, 66, 67, 68, 69, 70, 71, 72, 73, 74, 75, 76, 77, 78,
				{
					"name": "group",
					"origin": [4.92303, 1.3625, 12.07223],
					"children": [79, 80, 81, 82]
				}, 83, 84, 85,
				{
					"name": "group",
					"origin": [4.92303, 1.3625, 12.07223],
					"children": [86, 87, 88, 89]
				}, 90, 91,
				{
					"name": "group",
					"origin": [4.92303, 1.3625, 12.07223],
					"children": [92, 93, 94, 95]
				}, 96, 97, 98, 99, 100, 101, 102, 103, 104, 105, 106, 107, 108, 109, 110, 111, 112, 113, 114]
		}, 115, 116, 117, 118, 119, 120, 121, 122, 123, 124, 125, 126, 127, 128, 129, 130, 131, 132, 133, 134, 135, 136, 137, 138, 139, 140, 141, 142]
}