{
	"credit": "Made with Blockbench",
	"textures": {
		"0": "Desktop/MPZ",
		"particle": "Desktop/MPZ"
	},
	"elements": [
		{
			"from": [7.87782, 6.39633, 5.61884],
			"to": [8.27782, 9.99633, 6.01884],
			"rotation": {"angle": 22.5, "axis": "x", "origin": [8.07782, 9.19633, 5.81884]},
			"faces": {
				"north": {"uv": [6, 11, 7, 13], "rotation": 180, "texture": "#0"},
				"east": {"uv": [6, 11, 7, 13], "rotation": 180, "texture": "#0"},
				"south": {"uv": [6, 11, 7, 13], "rotation": 180, "texture": "#0"},
				"west": {"uv": [6, 11, 7, 13], "rotation": 180, "texture": "#0"},
				"up": {"uv": [6, 11, 7, 13], "texture": "#0"},
				"down": {"uv": [6, 11, 7, 13], "texture": "#0"}
			}
		},
		{
			"from": [7.87782, 9.66546, 6.00913],
			"to": [8.27782, 10.06546, 6.90913],
			"rotation": {"angle": -22.5, "axis": "x", "origin": [8.07782, 9.86546, 6.10913]},
			"faces": {
				"north": {"uv": [6, 11, 7, 13], "rotation": 180, "texture": "#0"},
				"east": {"uv": [6, 11, 7, 13], "rotation": 180, "texture": "#0"},
				"south": {"uv": [6, 11, 7, 13], "rotation": 180, "texture": "#0"},
				"west": {"uv": [6, 11, 7, 13], "rotation": 180, "texture": "#0"},
				"up": {"uv": [6, 11, 7, 13], "texture": "#0"},
				"down": {"uv": [6, 11, 7, 13], "texture": "#0"}
			}
		},
		{
			"from": [7.87782, 5.92343, 4.85347],
			"to": [8.27782, 6.82343, 5.25347],
			"rotation": {"angle": -22.5, "axis": "x", "origin": [8.07782, 6.02343, 5.05347]},
			"faces": {
				"north": {"uv": [6, 11, 7, 13], "rotation": 180, "texture": "#0"},
				"east": {"uv": [6, 11, 7, 13], "rotation": 180, "texture": "#0"},
				"south": {"uv": [6, 11, 7, 13], "rotation": 180, "texture": "#0"},
				"west": {"uv": [6, 11, 7, 13], "rotation": 180, "texture": "#0"},
				"up": {"uv": [6, 11, 7, 13], "texture": "#0"},
				"down": {"uv": [6, 11, 7, 13], "texture": "#0"}
			}
		},
		{
			"from": [7.87782, 10.29298, 6.67952],
			"to": [8.27782, 10.69298, 7.87952],
			"rotation": {"angle": 22.5, "axis": "x", "origin": [7.77782, 10.29298, 5.87952]},
			"faces": {
				"north": {"uv": [6, 11, 7, 13], "rotation": 180, "texture": "#0"},
				"east": {"uv": [6, 11, 7, 13], "rotation": 180, "texture": "#0"},
				"south": {"uv": [6, 11, 7, 13], "rotation": 180, "texture": "#0"},
				"west": {"uv": [6, 11, 7, 13], "rotation": 180, "texture": "#0"},
				"up": {"uv": [6, 11, 7, 13], "texture": "#0"},
				"down": {"uv": [6, 11, 7, 13], "texture": "#0"}
			}
		},
		{
			"from": [7.87782, 6.16066, 4.96786],
			"to": [8.27782, 6.56066, 6.16786],
			"rotation": {"angle": 22.5, "axis": "x", "origin": [7.77782, 6.16066, 4.16786]},
			"faces": {
				"north": {"uv": [6, 11, 7, 13], "rotation": 180, "texture": "#0"},
				"east": {"uv": [6, 11, 7, 13], "rotation": 180, "texture": "#0"},
				"south": {"uv": [6, 11, 7, 13], "rotation": 180, "texture": "#0"},
				"west": {"uv": [6, 11, 7, 13], "rotation": 180, "texture": "#0"},
				"up": {"uv": [6, 11, 7, 13], "texture": "#0"},
				"down": {"uv": [6, 11, 7, 13], "texture": "#0"}
			}
		},
		{
			"from": [7.14142, 0, 2.05189],
			"to": [9.14142, 0.5, 8.05189],
			"rotation": {"angle": 0, "axis": "y", "origin": [8.14142, 0.25, 5.05189]},
			"faces": {
				"north": {"uv": [6, 11, 7, 13], "rotation": 90, "texture": "#0"},
				"east": {"uv": [6, 11, 7, 13], "rotation": 90, "texture": "#0"},
				"south": {"uv": [6, 11, 7, 13], "rotation": 90, "texture": "#0"},
				"west": {"uv": [6, 11, 7, 13], "rotation": 90, "texture": "#0"},
				"up": {"uv": [6, 11, 7, 13], "rotation": 270, "texture": "#0"},
				"down": {"uv": [6, 11, 7, 13], "rotation": 270, "texture": "#0"}
			}
		},
		{
			"from": [6.84142, 1.16708, 3.08458],
			"to": [9.44142, 1.66708, 7.78458],
			"rotation": {"angle": 22.5, "axis": "x", "origin": [8.14142, 1.41708, 4.78458]},
			"faces": {
				"north": {"uv": [6, 11, 7, 13], "rotation": 90, "texture": "#0"},
				"east": {"uv": [6, 11, 7, 13], "rotation": 90, "texture": "#0"},
				"south": {"uv": [6, 11, 7, 13], "rotation": 90, "texture": "#0"},
				"west": {"uv": [6, 11, 7, 13], "rotation": 90, "texture": "#0"},
				"up": {"uv": [6, 11, 7, 13], "rotation": 270, "texture": "#0"},
				"down": {"uv": [6, 11, 7, 13], "rotation": 270, "texture": "#0"}
			}
		},
		{
			"from": [9.14142, 0.43667, 3.11832],
			"to": [9.44142, 1.83667, 3.41832],
			"rotation": {"angle": 0, "axis": "y", "origin": [5.44142, 1.58667, 0.41832]},
			"faces": {
				"north": {"uv": [6, 11, 7, 13], "rotation": 90, "texture": "#0"},
				"east": {"uv": [6, 11, 7, 13], "rotation": 90, "texture": "#0"},
				"south": {"uv": [6, 11, 7, 13], "rotation": 90, "texture": "#0"},
				"west": {"uv": [6, 11, 7, 13], "rotation": 90, "texture": "#0"},
				"up": {"uv": [6, 11, 7, 13], "rotation": 270, "texture": "#0"},
				"down": {"uv": [6, 11, 7, 13], "rotation": 270, "texture": "#0"}
			}
		},
		{
			"from": [6.84142, 0.43667, 3.11832],
			"to": [7.14142, 1.83667, 3.41832],
			"rotation": {"angle": 0, "axis": "y", "origin": [1.54142, 1.58667, 0.41832]},
			"faces": {
				"north": {"uv": [6, 11, 7, 13], "rotation": 90, "texture": "#0"},
				"east": {"uv": [6, 11, 7, 13], "rotation": 90, "texture": "#0"},
				"south": {"uv": [6, 11, 7, 13], "rotation": 90, "texture": "#0"},
				"west": {"uv": [6, 11, 7, 13], "rotation": 90, "texture": "#0"},
				"up": {"uv": [6, 11, 7, 13], "rotation": 270, "texture": "#0"},
				"down": {"uv": [6, 11, 7, 13], "rotation": 270, "texture": "#0"}
			}
		},
		{
			"from": [7.94142, 0.43667, 3.11832],
			"to": [8.24142, 1.83667, 3.41832],
			"rotation": {"angle": 0, "axis": "y", "origin": [1.54142, 1.58667, 0.41832]},
			"faces": {
				"north": {"uv": [6, 11, 7, 13], "rotation": 90, "texture": "#0"},
				"east": {"uv": [6, 11, 7, 13], "rotation": 90, "texture": "#0"},
				"south": {"uv": [6, 11, 7, 13], "rotation": 90, "texture": "#0"},
				"west": {"uv": [6, 11, 7, 13], "rotation": 90, "texture": "#0"},
				"up": {"uv": [6, 11, 7, 13], "rotation": 270, "texture": "#0"},
				"down": {"uv": [6, 11, 7, 13], "rotation": 270, "texture": "#0"}
			}
		},
		{
			"from": [5.14142, 0, 4.05189],
			"to": [11.14142, 0.5, 6.05189],
			"rotation": {"angle": 0, "axis": "y", "origin": [8.14142, 0.25, 5.05189]},
			"faces": {
				"north": {"uv": [6, 11, 7, 13], "rotation": 270, "texture": "#0"},
				"east": {"uv": [6, 11, 7, 13], "rotation": 270, "texture": "#0"},
				"south": {"uv": [6, 11, 7, 13], "rotation": 270, "texture": "#0"},
				"west": {"uv": [6, 11, 7, 13], "rotation": 270, "texture": "#0"},
				"up": {"uv": [6, 11, 7, 13], "rotation": 90, "texture": "#0"},
				"down": {"uv": [6, 11, 7, 13], "rotation": 90, "texture": "#0"}
			}
		},
		{
			"from": [8.48299, 0, 6.46611],
			"to": [11.31299, 0.5, 8.46611],
			"rotation": {"angle": 45, "axis": "y", "origin": [8.31299, 0.25, 7.46611]},
			"faces": {
				"north": {"uv": [6, 11, 7, 13], "rotation": 270, "texture": "#0"},
				"east": {"uv": [6, 11, 7, 13], "rotation": 270, "texture": "#0"},
				"south": {"uv": [6, 11, 7, 13], "rotation": 270, "texture": "#0"},
				"west": {"uv": [6, 11, 7, 13], "rotation": 270, "texture": "#0"},
				"up": {"uv": [6, 11, 7, 13], "rotation": 90, "texture": "#0"},
				"down": {"uv": [6, 11, 7, 13], "rotation": 90, "texture": "#0"}
			}
		},
		{
			"from": [5.89721, 0, 3.88032],
			"to": [8.72721, 0.5, 5.88032],
			"rotation": {"angle": 45, "axis": "y", "origin": [5.72721, 0.25, 4.88032]},
			"faces": {
				"north": {"uv": [6, 11, 7, 13], "rotation": 270, "texture": "#0"},
				"east": {"uv": [6, 11, 7, 13], "rotation": 270, "texture": "#0"},
				"south": {"uv": [6, 11, 7, 13], "rotation": 270, "texture": "#0"},
				"west": {"uv": [6, 11, 7, 13], "rotation": 270, "texture": "#0"},
				"up": {"uv": [6, 11, 7, 13], "rotation": 90, "texture": "#0"},
				"down": {"uv": [6, 11, 7, 13], "rotation": 90, "texture": "#0"}
			}
		},
		{
			"from": [8.96929, 0, 3.63745],
			"to": [10.96929, 0.5, 6.46745],
			"rotation": {"angle": 45, "axis": "y", "origin": [8.14087, 0.25, 5.05245]},
			"faces": {
				"north": {"uv": [6, 11, 7, 13], "rotation": 90, "texture": "#0"},
				"east": {"uv": [6, 11, 7, 13], "rotation": 90, "texture": "#0"},
				"south": {"uv": [6, 11, 7, 13], "rotation": 90, "texture": "#0"},
				"west": {"uv": [6, 11, 7, 13], "rotation": 90, "texture": "#0"},
				"up": {"uv": [6, 11, 7, 13], "rotation": 270, "texture": "#0"},
				"down": {"uv": [6, 11, 7, 13], "rotation": 270, "texture": "#0"}
			}
		},
		{
			"from": [5.31244, 0, 3.63745],
			"to": [7.31244, 0.5, 6.46745],
			"rotation": {"angle": 45, "axis": "y", "origin": [8.14087, 0.25, 5.05245]},
			"faces": {
				"north": {"uv": [6, 11, 7, 13], "rotation": 90, "texture": "#0"},
				"east": {"uv": [6, 11, 7, 13], "rotation": 90, "texture": "#0"},
				"south": {"uv": [6, 11, 7, 13], "rotation": 90, "texture": "#0"},
				"west": {"uv": [6, 11, 7, 13], "rotation": 90, "texture": "#0"},
				"up": {"uv": [6, 11, 7, 13], "rotation": 270, "texture": "#0"},
				"down": {"uv": [6, 11, 7, 13], "rotation": 270, "texture": "#0"}
			}
		},
		{
			"from": [7.64142, 0.74958, 9.41762],
			"to": [8.64142, 17.14958, 9.81762],
			"rotation": {"angle": 22.5, "axis": "x", "origin": [8.13838, 8.84958, 8.61356]},
			"faces": {
				"north": {"uv": [6, 11, 7, 13], "texture": "#0"},
				"east": {"uv": [6, 11, 7, 13], "texture": "#0"},
				"south": {"uv": [6, 11, 7, 13], "texture": "#0"},
				"west": {"uv": [6, 11, 7, 13], "texture": "#0"},
				"up": {"uv": [6, 11, 7, 13], "rotation": 180, "texture": "#0"},
				"down": {"uv": [6, 11, 7, 13], "rotation": 180, "texture": "#0"}
			}
		},
		{
			"from": [8.94853, 0.74958, 8.11051],
			"to": [9.34853, 17.14958, 9.11051],
			"rotation": {"angle": 22.5, "axis": "x", "origin": [8.13838, 8.84958, 8.61356]},
			"faces": {
				"north": {"uv": [6, 11, 7, 13], "texture": "#0"},
				"east": {"uv": [6, 11, 7, 13], "texture": "#0"},
				"south": {"uv": [6, 11, 7, 13], "texture": "#0"},
				"west": {"uv": [6, 11, 7, 13], "texture": "#0"},
				"up": {"uv": [6, 11, 7, 13], "rotation": 180, "texture": "#0"},
				"down": {"uv": [6, 11, 7, 13], "rotation": 180, "texture": "#0"}
			}
		},
		{
			"from": [7.64142, 0.74958, 7.40341],
			"to": [8.64142, 17.14958, 7.80341],
			"rotation": {"angle": 22.5, "axis": "x", "origin": [8.13838, 8.84958, 8.61356]},
			"faces": {
				"north": {"uv": [6, 11, 7, 13], "texture": "#0"},
				"east": {"uv": [6, 11, 7, 13], "texture": "#0"},
				"south": {"uv": [6, 11, 7, 13], "texture": "#0"},
				"west": {"uv": [6, 11, 7, 13], "texture": "#0"},
				"up": {"uv": [6, 11, 7, 13], "rotation": 180, "texture": "#0"},
				"down": {"uv": [6, 11, 7, 13], "rotation": 180, "texture": "#0"}
			}
		},
		{
			"from": [6.93431, 0.74958, 8.11051],
			"to": [7.33431, 17.14958, 9.11051],
			"rotation": {"angle": 22.5, "axis": "x", "origin": [8.13838, 8.84958, 8.61356]},
			"faces": {
				"north": {"uv": [6, 11, 7, 13], "texture": "#0"},
				"east": {"uv": [6, 11, 7, 13], "texture": "#0"},
				"south": {"uv": [6, 11, 7, 13], "texture": "#0"},
				"west": {"uv": [6, 11, 7, 13], "texture": "#0"},
				"up": {"uv": [6, 11, 7, 13], "rotation": 180, "texture": "#0"},
				"down": {"uv": [6, 11, 7, 13], "rotation": 180, "texture": "#0"}
			}
		},
		{
			"from": [8.42142, 0.74958, 9.39762],
			"to": [8.74142, 17.14958, 9.71762],
			"rotation": {"angle": 22.5, "axis": "x", "origin": [8.13838, 8.84958, 8.61356]},
			"faces": {
				"north": {"uv": [6, 11, 7, 13], "texture": "#0"},
				"east": {"uv": [6, 11, 7, 13], "texture": "#0"},
				"south": {"uv": [6, 11, 7, 13], "texture": "#0"},
				"west": {"uv": [6, 11, 7, 13], "texture": "#0"},
				"up": {"uv": [6, 11, 7, 13], "rotation": 180, "texture": "#0"},
				"down": {"uv": [6, 11, 7, 13], "rotation": 180, "texture": "#0"}
			}
		},
		{
			"from": [7.03431, 0.74958, 8.01051],
			"to": [7.35431, 17.14958, 8.33051],
			"rotation": {"angle": 22.5, "axis": "x", "origin": [8.13838, 8.84958, 8.61356]},
			"faces": {
				"north": {"uv": [6, 11, 7, 13], "texture": "#0"},
				"east": {"uv": [6, 11, 7, 13], "texture": "#0"},
				"south": {"uv": [6, 11, 7, 13], "texture": "#0"},
				"west": {"uv": [6, 11, 7, 13], "texture": "#0"},
				"up": {"uv": [6, 11, 7, 13], "rotation": 180, "texture": "#0"},
				"down": {"uv": [6, 11, 7, 13], "rotation": 180, "texture": "#0"}
			}
		},
		{
			"from": [8.52142, 0.74958, 9.29762],
			"to": [8.84142, 17.14958, 9.61762],
			"rotation": {"angle": 22.5, "axis": "x", "origin": [8.13838, 8.84958, 8.61356]},
			"faces": {
				"north": {"uv": [6, 11, 7, 13], "texture": "#0"},
				"east": {"uv": [6, 11, 7, 13], "texture": "#0"},
				"south": {"uv": [6, 11, 7, 13], "texture": "#0"},
				"west": {"uv": [6, 11, 7, 13], "texture": "#0"},
				"up": {"uv": [6, 11, 7, 13], "rotation": 180, "texture": "#0"},
				"down": {"uv": [6, 11, 7, 13], "rotation": 180, "texture": "#0"}
			}
		},
		{
			"from": [8.62142, 0.74958, 9.19762],
			"to": [8.94142, 17.14958, 9.51762],
			"rotation": {"angle": 22.5, "axis": "x", "origin": [8.13838, 8.84958, 8.61356]},
			"faces": {
				"north": {"uv": [6, 11, 7, 13], "texture": "#0"},
				"east": {"uv": [6, 11, 7, 13], "texture": "#0"},
				"south": {"uv": [6, 11, 7, 13], "texture": "#0"},
				"west": {"uv": [6, 11, 7, 13], "texture": "#0"},
				"up": {"uv": [6, 11, 7, 13], "rotation": 180, "texture": "#0"},
				"down": {"uv": [6, 11, 7, 13], "rotation": 180, "texture": "#0"}
			}
		},
		{
			"from": [8.72142, 0.74958, 9.09762],
			"to": [9.04142, 17.14958, 9.41762],
			"rotation": {"angle": 22.5, "axis": "x", "origin": [8.13838, 8.84958, 8.61356]},
			"faces": {
				"north": {"uv": [6, 11, 7, 13], "texture": "#0"},
				"east": {"uv": [6, 11, 7, 13], "texture": "#0"},
				"south": {"uv": [6, 11, 7, 13], "texture": "#0"},
				"west": {"uv": [6, 11, 7, 13], "texture": "#0"},
				"up": {"uv": [6, 11, 7, 13], "rotation": 180, "texture": "#0"},
				"down": {"uv": [6, 11, 7, 13], "rotation": 180, "texture": "#0"}
			}
		},
		{
			"from": [8.82142, 0.74958, 8.99762],
			"to": [9.14142, 17.14958, 9.31762],
			"rotation": {"angle": 22.5, "axis": "x", "origin": [8.13838, 8.84958, 8.61356]},
			"faces": {
				"north": {"uv": [6, 11, 7, 13], "texture": "#0"},
				"east": {"uv": [6, 11, 7, 13], "texture": "#0"},
				"south": {"uv": [6, 11, 7, 13], "texture": "#0"},
				"west": {"uv": [6, 11, 7, 13], "texture": "#0"},
				"up": {"uv": [6, 11, 7, 13], "rotation": 180, "texture": "#0"},
				"down": {"uv": [6, 11, 7, 13], "rotation": 180, "texture": "#0"}
			}
		},
		{
			"from": [8.92142, 0.74958, 8.89762],
			"to": [9.24142, 17.14958, 9.21762],
			"rotation": {"angle": 22.5, "axis": "x", "origin": [8.13838, 8.84958, 8.61356]},
			"faces": {
				"north": {"uv": [6, 11, 7, 13], "texture": "#0"},
				"east": {"uv": [6, 11, 7, 13], "texture": "#0"},
				"south": {"uv": [6, 11, 7, 13], "texture": "#0"},
				"west": {"uv": [6, 11, 7, 13], "texture": "#0"},
				"up": {"uv": [6, 11, 7, 13], "rotation": 180, "texture": "#0"},
				"down": {"uv": [6, 11, 7, 13], "rotation": 180, "texture": "#0"}
			}
		},
		{
			"from": [7.53431, 0.74958, 7.51051],
			"to": [7.85431, 17.14958, 7.83051],
			"rotation": {"angle": 22.5, "axis": "x", "origin": [8.13838, 8.84958, 8.61356]},
			"faces": {
				"north": {"uv": [6, 11, 7, 13], "texture": "#0"},
				"east": {"uv": [6, 11, 7, 13], "texture": "#0"},
				"south": {"uv": [6, 11, 7, 13], "texture": "#0"},
				"west": {"uv": [6, 11, 7, 13], "texture": "#0"},
				"up": {"uv": [6, 11, 7, 13], "rotation": 180, "texture": "#0"},
				"down": {"uv": [6, 11, 7, 13], "rotation": 180, "texture": "#0"}
			}
		},
		{
			"from": [7.43431, 0.74958, 7.61051],
			"to": [7.75431, 17.14958, 7.93051],
			"rotation": {"angle": 22.5, "axis": "x", "origin": [8.13838, 8.84958, 8.61356]},
			"faces": {
				"north": {"uv": [6, 11, 7, 13], "texture": "#0"},
				"east": {"uv": [6, 11, 7, 13], "texture": "#0"},
				"south": {"uv": [6, 11, 7, 13], "texture": "#0"},
				"west": {"uv": [6, 11, 7, 13], "texture": "#0"},
				"up": {"uv": [6, 11, 7, 13], "rotation": 180, "texture": "#0"},
				"down": {"uv": [6, 11, 7, 13], "rotation": 180, "texture": "#0"}
			}
		},
		{
			"from": [7.33431, 0.74958, 7.71051],
			"to": [7.65431, 17.14958, 8.03051],
			"rotation": {"angle": 22.5, "axis": "x", "origin": [8.13838, 8.84958, 8.61356]},
			"faces": {
				"north": {"uv": [6, 11, 7, 13], "texture": "#0"},
				"east": {"uv": [6, 11, 7, 13], "texture": "#0"},
				"south": {"uv": [6, 11, 7, 13], "texture": "#0"},
				"west": {"uv": [6, 11, 7, 13], "texture": "#0"},
				"up": {"uv": [6, 11, 7, 13], "rotation": 180, "texture": "#0"},
				"down": {"uv": [6, 11, 7, 13], "rotation": 180, "texture": "#0"}
			}
		},
		{
			"from": [7.23431, 0.74958, 7.81051],
			"to": [7.55431, 17.14958, 8.13051],
			"rotation": {"angle": 22.5, "axis": "x", "origin": [8.13838, 8.84958, 8.61356]},
			"faces": {
				"north": {"uv": [6, 11, 7, 13], "texture": "#0"},
				"east": {"uv": [6, 11, 7, 13], "texture": "#0"},
				"south": {"uv": [6, 11, 7, 13], "texture": "#0"},
				"west": {"uv": [6, 11, 7, 13], "texture": "#0"},
				"up": {"uv": [6, 11, 7, 13], "rotation": 180, "texture": "#0"},
				"down": {"uv": [6, 11, 7, 13], "rotation": 180, "texture": "#0"}
			}
		},
		{
			"from": [7.13431, 0.74958, 7.91051],
			"to": [7.45431, 17.14958, 8.23051],
			"rotation": {"angle": 22.5, "axis": "x", "origin": [8.13838, 8.84958, 8.61356]},
			"faces": {
				"north": {"uv": [6, 11, 7, 13], "texture": "#0"},
				"east": {"uv": [6, 11, 7, 13], "texture": "#0"},
				"south": {"uv": [6, 11, 7, 13], "texture": "#0"},
				"west": {"uv": [6, 11, 7, 13], "texture": "#0"},
				"up": {"uv": [6, 11, 7, 13], "rotation": 180, "texture": "#0"},
				"down": {"uv": [6, 11, 7, 13], "rotation": 180, "texture": "#0"}
			}
		},
		{
			"from": [8.42142, 0.74958, 7.51051],
			"to": [8.74142, 17.14958, 7.83051],
			"rotation": {"angle": 22.5, "axis": "x", "origin": [8.13838, 8.84958, 8.61356]},
			"faces": {
				"north": {"uv": [6, 11, 7, 13], "texture": "#0"},
				"east": {"uv": [6, 11, 7, 13], "texture": "#0"},
				"south": {"uv": [6, 11, 7, 13], "texture": "#0"},
				"west": {"uv": [6, 11, 7, 13], "texture": "#0"},
				"up": {"uv": [6, 11, 7, 13], "rotation": 180, "texture": "#0"},
				"down": {"uv": [6, 11, 7, 13], "rotation": 180, "texture": "#0"}
			}
		},
		{
			"from": [8.52142, 0.74958, 7.61051],
			"to": [8.84142, 17.14958, 7.93051],
			"rotation": {"angle": 22.5, "axis": "x", "origin": [8.13838, 8.84958, 8.61356]},
			"faces": {
				"north": {"uv": [6, 11, 7, 13], "texture": "#0"},
				"east": {"uv": [6, 11, 7, 13], "texture": "#0"},
				"south": {"uv": [6, 11, 7, 13], "texture": "#0"},
				"west": {"uv": [6, 11, 7, 13], "texture": "#0"},
				"up": {"uv": [6, 11, 7, 13], "rotation": 180, "texture": "#0"},
				"down": {"uv": [6, 11, 7, 13], "rotation": 180, "texture": "#0"}
			}
		},
		{
			"from": [8.62142, 0.74958, 7.71051],
			"to": [8.94142, 17.14958, 8.03051],
			"rotation": {"angle": 22.5, "axis": "x", "origin": [8.13838, 8.84958, 8.61356]},
			"faces": {
				"north": {"uv": [6, 11, 7, 13], "texture": "#0"},
				"east": {"uv": [6, 11, 7, 13], "texture": "#0"},
				"south": {"uv": [6, 11, 7, 13], "texture": "#0"},
				"west": {"uv": [6, 11, 7, 13], "texture": "#0"},
				"up": {"uv": [6, 11, 7, 13], "rotation": 180, "texture": "#0"},
				"down": {"uv": [6, 11, 7, 13], "rotation": 180, "texture": "#0"}
			}
		},
		{
			"from": [8.72142, 0.74958, 7.81051],
			"to": [9.04142, 17.14958, 8.13051],
			"rotation": {"angle": 22.5, "axis": "x", "origin": [8.13838, 8.84958, 8.61356]},
			"faces": {
				"north": {"uv": [6, 11, 7, 13], "texture": "#0"},
				"east": {"uv": [6, 11, 7, 13], "texture": "#0"},
				"south": {"uv": [6, 11, 7, 13], "texture": "#0"},
				"west": {"uv": [6, 11, 7, 13], "texture": "#0"},
				"up": {"uv": [6, 11, 7, 13], "rotation": 180, "texture": "#0"},
				"down": {"uv": [6, 11, 7, 13], "rotation": 180, "texture": "#0"}
			}
		},
		{
			"from": [8.82142, 0.74958, 7.91051],
			"to": [9.14142, 17.14958, 8.23051],
			"rotation": {"angle": 22.5, "axis": "x", "origin": [8.13838, 8.84958, 8.61356]},
			"faces": {
				"north": {"uv": [6, 11, 7, 13], "texture": "#0"},
				"east": {"uv": [6, 11, 7, 13], "texture": "#0"},
				"south": {"uv": [6, 11, 7, 13], "texture": "#0"},
				"west": {"uv": [6, 11, 7, 13], "texture": "#0"},
				"up": {"uv": [6, 11, 7, 13], "rotation": 180, "texture": "#0"},
				"down": {"uv": [6, 11, 7, 13], "rotation": 180, "texture": "#0"}
			}
		},
		{
			"from": [8.92142, 0.74958, 8.01051],
			"to": [9.24142, 17.14958, 8.33051],
			"rotation": {"angle": 22.5, "axis": "x", "origin": [8.13838, 8.84958, 8.61356]},
			"faces": {
				"north": {"uv": [6, 11, 7, 13], "texture": "#0"},
				"east": {"uv": [6, 11, 7, 13], "texture": "#0"},
				"south": {"uv": [6, 11, 7, 13], "texture": "#0"},
				"west": {"uv": [6, 11, 7, 13], "texture": "#0"},
				"up": {"uv": [6, 11, 7, 13], "rotation": 180, "texture": "#0"},
				"down": {"uv": [6, 11, 7, 13], "rotation": 180, "texture": "#0"}
			}
		},
		{
			"from": [7.03431, 0.74958, 8.89762],
			"to": [7.35431, 17.14958, 9.21762],
			"rotation": {"angle": 22.5, "axis": "x", "origin": [8.13838, 8.84958, 8.61356]},
			"faces": {
				"north": {"uv": [6, 11, 7, 13], "texture": "#0"},
				"east": {"uv": [6, 11, 7, 13], "texture": "#0"},
				"south": {"uv": [6, 11, 7, 13], "texture": "#0"},
				"west": {"uv": [6, 11, 7, 13], "texture": "#0"},
				"up": {"uv": [6, 11, 7, 13], "rotation": 180, "texture": "#0"},
				"down": {"uv": [6, 11, 7, 13], "rotation": 180, "texture": "#0"}
			}
		},
		{
			"from": [7.13431, 0.74958, 8.99762],
			"to": [7.45431, 17.14958, 9.31762],
			"rotation": {"angle": 22.5, "axis": "x", "origin": [8.13838, 8.84958, 8.61356]},
			"faces": {
				"north": {"uv": [6, 11, 7, 13], "texture": "#0"},
				"east": {"uv": [6, 11, 7, 13], "texture": "#0"},
				"south": {"uv": [6, 11, 7, 13], "texture": "#0"},
				"west": {"uv": [6, 11, 7, 13], "texture": "#0"},
				"up": {"uv": [6, 11, 7, 13], "rotation": 180, "texture": "#0"},
				"down": {"uv": [6, 11, 7, 13], "rotation": 180, "texture": "#0"}
			}
		},
		{
			"from": [7.23431, 0.74958, 9.09762],
			"to": [7.55431, 17.14958, 9.41762],
			"rotation": {"angle": 22.5, "axis": "x", "origin": [8.13838, 8.84958, 8.61356]},
			"faces": {
				"north": {"uv": [6, 11, 7, 13], "texture": "#0"},
				"east": {"uv": [6, 11, 7, 13], "texture": "#0"},
				"south": {"uv": [6, 11, 7, 13], "texture": "#0"},
				"west": {"uv": [6, 11, 7, 13], "texture": "#0"},
				"up": {"uv": [6, 11, 7, 13], "rotation": 180, "texture": "#0"},
				"down": {"uv": [6, 11, 7, 13], "rotation": 180, "texture": "#0"}
			}
		},
		{
			"from": [7.33431, 0.74958, 9.19762],
			"to": [7.65431, 17.14958, 9.51762],
			"rotation": {"angle": 22.5, "axis": "x", "origin": [8.13838, 8.84958, 8.61356]},
			"faces": {
				"north": {"uv": [6, 11, 7, 13], "texture": "#0"},
				"east": {"uv": [6, 11, 7, 13], "texture": "#0"},
				"south": {"uv": [6, 11, 7, 13], "texture": "#0"},
				"west": {"uv": [6, 11, 7, 13], "texture": "#0"},
				"up": {"uv": [6, 11, 7, 13], "rotation": 180, "texture": "#0"},
				"down": {"uv": [6, 11, 7, 13], "rotation": 180, "texture": "#0"}
			}
		},
		{
			"from": [7.43431, 0.74958, 9.29762],
			"to": [7.75431, 17.14958, 9.61762],
			"rotation": {"angle": 22.5, "axis": "x", "origin": [8.13838, 8.84958, 8.61356]},
			"faces": {
				"north": {"uv": [6, 11, 7, 13], "texture": "#0"},
				"east": {"uv": [6, 11, 7, 13], "texture": "#0"},
				"south": {"uv": [6, 11, 7, 13], "texture": "#0"},
				"west": {"uv": [6, 11, 7, 13], "texture": "#0"},
				"up": {"uv": [6, 11, 7, 13], "rotation": 180, "texture": "#0"},
				"down": {"uv": [6, 11, 7, 13], "rotation": 180, "texture": "#0"}
			}
		},
		{
			"from": [7.53431, 0.74958, 9.39762],
			"to": [7.85431, 17.14958, 9.71762],
			"rotation": {"angle": 22.5, "axis": "x", "origin": [8.13838, 8.84958, 8.61356]},
			"faces": {
				"north": {"uv": [6, 11, 7, 13], "texture": "#0"},
				"east": {"uv": [6, 11, 7, 13], "texture": "#0"},
				"south": {"uv": [6, 11, 7, 13], "texture": "#0"},
				"west": {"uv": [6, 11, 7, 13], "texture": "#0"},
				"up": {"uv": [6, 11, 7, 13], "rotation": 180, "texture": "#0"},
				"down": {"uv": [6, 11, 7, 13], "rotation": 180, "texture": "#0"}
			}
		},
		{
			"from": [6.70503, 12.99298, 10.37952],
			"to": [7.10503, 13.39298, 11.27952],
			"rotation": {"angle": 0, "axis": "y", "origin": [6.90503, 13.19298, 10.82952]},
			"faces": {
				"north": {"uv": [6, 11, 7, 13], "texture": "#0"},
				"east": {"uv": [6, 11, 7, 13], "texture": "#0"},
				"south": {"uv": [6, 11, 7, 13], "texture": "#0"},
				"west": {"uv": [6, 11, 7, 13], "texture": "#0"},
				"up": {"uv": [6, 11, 7, 13], "rotation": 180, "texture": "#0"},
				"down": {"uv": [6, 11, 7, 13], "rotation": 180, "texture": "#0"}
			}
		},
		{
			"from": [6.96464, 12.99298, 11.0063],
			"to": [7.36464, 13.39298, 11.9063],
			"rotation": {"angle": 45, "axis": "y", "origin": [7.16464, 13.19298, 11.4563]},
			"faces": {
				"north": {"uv": [6, 11, 7, 13], "rotation": 180, "texture": "#0"},
				"east": {"uv": [6, 11, 7, 13], "rotation": 180, "texture": "#0"},
				"south": {"uv": [6, 11, 7, 13], "rotation": 180, "texture": "#0"},
				"west": {"uv": [6, 11, 7, 13], "rotation": 180, "texture": "#0"},
				"up": {"uv": [6, 11, 7, 13], "texture": "#0"},
				"down": {"uv": [6, 11, 7, 13], "texture": "#0"}
			}
		},
		{
			"from": [7.34142, 12.99298, 11.51592],
			"to": [8.94142, 13.39298, 11.91592],
			"rotation": {"angle": 0, "axis": "y", "origin": [8.14142, 13.19298, 11.71592]},
			"faces": {
				"north": {"uv": [6, 11, 7, 13], "rotation": 90, "texture": "#0"},
				"east": {"uv": [6, 11, 7, 13], "rotation": 90, "texture": "#0"},
				"south": {"uv": [6, 11, 7, 13], "rotation": 90, "texture": "#0"},
				"west": {"uv": [6, 11, 7, 13], "rotation": 90, "texture": "#0"},
				"up": {"uv": [6, 11, 7, 13], "rotation": 270, "texture": "#0"},
				"down": {"uv": [6, 11, 7, 13], "rotation": 270, "texture": "#0"}
			}
		},
		{
			"from": [8.56569, 12.99298, 11.00881],
			"to": [9.46569, 13.39298, 11.40881],
			"rotation": {"angle": 45, "axis": "y", "origin": [9.36569, 13.19298, 11.20881]},
			"faces": {
				"north": {"uv": [6, 11, 7, 13], "rotation": 90, "texture": "#0"},
				"east": {"uv": [6, 11, 7, 13], "rotation": 90, "texture": "#0"},
				"south": {"uv": [6, 11, 7, 13], "rotation": 90, "texture": "#0"},
				"west": {"uv": [6, 11, 7, 13], "rotation": 90, "texture": "#0"},
				"up": {"uv": [6, 11, 7, 13], "rotation": 270, "texture": "#0"},
				"down": {"uv": [6, 11, 7, 13], "rotation": 270, "texture": "#0"}
			}
		},
		{
			"from": [9.17782, 12.99298, 10.37952],
			"to": [9.57782, 13.39298, 11.27952],
			"rotation": {"angle": 0, "axis": "y", "origin": [7.77782, 13.19298, 10.47952]},
			"faces": {
				"north": {"uv": [6, 11, 7, 13], "rotation": 180, "texture": "#0"},
				"east": {"uv": [6, 11, 7, 13], "rotation": 180, "texture": "#0"},
				"south": {"uv": [6, 11, 7, 13], "rotation": 180, "texture": "#0"},
				"west": {"uv": [6, 11, 7, 13], "rotation": 180, "texture": "#0"},
				"up": {"uv": [6, 11, 7, 13], "texture": "#0"},
				"down": {"uv": [6, 11, 7, 13], "texture": "#0"}
			}
		},
		{
			"from": [7.34142, 12.69246, 11.60846],
			"to": [8.94142, 12.90046, 12.10846],
			"rotation": {"angle": -45, "axis": "x", "origin": [8.14142, 12.79646, 11.85846]},
			"faces": {
				"north": {"uv": [9.33333, 0.66667, 9.66667, 2.33333], "rotation": 90, "texture": "#0"},
				"east": {"uv": [9.33333, 0.66667, 9.66667, 2.33333], "rotation": 90, "texture": "#0"},
				"south": {"uv": [9.33333, 0.66667, 9.66667, 2.33333], "rotation": 90, "texture": "#0"},
				"west": {"uv": [9.33333, 0.66667, 9.66667, 2.33333], "rotation": 90, "texture": "#0"},
				"up": {"uv": [9.33333, 0.66667, 9.66667, 2.33333], "rotation": 270, "texture": "#0"},
				"down": {"uv": [9.33333, 0.66667, 9.66667, 2.33333], "rotation": 270, "texture": "#0"}
			}
		},
		{
			"from": [7.34142, 12.69246, 11.60846],
			"to": [8.94142, 12.90046, 12.10846],
			"rotation": {"angle": 0, "axis": "y", "origin": [8.14142, 12.79646, 11.85846]},
			"faces": {
				"north": {"uv": [9.33333, 0.66667, 9.66667, 2.33333], "rotation": 90, "texture": "#0"},
				"east": {"uv": [9.33333, 0.66667, 9.66667, 2.33333], "rotation": 90, "texture": "#0"},
				"south": {"uv": [9.33333, 0.66667, 9.66667, 2.33333], "rotation": 90, "texture": "#0"},
				"west": {"uv": [9.33333, 0.66667, 9.66667, 2.33333], "rotation": 90, "texture": "#0"},
				"up": {"uv": [9.33333, 0.66667, 9.66667, 2.33333], "rotation": 270, "texture": "#0"},
				"down": {"uv": [9.33333, 0.66667, 9.66667, 2.33333], "rotation": 270, "texture": "#0"}
			}
		},
		{
			"from": [7.34142, 12.54646, 11.75446],
			"to": [8.94142, 13.04646, 11.96246],
			"rotation": {"angle": -45, "axis": "x", "origin": [8.14142, 12.79646, 11.85846]},
			"faces": {
				"north": {"uv": [9.33333, 0.66667, 9.66667, 2.33333], "rotation": 90, "texture": "#0"},
				"east": {"uv": [9.33333, 0.66667, 9.66667, 2.33333], "rotation": 90, "texture": "#0"},
				"south": {"uv": [9.33333, 0.66667, 9.66667, 2.33333], "rotation": 90, "texture": "#0"},
				"west": {"uv": [9.33333, 0.66667, 9.66667, 2.33333], "rotation": 90, "texture": "#0"},
				"up": {"uv": [9.33333, 0.66667, 9.66667, 2.33333], "rotation": 270, "texture": "#0"},
				"down": {"uv": [9.33333, 0.66667, 9.66667, 2.33333], "rotation": 270, "texture": "#0"}
			}
		},
		{
			"from": [7.34142, 12.54646, 11.75446],
			"to": [8.94142, 13.04646, 11.96246],
			"rotation": {"angle": 0, "axis": "y", "origin": [8.14142, 12.79646, 11.85846]},
			"faces": {
				"north": {"uv": [9.33333, 0.66667, 9.66667, 2.33333], "rotation": 90, "texture": "#0"},
				"east": {"uv": [9.33333, 0.66667, 9.66667, 2.33333], "rotation": 90, "texture": "#0"},
				"south": {"uv": [9.33333, 0.66667, 9.66667, 2.33333], "rotation": 90, "texture": "#0"},
				"west": {"uv": [9.33333, 0.66667, 9.66667, 2.33333], "rotation": 90, "texture": "#0"},
				"up": {"uv": [9.33333, 0.66667, 9.66667, 2.33333], "rotation": 270, "texture": "#0"},
				"down": {"uv": [9.33333, 0.66667, 9.66667, 2.33333], "rotation": 270, "texture": "#0"}
			}
		},
		{
			"from": [5.54142, 12.74441, 11.73344],
			"to": [10.34142, 12.84841, 11.98344],
			"rotation": {"angle": 0, "axis": "y", "origin": [8.19142, 12.74299, 11.85845]},
			"faces": {
				"north": {"uv": [9.33333, 0.66667, 9.66667, 2.33333], "rotation": 90, "texture": "#0"},
				"east": {"uv": [9.33333, 0.66667, 9.66667, 2.33333], "rotation": 90, "texture": "#0"},
				"south": {"uv": [9.33333, 0.66667, 9.66667, 2.33333], "rotation": 90, "texture": "#0"},
				"west": {"uv": [9.33333, 0.66667, 9.66667, 2.33333], "rotation": 90, "texture": "#0"},
				"up": {"uv": [9.33333, 0.66667, 9.66667, 2.33333], "rotation": 270, "texture": "#0"},
				"down": {"uv": [9.33333, 0.66667, 9.66667, 2.33333], "rotation": 270, "texture": "#0"}
			}
		},
		{
			"from": [5.54142, 12.72877, 11.77122],
			"to": [10.34142, 12.83277, 12.02122],
			"rotation": {"angle": -45, "axis": "x", "origin": [8.19142, 12.74299, 11.85845]},
			"faces": {
				"north": {"uv": [9.33333, 0.66667, 9.66667, 2.33333], "rotation": 90, "texture": "#0"},
				"east": {"uv": [9.33333, 0.66667, 9.66667, 2.33333], "rotation": 90, "texture": "#0"},
				"south": {"uv": [9.33333, 0.66667, 9.66667, 2.33333], "rotation": 90, "texture": "#0"},
				"west": {"uv": [9.33333, 0.66667, 9.66667, 2.33333], "rotation": 90, "texture": "#0"},
				"up": {"uv": [9.33333, 0.66667, 9.66667, 2.33333], "rotation": 270, "texture": "#0"},
				"down": {"uv": [9.33333, 0.66667, 9.66667, 2.33333], "rotation": 270, "texture": "#0"}
			}
		},
		{
			"from": [5.54142, 12.67141, 11.80644],
			"to": [10.34142, 12.92141, 11.91044],
			"rotation": {"angle": 0, "axis": "y", "origin": [8.19142, 12.74299, 11.85845]},
			"faces": {
				"north": {"uv": [9.33333, 0.66667, 9.66667, 2.33333], "rotation": 90, "texture": "#0"},
				"east": {"uv": [9.33333, 0.66667, 9.66667, 2.33333], "rotation": 90, "texture": "#0"},
				"south": {"uv": [9.33333, 0.66667, 9.66667, 2.33333], "rotation": 90, "texture": "#0"},
				"west": {"uv": [9.33333, 0.66667, 9.66667, 2.33333], "rotation": 90, "texture": "#0"},
				"up": {"uv": [9.33333, 0.66667, 9.66667, 2.33333], "rotation": 270, "texture": "#0"},
				"down": {"uv": [9.33333, 0.66667, 9.66667, 2.33333], "rotation": 270, "texture": "#0"}
			}
		},
		{
			"from": [5.54142, 12.65577, 11.84422],
			"to": [10.34142, 12.90577, 11.94822],
			"rotation": {"angle": -45, "axis": "x", "origin": [8.19142, 12.74299, 11.85845]},
			"faces": {
				"north": {"uv": [9.33333, 0.66667, 9.66667, 2.33333], "rotation": 90, "texture": "#0"},
				"east": {"uv": [9.33333, 0.66667, 9.66667, 2.33333], "rotation": 90, "texture": "#0"},
				"south": {"uv": [9.33333, 0.66667, 9.66667, 2.33333], "rotation": 90, "texture": "#0"},
				"west": {"uv": [9.33333, 0.66667, 9.66667, 2.33333], "rotation": 90, "texture": "#0"},
				"up": {"uv": [9.33333, 0.66667, 9.66667, 2.33333], "rotation": 270, "texture": "#0"},
				"down": {"uv": [9.33333, 0.66667, 9.66667, 2.33333], "rotation": 270, "texture": "#0"}
			}
		},
		{
			"from": [5.94142, 12.00046, 11.50846],
			"to": [10.44142, 12.40046, 12.20846],
			"rotation": {"angle": 0, "axis": "y", "origin": [8.19142, 12.74299, 11.85845]},
			"faces": {
				"north": {"uv": [9.33333, 0.66667, 9.66667, 2.33333], "rotation": 90, "texture": "#0"},
				"east": {"uv": [9.33333, 0.66667, 9.66667, 2.33333], "rotation": 90, "texture": "#0"},
				"south": {"uv": [9.33333, 0.66667, 9.66667, 2.33333], "rotation": 90, "texture": "#0"},
				"west": {"uv": [9.33333, 0.66667, 9.66667, 2.33333], "rotation": 90, "texture": "#0"},
				"up": {"uv": [9.33333, 0.66667, 9.66667, 2.33333], "rotation": 270, "texture": "#0"},
				"down": {"uv": [9.33333, 0.66667, 9.66667, 2.33333], "rotation": 270, "texture": "#0"}
			}
		},
		{
			"from": [5.94142, 12.40046, 11.50846],
			"to": [6.34142, 13.20046, 12.20846],
			"rotation": {"angle": 0, "axis": "y", "origin": [7.89142, 12.74299, 11.85845]},
			"faces": {
				"north": {"uv": [9.33333, 0.66667, 9.66667, 2.33333], "rotation": 180, "texture": "#0"},
				"east": {"uv": [9.33333, 0.66667, 9.66667, 2.33333], "rotation": 180, "texture": "#0"},
				"south": {"uv": [9.33333, 0.66667, 9.66667, 2.33333], "rotation": 180, "texture": "#0"},
				"west": {"uv": [9.33333, 0.66667, 9.66667, 2.33333], "rotation": 180, "texture": "#0"},
				"up": {"uv": [9.33333, 0.66667, 9.66667, 2.33333], "texture": "#0"},
				"down": {"uv": [9.33333, 0.66667, 9.66667, 2.33333], "texture": "#0"}
			}
		},
		{
			"from": [10.04142, 12.40046, 11.50846],
			"to": [10.44142, 13.20046, 12.20846],
			"rotation": {"angle": 0, "axis": "y", "origin": [8.49142, 12.74299, 11.85845]},
			"faces": {
				"north": {"uv": [9.33333, 0.66667, 9.66667, 2.33333], "rotation": 180, "texture": "#0"},
				"east": {"uv": [9.33333, 0.66667, 9.66667, 2.33333], "rotation": 180, "texture": "#0"},
				"south": {"uv": [9.33333, 0.66667, 9.66667, 2.33333], "rotation": 180, "texture": "#0"},
				"west": {"uv": [9.33333, 0.66667, 9.66667, 2.33333], "rotation": 180, "texture": "#0"},
				"up": {"uv": [9.33333, 0.66667, 9.66667, 2.33333], "texture": "#0"},
				"down": {"uv": [9.33333, 0.66667, 9.66667, 2.33333], "texture": "#0"}
			}
		},
		{
			"from": [5.94142, 8.50046, 11.50846],
			"to": [10.44142, 8.90046, 12.20846],
			"rotation": {"angle": 0, "axis": "y", "origin": [8.19142, 12.74299, 11.85845]},
			"faces": {
				"north": {"uv": [9.33333, 0.66667, 9.66667, 2.33333], "rotation": 90, "texture": "#0"},
				"east": {"uv": [9.33333, 0.66667, 9.66667, 2.33333], "rotation": 90, "texture": "#0"},
				"south": {"uv": [9.33333, 0.66667, 9.66667, 2.33333], "rotation": 90, "texture": "#0"},
				"west": {"uv": [9.33333, 0.66667, 9.66667, 2.33333], "rotation": 90, "texture": "#0"},
				"up": {"uv": [9.33333, 0.66667, 9.66667, 2.33333], "rotation": 270, "texture": "#0"},
				"down": {"uv": [9.33333, 0.66667, 9.66667, 2.33333], "rotation": 270, "texture": "#0"}
			}
		},
		{
			"from": [8.03742, 6.64298, 11.66192],
			"to": [8.24542, 12.14298, 12.16192],
			"rotation": {"angle": 0, "axis": "y", "origin": [8.14142, 12.94298, 11.91192]},
			"faces": {
				"north": {"uv": [9.33333, 0.66667, 9.66667, 2.33333], "rotation": 180, "texture": "#0"},
				"east": {"uv": [9.33333, 0.66667, 9.66667, 2.33333], "rotation": 180, "texture": "#0"},
				"south": {"uv": [9.33333, 0.66667, 9.66667, 2.33333], "rotation": 180, "texture": "#0"},
				"west": {"uv": [9.33333, 0.66667, 9.66667, 2.33333], "rotation": 180, "texture": "#0"},
				"up": {"uv": [9.33333, 0.66667, 9.66667, 2.33333], "texture": "#0"},
				"down": {"uv": [9.33333, 0.66667, 9.66667, 2.33333], "texture": "#0"}
			}
		},
		{
			"from": [7.89142, 6.64298, 11.80792],
			"to": [8.39142, 12.14298, 12.01592],
			"rotation": {"angle": 0, "axis": "y", "origin": [8.14142, 12.94298, 11.91192]},
			"faces": {
				"north": {"uv": [9.33333, 0.66667, 9.66667, 2.33333], "rotation": 180, "texture": "#0"},
				"east": {"uv": [9.33333, 0.66667, 9.66667, 2.33333], "rotation": 180, "texture": "#0"},
				"south": {"uv": [9.33333, 0.66667, 9.66667, 2.33333], "rotation": 180, "texture": "#0"},
				"west": {"uv": [9.33333, 0.66667, 9.66667, 2.33333], "rotation": 180, "texture": "#0"},
				"up": {"uv": [9.33333, 0.66667, 9.66667, 2.33333], "texture": "#0"},
				"down": {"uv": [9.33333, 0.66667, 9.66667, 2.33333], "texture": "#0"}
			}
		},
		{
			"from": [5.06516, -0.20481, 11.50846],
			"to": [5.46516, 8.79519, 12.20846],
			"rotation": {"angle": -22.5, "axis": "z", "origin": [5.26516, 6.34519, 11.85846]},
			"faces": {
				"north": {"uv": [9.33333, 0.66667, 9.66667, 2.33333], "rotation": 180, "texture": "#0"},
				"east": {"uv": [9.33333, 0.66667, 9.66667, 2.33333], "rotation": 180, "texture": "#0"},
				"south": {"uv": [9.33333, 0.66667, 9.66667, 2.33333], "rotation": 180, "texture": "#0"},
				"west": {"uv": [9.33333, 0.66667, 9.66667, 2.33333], "rotation": 180, "texture": "#0"},
				"up": {"uv": [9.33333, 0.66667, 9.66667, 2.33333], "texture": "#0"},
				"down": {"uv": [9.33333, 0.66667, 9.66667, 2.33333], "texture": "#0"}
			}
		},
		{
			"from": [10.87941, -0.11242, 11.50846],
			"to": [11.27941, 8.88758, 12.20846],
			"rotation": {"angle": 22.5, "axis": "z", "origin": [11.07941, 6.43758, 11.85846]},
			"faces": {
				"north": {"uv": [9.33333, 0.66667, 9.66667, 2.33333], "rotation": 180, "texture": "#0"},
				"east": {"uv": [9.33333, 0.66667, 9.66667, 2.33333], "rotation": 180, "texture": "#0"},
				"south": {"uv": [9.33333, 0.66667, 9.66667, 2.33333], "rotation": 180, "texture": "#0"},
				"west": {"uv": [9.33333, 0.66667, 9.66667, 2.33333], "rotation": 180, "texture": "#0"},
				"up": {"uv": [9.33333, 0.66667, 9.66667, 2.33333], "texture": "#0"},
				"down": {"uv": [9.33333, 0.66667, 9.66667, 2.33333], "texture": "#0"}
			}
		},
		{
			"from": [13.14142, 0, 10.65189],
			"to": [14.14142, 0.5, 13.05189],
			"rotation": {"angle": 0, "axis": "y", "origin": [8.14142, 0.25, 5.05189]},
			"faces": {
				"north": {"uv": [9.33333, 0.66667, 9.66667, 2.33333], "rotation": 90, "texture": "#0"},
				"east": {"uv": [9.33333, 0.66667, 9.66667, 2.33333], "rotation": 90, "texture": "#0"},
				"south": {"uv": [9.33333, 0.66667, 9.66667, 2.33333], "rotation": 90, "texture": "#0"},
				"west": {"uv": [9.33333, 0.66667, 9.66667, 2.33333], "rotation": 90, "texture": "#0"},
				"up": {"uv": [9.33333, 0.66667, 9.66667, 2.33333], "rotation": 270, "texture": "#0"},
				"down": {"uv": [9.33333, 0.66667, 9.66667, 2.33333], "rotation": 270, "texture": "#0"}
			}
		},
		{
			"from": [2.24142, 0, 10.65189],
			"to": [3.24142, 0.5, 13.05189],
			"rotation": {"angle": 0, "axis": "y", "origin": [8.14142, 0.25, 5.05189]},
			"faces": {
				"north": {"uv": [9.33333, 0.66667, 9.66667, 2.33333], "rotation": 90, "texture": "#0"},
				"east": {"uv": [9.33333, 0.66667, 9.66667, 2.33333], "rotation": 90, "texture": "#0"},
				"south": {"uv": [9.33333, 0.66667, 9.66667, 2.33333], "rotation": 90, "texture": "#0"},
				"west": {"uv": [9.33333, 0.66667, 9.66667, 2.33333], "rotation": 90, "texture": "#0"},
				"up": {"uv": [9.33333, 0.66667, 9.66667, 2.33333], "rotation": 270, "texture": "#0"},
				"down": {"uv": [9.33333, 0.66667, 9.66667, 2.33333], "rotation": 270, "texture": "#0"}
			}
		},
		{
			"from": [7.33742, 6.34298, 11.66192],
			"to": [9.04542, 6.64298, 12.16192],
			"rotation": {"angle": 0, "axis": "y", "origin": [8.14142, 12.94298, 11.91192]},
			"faces": {
				"north": {"uv": [9.33333, 0.66667, 9.66667, 2.33333], "rotation": 180, "texture": "#0"},
				"east": {"uv": [9.33333, 0.66667, 9.66667, 2.33333], "rotation": 180, "texture": "#0"},
				"south": {"uv": [9.33333, 0.66667, 9.66667, 2.33333], "rotation": 180, "texture": "#0"},
				"west": {"uv": [9.33333, 0.66667, 9.66667, 2.33333], "rotation": 180, "texture": "#0"},
				"up": {"uv": [9.33333, 0.66667, 9.66667, 2.33333], "texture": "#0"},
				"down": {"uv": [9.33333, 0.66667, 9.66667, 2.33333], "texture": "#0"}
			}
		},
		{
			"from": [5.34142, 12.69246, 11.60846],
			"to": [5.74142, 12.90046, 12.10846],
			"rotation": {"angle": -45, "axis": "x", "origin": [6.14142, 12.79646, 11.85846]},
			"faces": {
				"north": {"uv": [9.33333, 0.66667, 9.66667, 2.33333], "rotation": 90, "texture": "#0"},
				"east": {"uv": [9.33333, 0.66667, 9.66667, 2.33333], "rotation": 90, "texture": "#0"},
				"south": {"uv": [9.33333, 0.66667, 9.66667, 2.33333], "rotation": 90, "texture": "#0"},
				"west": {"uv": [9.33333, 0.66667, 9.66667, 2.33333], "rotation": 90, "texture": "#0"},
				"up": {"uv": [9.33333, 0.66667, 9.66667, 2.33333], "rotation": 270, "texture": "#0"},
				"down": {"uv": [9.33333, 0.66667, 9.66667, 2.33333], "rotation": 270, "texture": "#0"}
			}
		},
		{
			"from": [5.34142, 12.69246, 11.10846],
			"to": [5.74142, 12.90046, 12.60846],
			"rotation": {"angle": 0, "axis": "y", "origin": [6.14142, 12.79646, 11.85846]},
			"faces": {
				"north": {"uv": [9.33333, 0.66667, 9.66667, 2.33333], "rotation": 90, "texture": "#0"},
				"east": {"uv": [9.33333, 0.66667, 9.66667, 2.33333], "rotation": 90, "texture": "#0"},
				"south": {"uv": [9.33333, 0.66667, 9.66667, 2.33333], "rotation": 90, "texture": "#0"},
				"west": {"uv": [9.33333, 0.66667, 9.66667, 2.33333], "rotation": 90, "texture": "#0"},
				"up": {"uv": [9.33333, 0.66667, 9.66667, 2.33333], "rotation": 270, "texture": "#0"},
				"down": {"uv": [9.33333, 0.66667, 9.66667, 2.33333], "rotation": 270, "texture": "#0"}
			}
		},
		{
			"from": [5.34142, 12.54646, 11.75446],
			"to": [5.74142, 13.04646, 11.96246],
			"rotation": {"angle": -45, "axis": "x", "origin": [6.14142, 12.79646, 11.85846]},
			"faces": {
				"north": {"uv": [9.33333, 0.66667, 9.66667, 2.33333], "rotation": 90, "texture": "#0"},
				"east": {"uv": [9.33333, 0.66667, 9.66667, 2.33333], "rotation": 90, "texture": "#0"},
				"south": {"uv": [9.33333, 0.66667, 9.66667, 2.33333], "rotation": 90, "texture": "#0"},
				"west": {"uv": [9.33333, 0.66667, 9.66667, 2.33333], "rotation": 90, "texture": "#0"},
				"up": {"uv": [9.33333, 0.66667, 9.66667, 2.33333], "rotation": 270, "texture": "#0"},
				"down": {"uv": [9.33333, 0.66667, 9.66667, 2.33333], "rotation": 270, "texture": "#0"}
			}
		},
		{
			"from": [5.34142, 12.04646, 11.75446],
			"to": [5.74142, 13.54646, 11.96246],
			"rotation": {"angle": 0, "axis": "y", "origin": [6.14142, 12.79646, 11.85846]},
			"faces": {
				"north": {"uv": [9.33333, 0.66667, 9.66667, 2.33333], "rotation": 90, "texture": "#0"},
				"east": {"uv": [9.33333, 0.66667, 9.66667, 2.33333], "rotation": 90, "texture": "#0"},
				"south": {"uv": [9.33333, 0.66667, 9.66667, 2.33333], "rotation": 90, "texture": "#0"},
				"west": {"uv": [9.33333, 0.66667, 9.66667, 2.33333], "rotation": 90, "texture": "#0"},
				"up": {"uv": [9.33333, 0.66667, 9.66667, 2.33333], "rotation": 270, "texture": "#0"},
				"down": {"uv": [9.33333, 0.66667, 9.66667, 2.33333], "rotation": 270, "texture": "#0"}
			}
		}
	],
	"display": {
		"thirdperson_righthand": {
			"rotation": [22.5, 0, 0],
			"translation": [0, -0.9, -2]
		},
		"thirdperson_lefthand": {
			"rotation": [22.5, 0, 0],
			"translation": [0, -0.9, -2]
		},
		"firstperson_righthand": {
			"rotation": [-66, 0, 0],
			"translation": [0, -0.5, 4]
		},
		"firstperson_lefthand": {
			"rotation": [-66, 0, 0],
			"translation": [-2.25, 0, 4.75]
		},
		"ground": {
			"translation": [0, 6.25, 0]
		},
		"gui": {
			"rotation": [0, 62, 0],
			"scale": [0.85, 0.85, 0.85]
		},
		"head": {
			"translation": [0, 14.5, -1.25]
		},
		"fixed": {
			"rotation": [90, 45, -90]
		}
	},
	"groups": [
		{
			"name": "base",
			"origin": [8.87132, 7.35, 6.99858],
			"children": [
				{
					"name": "grip",
					"origin": [8.37782, 13.19298, 6.55815],
					"children": [0, 1, 2, 3, 4]
				},
				{
					"name": "paw",
					"origin": [8.01477, 0.25, 11.98523],
					"children": [5, 6, 7, 8, 9, 10, 11, 12, 13, 14]
				},
				{
					"name": "barrel",
					"origin": [8, 8, 8],
					"children": [15, 16, 17, 18, 19, 20, 21, 22, 23, 24, 25, 26, 27, 28, 29, 30, 31, 32, 33, 34, 35, 36, 37, 38, 39, 40, 41, 42]
				},
				{
					"name": "holder",
					"origin": [9.25061, 13.19298, 6.20815],
					"children": [43, 44, 45, 46, 47]
				},
				{
					"name": "mortar_stand_on",
					"origin": [8, 8, 8],
					"children": [48, 49, 50, 51, 52, 53, 54, 55, 56, 57, 58, 59, 60, 61, 62, 63, 64, 65, 66,
						{
							"name": "regulator",
							"origin": [8, 8, 8],
							"children": [67, 68, 69, 70]
						}
					]
				}
			]
		}
	]
}