{
	"credit": "Made with Blockbench",
	"textures": {
		"0": "Titus_hat/MPZ",
		"1": "Titus_hat/MIGHTY_ALL_IN_ONE",
		"2": "Titus_hat/ржавчина-и-текстура-поверхности-ме-ного-штейна-aqua-grunge-53263379",
		"particle": "Titus_hat/MPZ"
	},
	"elements": [
		{
			"from": [3.49992, 10.9, 3.90282],
			"to": [3.99992, 12.4, 6.30282],
			"rotation": {"angle": 22.5, "axis": "y", "origin": [3.23492, 11, 4.40282]},
			"faces": {
				"north": {"uv": [4, 3.333, 4.925, 4.833], "texture": "#0"},
				"east": {"uv": [0, 0, 2.4, 1.5], "texture": "#0"},
				"south": {"uv": [0, 0, 0.5, 1.5], "texture": "#missing"},
				"west": {"uv": [0, 0, 2.4, 1.5], "texture": "#0"},
				"up": {"uv": [0, 0, 0.5, 2.4], "texture": "#0"},
				"down": {"uv": [0, 0, 0.5, 2.4], "texture": "#0"}
			}
		},
		{
			"from": [3.49992, 9.9, 3.90282],
			"to": [3.99992, 10.4, 6.30282],
			"rotation": {"angle": 22.5, "axis": "y", "origin": [3.23492, 11, 4.40282]},
			"faces": {
				"north": {"uv": [6.666, 9, 7.166, 9.5], "texture": "#0"},
				"east": {"uv": [0, 0, 2.4, 0.5], "texture": "#missing"},
				"south": {"uv": [0, 0, 0.5, 0.5], "texture": "#missing"},
				"west": {"uv": [0, 0, 2.4, 0.5], "texture": "#missing"},
				"up": {"uv": [6.666, 8.666, 7.166, 10.065], "texture": "#0"},
				"down": {"uv": [6.666, 8.666, 7.166, 10.065], "texture": "#0"}
			}
		},
		{
			"from": [2.99992, 9.9, 3.90282],
			"to": [3.49992, 11.4, 6.30282],
			"rotation": {"angle": 22.5, "axis": "y", "origin": [3.23492, 11, 4.40282]},
			"faces": {
				"north": {"uv": [6.333, 8.666, 6.833, 9.166], "texture": "#0"},
				"east": {"uv": [0, 0, 2.4, 1.5], "texture": "#0"},
				"south": {"uv": [0, 0, 0.5, 1.5], "texture": "#missing"},
				"west": {"uv": [14.333, 0.666, 15.732, 1.332], "texture": "#0"},
				"up": {"uv": [0, 0, 0.5, 2.4], "texture": "#0"},
				"down": {"uv": [6.666, 8.666, 7.166, 10.065], "texture": "#0"}
			}
		},
		{
			"from": [2.49992, 9.9, 3.90282],
			"to": [2.99992, 10.4, 6.30282],
			"rotation": {"angle": 22.5, "axis": "y", "origin": [3.23492, 11, 4.40282]},
			"faces": {
				"north": {"uv": [6.666, 9, 7.166, 9.5], "texture": "#0"},
				"east": {"uv": [0, 0, 2.4, 0.5], "texture": "#missing"},
				"south": {"uv": [0, 0, 0.5, 0.5], "texture": "#missing"},
				"west": {"uv": [14.333, 0.666, 15.732, 1.332], "texture": "#missing"},
				"up": {"uv": [6.666, 8.666, 7.166, 10.065], "texture": "#0"},
				"down": {"uv": [6.666, 8.666, 7.166, 10.065], "texture": "#0"}
			}
		},
		{
			"from": [2.03372, 9.9, 4.85526],
			"to": [3.43372, 10.4, 5.85526],
			"rotation": {"angle": -22.5, "axis": "y", "origin": [2.53372, 11, 5.12026]},
			"faces": {
				"north": {"uv": [0, 0, 1.4, 0.5], "texture": "#missing"},
				"east": {"uv": [0, 0, 1, 0.5], "texture": "#missing"},
				"south": {"uv": [6, 9.333, 7.399, 9.833], "texture": "#0"},
				"west": {"uv": [14.333, 0.666, 15.732, 1.332], "texture": "#0"},
				"up": {"uv": [6.333, 8, 7.333, 9.399], "rotation": 270, "texture": "#0"},
				"down": {"uv": [6.666, 8.666, 7.166, 10.065], "rotation": 90, "texture": "#0"}
			}
		},
		{
			"from": [2.03372, 10.9, 4.85526],
			"to": [3.43372, 12.4, 5.85526],
			"rotation": {"angle": -22.5, "axis": "y", "origin": [2.53372, 11, 5.12026]},
			"faces": {
				"north": {"uv": [0, 0, 1.4, 1.5], "texture": "#0"},
				"east": {"uv": [0, 0, 1, 1.5], "texture": "#missing"},
				"south": {"uv": [0, 0, 1.4, 1.5], "texture": "#missing"},
				"west": {"uv": [14.333, 0.666, 15.732, 1.332], "texture": "#0"},
				"up": {"uv": [1, 1, 2, 2.398], "rotation": 270, "texture": "#0"},
				"down": {"uv": [0, 0, 1, 1.4], "rotation": 90, "texture": "#0"}
			}
		},
		{
			"from": [2.03372, 9.9, 4.35526],
			"to": [3.43372, 11.4, 4.85526],
			"rotation": {"angle": -22.5, "axis": "y", "origin": [2.53372, 11, 5.12026]},
			"faces": {
				"north": {"uv": [5.666, 8.333, 7.065, 9.833], "texture": "#0"},
				"east": {"uv": [0, 0, 0.5, 1.5], "texture": "#missing"},
				"south": {"uv": [0, 0, 1.4, 1.5], "texture": "#0"},
				"west": {"uv": [14.333, 0.666, 15.732, 1.332], "texture": "#0"},
				"up": {"uv": [0, 0, 0.5, 1.4], "rotation": 270, "texture": "#0"},
				"down": {"uv": [6.666, 8.666, 7.166, 10.065], "rotation": 90, "texture": "#0"}
			}
		},
		{
			"from": [2.49992, 10.9, 3.90282],
			"to": [2.99992, 12.4, 6.30282],
			"rotation": {"angle": 22.5, "axis": "y", "origin": [3.23492, 11, 4.40282]},
			"faces": {
				"north": {"uv": [9, 4, 9.5, 4.5], "texture": "#0"},
				"east": {"uv": [0, 0, 2.4, 1.5], "texture": "#0"},
				"south": {"uv": [0, 0, 0.5, 1.5], "texture": "#missing"},
				"west": {"uv": [14.333, 0.666, 15.732, 1.332], "texture": "#0"},
				"up": {"uv": [1, 1, 2, 2.398], "texture": "#0"},
				"down": {"uv": [0, 0, 0.5, 2.4], "texture": "#0"}
			}
		},
		{
			"from": [2.99992, 11.9, 3.90282],
			"to": [3.49992, 12.9, 6.30282],
			"rotation": {"angle": 22.5, "axis": "y", "origin": [3.23492, 11, 4.40282]},
			"faces": {
				"north": {"uv": [9, 4, 9.5, 4.5], "texture": "#0"},
				"east": {"uv": [0, 0, 2.4, 1], "texture": "#0"},
				"south": {"uv": [0, 0, 0.5, 1], "texture": "#missing"},
				"west": {"uv": [14.333, 0.666, 15.732, 1.332], "texture": "#0"},
				"up": {"uv": [0, 0, 0.5, 2.4], "texture": "#missing"},
				"down": {"uv": [0, 0, 0.5, 2.4], "texture": "#0"}
			}
		},
		{
			"from": [5.465, 10.9, 3.7],
			"to": [5.965, 12.4, 6.2],
			"rotation": {"angle": -22.5, "axis": "y", "origin": [4.7, 11, 4.2]},
			"faces": {
				"north": {"uv": [7.333, 9.333, 7.833, 9.833], "texture": "#0"},
				"east": {"uv": [0, 0, 2.5, 1.5], "texture": "#0"},
				"south": {"uv": [0, 0, 0.5, 1.5], "texture": "#missing"},
				"west": {"uv": [0, 0, 2.5, 1.5], "texture": "#0"},
				"up": {"uv": [0, 0, 0.5, 2.5], "texture": "#0"},
				"down": {"uv": [0, 0, 0.5, 2.5], "texture": "#0"}
			}
		},
		{
			"from": [4.965, 11.9, 3.7],
			"to": [5.465, 12.9, 6.2],
			"rotation": {"angle": -22.5, "axis": "y", "origin": [4.7, 11, 4.2]},
			"faces": {
				"north": {"uv": [7.333, 9.333, 7.833, 9.833], "texture": "#0"},
				"east": {"uv": [0, 0, 2.5, 1], "texture": "#0"},
				"south": {"uv": [0, 0, 0.5, 1], "texture": "#missing"},
				"west": {"uv": [0, 0, 2.5, 1], "texture": "#0"},
				"up": {"uv": [0, 0, 0.5, 2.5], "texture": "#missing"},
				"down": {"uv": [0, 0, 0.5, 2.5], "texture": "#0"}
			}
		},
		{
			"from": [4.465, 10.9, 3.7],
			"to": [4.965, 12.4, 6.2],
			"rotation": {"angle": -22.5, "axis": "y", "origin": [4.7, 11, 4.2]},
			"faces": {
				"north": {"uv": [4, 3.333, 4.925, 4.833], "texture": "#0"},
				"east": {"uv": [0, 0, 2.5, 1.5], "texture": "#0"},
				"south": {"uv": [0, 0, 0.5, 1.5], "texture": "#missing"},
				"west": {"uv": [0, 0, 2.5, 1.5], "texture": "#0"},
				"up": {"uv": [0, 0, 0.5, 2.5], "texture": "#0"},
				"down": {"uv": [0, 0, 0.5, 2.5], "texture": "#0"}
			}
		},
		{
			"from": [3.75035, 9.9, 3.64813],
			"to": [4.67535, 11.4, 5.84813],
			"rotation": {"angle": 0, "axis": "y", "origin": [3.98535, 11, 4.14813]},
			"faces": {
				"north": {"uv": [4, 3.333, 4.925, 4.833], "texture": "#0"},
				"east": {"uv": [0, 0, 2.2, 1.5], "texture": "#0"},
				"south": {"uv": [0, 0, 0.925, 1.5], "texture": "#missing"},
				"west": {"uv": [0, 0, 2.2, 1.5], "texture": "#0"},
				"up": {"uv": [0, 0, 0.925, 2.2], "texture": "#0"},
				"down": {"uv": [6.666, 8.666, 7.166, 10.065], "texture": "#0"}
			}
		},
		{
			"from": [4.465, 9.9, 3.7],
			"to": [4.965, 10.4, 6.2],
			"rotation": {"angle": -22.5, "axis": "y", "origin": [4.7, 11, 4.2]},
			"faces": {
				"north": {"uv": [7.333, 9.333, 7.833, 9.833], "texture": "#0"},
				"east": {"uv": [0, 0, 2.5, 0.5], "texture": "#missing"},
				"south": {"uv": [0, 0, 0.5, 0.5], "texture": "#missing"},
				"west": {"uv": [0, 0, 2.5, 0.5], "texture": "#missing"},
				"up": {"uv": [6, 8.333, 7, 9.732], "texture": "#0"},
				"down": {"uv": [6.666, 8.666, 7.166, 10.065], "texture": "#0"}
			}
		},
		{
			"from": [4.965, 9.9, 3.7],
			"to": [5.465, 11.4, 6.2],
			"rotation": {"angle": -22.5, "axis": "y", "origin": [4.7, 11, 4.2]},
			"faces": {
				"north": {"uv": [4, 3.333, 4.925, 4.833], "texture": "#0"},
				"east": {"uv": [0, 0, 2.5, 1.5], "texture": "#0"},
				"south": {"uv": [0, 0, 0.5, 1.5], "texture": "#missing"},
				"west": {"uv": [0, 0, 2.5, 1.5], "texture": "#0"},
				"up": {"uv": [0, 0, 0.5, 2.5], "texture": "#0"},
				"down": {"uv": [6.666, 8.666, 7.166, 10.065], "texture": "#0"}
			}
		},
		{
			"from": [5.465, 9.9, 3.7],
			"to": [5.965, 10.4, 6.2],
			"rotation": {"angle": -22.5, "axis": "y", "origin": [4.7, 11, 4.2]},
			"faces": {
				"north": {"uv": [7.333, 9.333, 7.833, 9.833], "texture": "#0"},
				"east": {"uv": [0, 0, 2.5, 0.5], "texture": "#missing"},
				"south": {"uv": [0, 0, 0.5, 0.5], "texture": "#missing"},
				"west": {"uv": [0, 0, 2.5, 0.5], "texture": "#missing"},
				"up": {"uv": [6, 8.333, 7, 9.732], "texture": "#0"},
				"down": {"uv": [6.666, 8.666, 7.166, 10.065], "texture": "#0"}
			}
		},
		{
			"from": [4.78804, 9.9, 4.39561],
			"to": [6.18804, 11.4, 4.89561],
			"rotation": {"angle": 22.5, "axis": "y", "origin": [5.68804, 11, 4.63061]},
			"faces": {
				"north": {"uv": [6, 8.333, 7.399, 9.833], "texture": "#0"},
				"east": {"uv": [6.333, 8.666, 6.833, 10.166], "texture": "#0"},
				"south": {"uv": [0, 0, 1.4, 1.5], "texture": "#0"},
				"west": {"uv": [0, 0, 0.5, 1.5], "texture": "#missing"},
				"up": {"uv": [0, 0, 0.5, 1.4], "rotation": 90, "texture": "#0"},
				"down": {"uv": [6.666, 8.666, 7.166, 10.065], "rotation": 270, "texture": "#0"}
			}
		},
		{
			"from": [4.78804, 9.9, 4.89561],
			"to": [6.18804, 10.4, 5.89561],
			"rotation": {"angle": 22.5, "axis": "y", "origin": [5.68804, 11, 4.63061]},
			"faces": {
				"north": {"uv": [0, 0, 1.4, 0.5], "texture": "#missing"},
				"east": {"uv": [6.333, 8.666, 6.833, 10.166], "texture": "#0"},
				"south": {"uv": [0, 0, 1.4, 0.5], "texture": "#missing"},
				"west": {"uv": [0, 0, 1, 0.5], "texture": "#missing"},
				"up": {"uv": [6, 8.333, 7, 9.732], "rotation": 90, "texture": "#0"},
				"down": {"uv": [6.333, 8.333, 7.333, 9.732], "rotation": 270, "texture": "#0"}
			}
		},
		{
			"from": [4.78804, 10.9, 4.89561],
			"to": [6.18804, 12.4, 5.89561],
			"rotation": {"angle": 22.5, "axis": "y", "origin": [5.68804, 10.5, 4.63061]},
			"faces": {
				"north": {"uv": [0, 0, 1.4, 1.5], "texture": "#0"},
				"east": {"uv": [6.333, 8.666, 6.833, 10.166], "texture": "#0"},
				"south": {"uv": [0, 0, 1.4, 1.5], "texture": "#missing"},
				"west": {"uv": [0, 0, 1, 1.5], "texture": "#missing"},
				"up": {"uv": [0, 0, 1, 1.4], "rotation": 90, "texture": "#0"},
				"down": {"uv": [0, 0, 1, 1.4], "rotation": 270, "texture": "#0"}
			}
		},
		{
			"from": [5.465, 12.9, 3.7],
			"to": [5.965, 13.4, 6.2],
			"rotation": {"angle": -22.5, "axis": "y", "origin": [4.7, 11, 4.2]},
			"faces": {
				"north": {"uv": [7.333, 9.333, 7.833, 9.833], "texture": "#0"},
				"east": {"uv": [0, 0, 2.5, 0.5], "texture": "#0"},
				"south": {"uv": [0, 0, 0.5, 0.5], "texture": "#0"},
				"west": {"uv": [0, 0, 2.5, 0.5], "texture": "#0"},
				"up": {"uv": [6, 8.333, 7, 9.732], "texture": "#0"},
				"down": {"uv": [6.333, 8.666, 7.166, 10.166], "texture": "#0"}
			}
		},
		{
			"from": [4.78804, 12.9, 4.89561],
			"to": [6.18804, 13.4, 5.89561],
			"rotation": {"angle": 22.5, "axis": "y", "origin": [5.68804, 11, 4.63061]},
			"faces": {
				"north": {"uv": [0, 0, 1.4, 0.5], "texture": "#0"},
				"east": {"uv": [3.666, 3.333, 4.166, 4.833], "texture": "#0"},
				"south": {"uv": [0, 0, 1.4, 0.5], "texture": "#0"},
				"west": {"uv": [0, 0, 1, 0.5], "texture": "#0"},
				"up": {"uv": [6, 8.333, 7, 9.732], "rotation": 90, "texture": "#0"},
				"down": {"uv": [6.333, 8.666, 7.166, 10.166], "rotation": 270, "texture": "#0"}
			}
		},
		{
			"from": [4.78804, 11.9, 4.39561],
			"to": [6.18804, 13.4, 4.89561],
			"rotation": {"angle": 22.5, "axis": "y", "origin": [5.68804, 11, 4.63061]},
			"faces": {
				"north": {"uv": [3.333, 3, 4.732, 4.5], "texture": "#0"},
				"east": {"uv": [3.666, 3.333, 4.166, 4.833], "texture": "#0"},
				"south": {"uv": [0, 0, 1.4, 1.5], "texture": "#0"},
				"west": {"uv": [0, 0, 0.5, 1.5], "texture": "#0"},
				"up": {"uv": [6, 9, 7, 10.398], "rotation": 90, "texture": "#0"},
				"down": {"uv": [0, 0, 0.5, 1.4], "rotation": 270, "texture": "#0"}
			}
		},
		{
			"from": [4.965, 12.9, 3.7],
			"to": [5.465, 13.4, 6.2],
			"rotation": {"angle": -22.5, "axis": "y", "origin": [4.7, 11, 4.2]},
			"faces": {
				"north": {"uv": [4, 3.333, 4.925, 4.833], "texture": "#0"},
				"east": {"uv": [0, 0, 2.5, 0.5], "texture": "#0"},
				"south": {"uv": [0, 0, 0.5, 0.5], "texture": "#0"},
				"west": {"uv": [0, 0, 2.5, 0.5], "texture": "#0"},
				"up": {"uv": [6.333, 8.666, 7.333, 10.064], "texture": "#0"},
				"down": {"uv": [0, 0, 0.5, 2.5], "texture": "#0"}
			}
		},
		{
			"from": [4.465, 12.9, 3.7],
			"to": [4.965, 13.4, 6.2],
			"rotation": {"angle": -22.5, "axis": "y", "origin": [4.7, 11, 4.2]},
			"faces": {
				"north": {"uv": [4, 3.333, 4.925, 4.833], "texture": "#0"},
				"east": {"uv": [0, 0, 2.5, 0.5], "texture": "#0"},
				"south": {"uv": [0, 0, 0.5, 0.5], "texture": "#0"},
				"west": {"uv": [0, 0, 2.5, 0.5], "texture": "#0"},
				"up": {"uv": [3.333, 3, 4.333, 4.398], "texture": "#0"},
				"down": {"uv": [6.333, 8.666, 7.166, 10.166], "texture": "#0"}
			}
		},
		{
			"from": [3.75035, 11.9, 3.64813],
			"to": [4.67535, 13.4, 5.84813],
			"rotation": {"angle": 0, "axis": "y", "origin": [3.98535, 11, 4.14813]},
			"faces": {
				"north": {"uv": [4, 3.333, 4.925, 4.833], "texture": "#0"},
				"east": {"uv": [0, 0, 2.2, 1.5], "texture": "#0"},
				"south": {"uv": [0, 0, 0.925, 1.5], "texture": "#0"},
				"west": {"uv": [0, 0, 2.2, 1.5], "texture": "#0"},
				"up": {"uv": [3.333, 3, 4.333, 4.398], "texture": "#0"},
				"down": {"uv": [0, 0, 0.925, 2.2], "texture": "#0"}
			}
		},
		{
			"from": [3.49992, 12.9, 3.90282],
			"to": [3.99992, 13.4, 6.30282],
			"rotation": {"angle": 22.5, "axis": "y", "origin": [3.23492, 11, 4.40282]},
			"faces": {
				"north": {"uv": [6, 9, 6.5, 9.5], "texture": "#0"},
				"east": {"uv": [0, 0, 2.4, 0.5], "texture": "#0"},
				"south": {"uv": [0, 0, 0.5, 0.5], "texture": "#0"},
				"west": {"uv": [0, 0, 2.4, 0.5], "texture": "#0"},
				"up": {"uv": [3.666, 3.333, 4.666, 4.731], "texture": "#0"},
				"down": {"uv": [6.333, 9.333, 6.833, 10.065], "texture": "#0"}
			}
		},
		{
			"from": [2.99992, 12.9, 3.90282],
			"to": [3.49992, 13.4, 6.30282],
			"rotation": {"angle": 22.5, "axis": "y", "origin": [3.23492, 11, 4.40282]},
			"faces": {
				"north": {"uv": [6.333, 8.666, 6.833, 9.166], "texture": "#0"},
				"east": {"uv": [0, 0, 2.4, 0.5], "texture": "#0"},
				"south": {"uv": [0, 0, 0.5, 0.5], "texture": "#0"},
				"west": {"uv": [0, 0, 2.4, 0.5], "texture": "#0"},
				"up": {"uv": [9, 3.333, 10, 4.731], "texture": "#0"},
				"down": {"uv": [0, 0, 0.5, 2.4], "texture": "#0"}
			}
		},
		{
			"from": [2.49992, 12.9, 3.90282],
			"to": [2.99992, 13.4, 6.30282],
			"rotation": {"angle": 22.5, "axis": "y", "origin": [3.23492, 11, 4.40282]},
			"faces": {
				"north": {"uv": [9, 4, 9.5, 4.5], "texture": "#0"},
				"east": {"uv": [0, 0, 2.4, 0.5], "texture": "#0"},
				"south": {"uv": [0, 0, 0.5, 0.5], "texture": "#0"},
				"west": {"uv": [14.333, 0.666, 15.732, 1.332], "texture": "#0"},
				"up": {"uv": [9, 3.333, 10, 4.731], "texture": "#0"},
				"down": {"uv": [6.333, 8.666, 7.166, 10.065], "texture": "#0"}
			}
		},
		{
			"from": [2.03372, 12.9, 4.85526],
			"to": [3.43372, 13.4, 5.85526],
			"rotation": {"angle": -22.5, "axis": "y", "origin": [2.53372, 11, 5.12026]},
			"faces": {
				"north": {"uv": [0, 0, 1.4, 0.5], "texture": "#0"},
				"east": {"uv": [0, 0, 1, 0.5], "texture": "#0"},
				"south": {"uv": [0, 0, 1.4, 0.5], "texture": "#0"},
				"west": {"uv": [6.333, 8.666, 6.833, 10.166], "texture": "#0"},
				"up": {"uv": [8.666, 3.333, 9.666, 4.731], "rotation": 270, "texture": "#0"},
				"down": {"uv": [6.333, 8.333, 7.333, 9.732], "rotation": 90, "texture": "#0"}
			}
		},
		{
			"from": [2.03372, 11.9, 4.35526],
			"to": [3.43372, 13.4, 4.85526],
			"rotation": {"angle": -22.5, "axis": "y", "origin": [2.53372, 11, 5.12026]},
			"faces": {
				"north": {"uv": [8.666, 3, 10.065, 4.5], "texture": "#0"},
				"east": {"uv": [0, 0, 0.5, 1.5], "texture": "#0"},
				"south": {"uv": [0, 0, 1.4, 1.5], "texture": "#0"},
				"west": {"uv": [14.333, 0.666, 15.732, 1.332], "texture": "#0"},
				"up": {"uv": [9, 3.666, 10, 5.064], "rotation": 270, "texture": "#0"},
				"down": {"uv": [0, 0, 0.5, 1.4], "rotation": 90, "texture": "#0"}
			}
		},
		{
			"from": [12.565, 9.9, 3.7],
			"to": [13.065, 11.4, 6.2],
			"rotation": {"angle": -22.5, "axis": "y", "origin": [12.3, 11, 4.2]},
			"faces": {
				"north": {"uv": [9, 4, 10.399, 4.5], "texture": "#0"},
				"east": {"uv": [0, 0, 2.5, 1.5], "texture": "#0"},
				"south": {"uv": [0, 0, 0.5, 1.5], "texture": "#missing"},
				"west": {"uv": [0, 0, 2.5, 1.5], "texture": "#0"},
				"up": {"uv": [0, 0, 0.5, 2.5], "texture": "#0"},
				"down": {"uv": [6.666, 8.666, 7.166, 10.065], "texture": "#0"}
			}
		},
		{
			"from": [12.565, 11.9, 3.7],
			"to": [13.065, 12.9, 6.2],
			"rotation": {"angle": -22.5, "axis": "y", "origin": [12.3, 11, 4.2]},
			"faces": {
				"north": {"uv": [4.333, 3.333, 4.833, 3.833], "texture": "#0"},
				"east": {"uv": [0, 0, 2.5, 1], "texture": "#0"},
				"south": {"uv": [0, 0, 0.5, 1], "texture": "#missing"},
				"west": {"uv": [0, 0, 2.5, 1], "texture": "#0"},
				"up": {"uv": [0, 0, 0.5, 2.5], "texture": "#missing"},
				"down": {"uv": [0, 0, 0.5, 2.5], "texture": "#0"}
			}
		},
		{
			"from": [12.565, 12.9, 3.7],
			"to": [13.065, 13.4, 6.2],
			"rotation": {"angle": -22.5, "axis": "y", "origin": [12.3, 11, 4.2]},
			"faces": {
				"north": {"uv": [7.333, 9.333, 7.833, 9.833], "texture": "#0"},
				"east": {"uv": [0, 0, 2.5, 0.5], "texture": "#0"},
				"south": {"uv": [0, 0, 0.5, 0.5], "texture": "#0"},
				"west": {"uv": [0, 0, 2.5, 0.5], "texture": "#0"},
				"up": {"uv": [6, 8.333, 7, 9.732], "texture": "#0"},
				"down": {"uv": [0, 0, 0.5, 2.5], "texture": "#0"}
			}
		},
		{
			"from": [12.065, 9.9, 3.7],
			"to": [12.565, 10.4, 6.2],
			"rotation": {"angle": -22.5, "axis": "y", "origin": [12.3, 11, 4.2]},
			"faces": {
				"north": {"uv": [9, 4, 10.399, 4.5], "texture": "#0"},
				"east": {"uv": [0, 0, 2.5, 0.5], "texture": "#missing"},
				"south": {"uv": [0, 0, 0.5, 0.5], "texture": "#missing"},
				"west": {"uv": [0, 0, 2.5, 0.5], "texture": "#missing"},
				"up": {"uv": [6, 8.333, 7, 9.732], "texture": "#0"},
				"down": {"uv": [6.666, 8.666, 7.166, 10.065], "texture": "#0"}
			}
		},
		{
			"from": [12.065, 10.9, 3.7],
			"to": [12.565, 12.4, 6.2],
			"rotation": {"angle": -22.5, "axis": "y", "origin": [12.3, 11, 4.2]},
			"faces": {
				"north": {"uv": [4.333, 3.333, 4.833, 3.833], "texture": "#0"},
				"east": {"uv": [0, 0, 2.5, 1.5], "texture": "#0"},
				"south": {"uv": [0, 0, 0.5, 1.5], "texture": "#missing"},
				"west": {"uv": [0, 0, 2.5, 1.5], "texture": "#0"},
				"up": {"uv": [0, 0, 0.5, 2.5], "texture": "#0"},
				"down": {"uv": [0, 0, 0.5, 2.5], "texture": "#0"}
			}
		},
		{
			"from": [12.065, 12.9, 3.7],
			"to": [12.565, 13.4, 6.2],
			"rotation": {"angle": -22.5, "axis": "y", "origin": [12.3, 11, 4.2]},
			"faces": {
				"north": {"uv": [7.333, 9.333, 7.833, 9.833], "texture": "#0"},
				"east": {"uv": [0, 0, 2.5, 0.5], "texture": "#0"},
				"south": {"uv": [0, 0, 0.5, 0.5], "texture": "#0"},
				"west": {"uv": [0, 0, 2.5, 0.5], "texture": "#0"},
				"up": {"uv": [9.333, 3, 10.333, 4.398], "texture": "#0"},
				"down": {"uv": [6.333, 8.666, 7.166, 10.166], "texture": "#0"}
			}
		},
		{
			"from": [13.065, 9.9, 3.7],
			"to": [13.565, 10.4, 6.2],
			"rotation": {"angle": -22.5, "axis": "y", "origin": [12.3, 11, 4.2]},
			"faces": {
				"north": {"uv": [9, 4, 10.399, 4.5], "texture": "#0"},
				"east": {"uv": [0, 0, 2.5, 0.5], "texture": "#missing"},
				"south": {"uv": [0, 0, 0.5, 0.5], "texture": "#missing"},
				"west": {"uv": [0, 0, 2.5, 0.5], "texture": "#missing"},
				"up": {"uv": [6, 8.333, 7, 9.732], "texture": "#0"},
				"down": {"uv": [6.666, 8.666, 7.166, 10.065], "texture": "#0"}
			}
		},
		{
			"from": [13.065, 10.9, 3.7],
			"to": [13.565, 12.4, 6.2],
			"rotation": {"angle": -22.5, "axis": "y", "origin": [12.3, 11, 4.2]},
			"faces": {
				"north": {"uv": [7.333, 9.333, 7.833, 9.833], "texture": "#0"},
				"east": {"uv": [0, 0, 2.5, 1.5], "texture": "#0"},
				"south": {"uv": [0, 0, 0.5, 1.5], "texture": "#missing"},
				"west": {"uv": [0, 0, 2.5, 1.5], "texture": "#0"},
				"up": {"uv": [0, 0, 0.5, 2.5], "texture": "#0"},
				"down": {"uv": [0, 0, 0.5, 2.5], "texture": "#0"}
			}
		},
		{
			"from": [13.065, 12.9, 3.7],
			"to": [13.565, 13.4, 6.2],
			"rotation": {"angle": -22.5, "axis": "y", "origin": [12.3, 11, 4.2]},
			"faces": {
				"north": {"uv": [7.333, 9.333, 7.833, 9.833], "texture": "#0"},
				"east": {"uv": [0, 0, 2.5, 0.5], "texture": "#0"},
				"south": {"uv": [0, 0, 0.5, 0.5], "texture": "#0"},
				"west": {"uv": [0, 0, 2.5, 0.5], "texture": "#0"},
				"up": {"uv": [6, 8.333, 7, 9.732], "texture": "#0"},
				"down": {"uv": [6.333, 8.666, 7.166, 10.166], "texture": "#0"}
			}
		},
		{
			"from": [12.38804, 11.9, 4.39561],
			"to": [13.78804, 13.4, 4.89561],
			"rotation": {"angle": 22.5, "axis": "y", "origin": [13.28804, 11, 4.63061]},
			"faces": {
				"north": {"uv": [9, 4, 10.399, 4.5], "texture": "#0"},
				"east": {"uv": [6.333, 8.666, 6.833, 10.166], "texture": "#0"},
				"south": {"uv": [0, 0, 1.4, 1.5], "texture": "#0"},
				"west": {"uv": [0, 0, 0.5, 1.5], "texture": "#0"},
				"up": {"uv": [6, 8.333, 7, 9.732], "rotation": 90, "texture": "#0"},
				"down": {"uv": [0, 0, 0.5, 1.4], "rotation": 270, "texture": "#0"}
			}
		},
		{
			"from": [12.38804, 12.9, 4.89561],
			"to": [13.78804, 13.4, 5.89561],
			"rotation": {"angle": 22.5, "axis": "y", "origin": [13.28804, 11, 4.63061]},
			"faces": {
				"north": {"uv": [9, 4, 10.399, 4.5], "texture": "#0"},
				"east": {"uv": [6.333, 8.666, 6.833, 10.166], "texture": "#0"},
				"south": {"uv": [0, 0, 1.4, 0.5], "texture": "#0"},
				"west": {"uv": [0, 0, 1, 0.5], "texture": "#0"},
				"up": {"uv": [6, 8.333, 7, 9.732], "rotation": 90, "texture": "#0"},
				"down": {"uv": [6.333, 8.666, 7.166, 10.166], "rotation": 270, "texture": "#0"}
			}
		},
		{
			"from": [12.38804, 10.9, 4.89561],
			"to": [13.78804, 12.4, 5.89561],
			"rotation": {"angle": 22.5, "axis": "y", "origin": [13.28804, 10.5, 4.63061]},
			"faces": {
				"north": {"uv": [0, 0, 1.4, 1.5], "texture": "#0"},
				"east": {"uv": [6.333, 8.666, 6.833, 10.166], "texture": "#0"},
				"south": {"uv": [0, 0, 1.4, 1.5], "texture": "#missing"},
				"west": {"uv": [0, 0, 1, 1.5], "texture": "#missing"},
				"up": {"uv": [0, 0, 1, 1.4], "rotation": 90, "texture": "#0"},
				"down": {"uv": [0, 0, 1, 1.4], "rotation": 270, "texture": "#0"}
			}
		},
		{
			"from": [12.38804, 9.9, 4.39561],
			"to": [13.78804, 11.4, 4.89561],
			"rotation": {"angle": 22.5, "axis": "y", "origin": [13.28804, 11, 4.63061]},
			"faces": {
				"north": {"uv": [9, 4, 10.399, 4.5], "texture": "#0"},
				"east": {"uv": [6.333, 8.666, 6.833, 10.166], "texture": "#0"},
				"south": {"uv": [0, 0, 1.4, 1.5], "texture": "#0"},
				"west": {"uv": [0, 0, 0.5, 1.5], "texture": "#missing"},
				"up": {"uv": [0, 0, 0.5, 1.4], "rotation": 90, "texture": "#0"},
				"down": {"uv": [6.666, 8.666, 7.166, 10.065], "rotation": 270, "texture": "#0"}
			}
		},
		{
			"from": [12.38804, 9.9, 4.89561],
			"to": [13.78804, 10.4, 5.89561],
			"rotation": {"angle": 22.5, "axis": "y", "origin": [13.28804, 11, 4.63061]},
			"faces": {
				"north": {"uv": [0, 0, 1.4, 0.5], "texture": "#missing"},
				"east": {"uv": [6.333, 8.666, 6.833, 10.166], "texture": "#0"},
				"south": {"uv": [6, 8.333, 7.399, 8.833], "texture": "#0"},
				"west": {"uv": [0, 0, 1, 0.5], "texture": "#missing"},
				"up": {"uv": [6, 8.333, 7, 9.732], "rotation": 90, "texture": "#0"},
				"down": {"uv": [6.666, 8.666, 7.166, 10.065], "rotation": 270, "texture": "#0"}
			}
		},
		{
			"from": [9.63372, 12.9, 4.85526],
			"to": [11.03372, 13.4, 5.85526],
			"rotation": {"angle": -22.5, "axis": "y", "origin": [10.13372, 11, 5.12026]},
			"faces": {
				"north": {"uv": [0, 0, 1.4, 0.5], "texture": "#0"},
				"east": {"uv": [0, 0, 1, 0.5], "texture": "#0"},
				"south": {"uv": [0, 0, 1.4, 0.5], "texture": "#0"},
				"west": {"uv": [6.333, 8.666, 6.833, 10.166], "texture": "#0"},
				"up": {"uv": [4, 3.333, 5, 4.731], "rotation": 270, "texture": "#0"},
				"down": {"uv": [6.666, 9, 7.666, 10.399], "rotation": 90, "texture": "#0"}
			}
		},
		{
			"from": [9.63372, 9.9, 4.85526],
			"to": [11.03372, 12.4, 5.85526],
			"rotation": {"angle": -22.5, "axis": "y", "origin": [10.13372, 11, 5.12026]},
			"faces": {
				"north": {"uv": [0, 0, 1.4, 2.5], "texture": "#0"},
				"east": {"uv": [0, 0, 1, 2.5], "texture": "#missing"},
				"south": {"uv": [0, 0, 1.4, 2.5], "texture": "#missing"},
				"west": {"uv": [6.333, 8.666, 6.833, 10.166], "texture": "#0"},
				"up": {"uv": [0, 0, 1, 1.4], "rotation": 270, "texture": "#0"},
				"down": {"uv": [6.333, 8.333, 7.333, 9.732], "rotation": 90, "texture": "#0"}
			}
		},
		{
			"from": [9.63372, 9.9, 4.35526],
			"to": [11.03372, 11.4, 4.85526],
			"rotation": {"angle": -22.5, "axis": "y", "origin": [10.13372, 11, 5.12026]},
			"faces": {
				"north": {"uv": [9.333, 3.333, 9.833, 3.833], "texture": "#0"},
				"east": {"uv": [0, 0, 0.5, 1.5], "texture": "#missing"},
				"south": {"uv": [0, 0, 1.4, 1.5], "texture": "#missing"},
				"west": {"uv": [6.333, 8.666, 6.833, 10.166], "texture": "#0"},
				"up": {"uv": [0, 0, 0.5, 1.4], "rotation": 270, "texture": "#0"},
				"down": {"uv": [6.666, 8.666, 7.166, 10.065], "rotation": 90, "texture": "#0"}
			}
		},
		{
			"from": [10.09992, 10.9, 3.90282],
			"to": [10.59992, 12.4, 6.30282],
			"rotation": {"angle": 22.5, "axis": "y", "origin": [10.83492, 11, 4.40282]},
			"faces": {
				"north": {"uv": [9.333, 3.333, 9.833, 3.833], "texture": "#0"},
				"east": {"uv": [0, 0, 2.4, 1.5], "texture": "#0"},
				"south": {"uv": [0, 0, 0.5, 1.5], "texture": "#missing"},
				"west": {"uv": [0, 0, 2.4, 1.5], "texture": "#0"},
				"up": {"uv": [0, 0, 0.5, 2.4], "texture": "#0"},
				"down": {"uv": [0, 0, 0.5, 2.4], "texture": "#0"}
			}
		},
		{
			"from": [9.63372, 11.9, 4.35526],
			"to": [11.03372, 13.4, 4.85526],
			"rotation": {"angle": -22.5, "axis": "y", "origin": [10.13372, 11, 5.12026]},
			"faces": {
				"north": {"uv": [9, 3.333, 10.399, 4.833], "texture": "#0"},
				"east": {"uv": [0, 0, 0.5, 1.5], "texture": "#0"},
				"south": {"uv": [0, 0, 1.4, 1.5], "texture": "#0"},
				"west": {"uv": [6.333, 8.666, 6.833, 10.166], "texture": "#0"},
				"up": {"uv": [4, 3.333, 5, 4.731], "rotation": 270, "texture": "#0"},
				"down": {"uv": [0, 0, 0.5, 1.4], "rotation": 90, "texture": "#0"}
			}
		},
		{
			"from": [10.59992, 12.9, 3.90282],
			"to": [11.09992, 13.4, 6.30282],
			"rotation": {"angle": 22.5, "axis": "y", "origin": [10.83492, 11, 4.40282]},
			"faces": {
				"north": {"uv": [3.666, 4, 4.166, 4.5], "texture": "#0"},
				"east": {"uv": [0, 0, 2.4, 0.5], "texture": "#0"},
				"south": {"uv": [0, 0, 0.5, 0.5], "texture": "#0"},
				"west": {"uv": [0, 0, 2.4, 0.5], "texture": "#0"},
				"up": {"uv": [3.666, 3, 4.666, 4.398], "texture": "#0"},
				"down": {"uv": [0, 0, 0.5, 2.4], "texture": "#0"}
			}
		},
		{
			"from": [11.35035, 11.9, 3.64813],
			"to": [12.27535, 13.4, 5.84813],
			"rotation": {"angle": 0, "axis": "y", "origin": [11.58535, 11, 4.14813]},
			"faces": {
				"north": {"uv": [4.333, 3.333, 4.833, 3.833], "texture": "#0"},
				"east": {"uv": [0, 0, 2.2, 1.5], "texture": "#0"},
				"south": {"uv": [0, 0, 0.925, 1.5], "texture": "#0"},
				"west": {"uv": [0, 0, 2.2, 1.5], "texture": "#0"},
				"up": {"uv": [9, 3.333, 10, 4.731], "texture": "#0"},
				"down": {"uv": [0, 0, 0.925, 2.2], "texture": "#0"}
			}
		},
		{
			"from": [11.09992, 12.9, 3.90282],
			"to": [11.59992, 13.4, 6.30282],
			"rotation": {"angle": 22.5, "axis": "y", "origin": [10.83492, 11, 4.40282]},
			"faces": {
				"north": {"uv": [6.666, 9, 7.166, 9.5], "texture": "#0"},
				"east": {"uv": [0, 0, 2.4, 0.5], "texture": "#0"},
				"south": {"uv": [0, 0, 0.5, 0.5], "texture": "#0"},
				"west": {"uv": [0, 0, 2.4, 0.5], "texture": "#0"},
				"up": {"uv": [9.333, 3.333, 10.333, 4.731], "texture": "#0"},
				"down": {"uv": [6.333, 8.666, 7.166, 10.166], "texture": "#0"}
			}
		},
		{
			"from": [11.09992, 10.9, 3.90282],
			"to": [11.59992, 12.4, 6.30282],
			"rotation": {"angle": 22.5, "axis": "y", "origin": [10.83492, 11, 4.40282]},
			"faces": {
				"north": {"uv": [3.666, 4, 4.166, 4.5], "texture": "#0"},
				"east": {"uv": [0, 0, 2.4, 1.5], "texture": "#0"},
				"south": {"uv": [0, 0, 0.5, 1.5], "texture": "#missing"},
				"west": {"uv": [0, 0, 2.4, 1.5], "texture": "#0"},
				"up": {"uv": [0, 0, 0.5, 2.4], "texture": "#0"},
				"down": {"uv": [0, 0, 0.5, 2.4], "texture": "#0"}
			}
		},
		{
			"from": [11.35035, 9.9, 3.64813],
			"to": [12.27535, 11.4, 5.84813],
			"rotation": {"angle": 0, "axis": "y", "origin": [11.58535, 11, 4.14813]},
			"faces": {
				"north": {"uv": [6.333, 8.666, 7.258, 10.166], "texture": "#0"},
				"east": {"uv": [0, 0, 2.2, 1.5], "texture": "#0"},
				"south": {"uv": [0, 0, 0.925, 1.5], "texture": "#missing"},
				"west": {"uv": [0, 0, 2.2, 1.5], "texture": "#0"},
				"up": {"uv": [0, 0, 0.925, 2.2], "texture": "#0"},
				"down": {"uv": [6.666, 8.666, 7.166, 10.065], "texture": "#0"}
			}
		},
		{
			"from": [11.09992, 9.9, 3.90282],
			"to": [11.59992, 10.4, 6.30282],
			"rotation": {"angle": 22.5, "axis": "y", "origin": [10.83492, 11, 4.40282]},
			"faces": {
				"north": {"uv": [9.333, 3.333, 9.833, 3.833], "texture": "#0"},
				"east": {"uv": [0, 0, 2.4, 0.5], "texture": "#missing"},
				"south": {"uv": [0, 0, 0.5, 0.5], "texture": "#missing"},
				"west": {"uv": [0, 0, 2.4, 0.5], "texture": "#missing"},
				"up": {"uv": [6, 8.333, 7, 9.732], "texture": "#0"},
				"down": {"uv": [6.666, 8.666, 7.166, 10.065], "texture": "#0"}
			}
		},
		{
			"from": [10.59992, 9.9, 3.90282],
			"to": [11.09992, 11.4, 6.30282],
			"rotation": {"angle": 22.5, "axis": "y", "origin": [10.83492, 11, 4.40282]},
			"faces": {
				"north": {"uv": [9.333, 3.333, 9.833, 3.833], "texture": "#0"},
				"east": {"uv": [0, 0, 2.4, 1.5], "texture": "#0"},
				"south": {"uv": [0, 0, 0.5, 1.5], "texture": "#missing"},
				"west": {"uv": [0, 0, 2.4, 1.5], "texture": "#0"},
				"up": {"uv": [0, 0, 0.5, 2.4], "texture": "#0"},
				"down": {"uv": [6.666, 8.666, 7.166, 10.065], "texture": "#0"}
			}
		},
		{
			"from": [10.09992, 9.9, 3.90282],
			"to": [10.59992, 10.4, 6.30282],
			"rotation": {"angle": 22.5, "axis": "y", "origin": [10.83492, 11, 4.40282]},
			"faces": {
				"north": {"uv": [9.333, 3.333, 9.833, 3.833], "texture": "#0"},
				"east": {"uv": [0, 0, 2.4, 0.5], "texture": "#missing"},
				"south": {"uv": [0, 0, 0.5, 0.5], "texture": "#missing"},
				"west": {"uv": [0, 0, 2.4, 0.5], "texture": "#missing"},
				"up": {"uv": [6, 8.333, 7, 9.732], "texture": "#0"},
				"down": {"uv": [6.666, 8.666, 7.166, 10.065], "texture": "#0"}
			}
		},
		{
			"from": [10.59992, 11.9, 3.90282],
			"to": [11.09992, 12.9, 6.30282],
			"rotation": {"angle": 22.5, "axis": "y", "origin": [10.83492, 11, 4.40282]},
			"faces": {
				"north": {"uv": [3.666, 4, 4.166, 4.5], "texture": "#0"},
				"east": {"uv": [0, 0, 2.4, 1], "texture": "#0"},
				"south": {"uv": [0, 0, 0.5, 1], "texture": "#missing"},
				"west": {"uv": [0, 0, 2.4, 1], "texture": "#0"},
				"up": {"uv": [0, 0, 0.5, 2.4], "texture": "#missing"},
				"down": {"uv": [0, 0, 0.5, 2.4], "texture": "#0"}
			}
		},
		{
			"from": [10.09992, 12.9, 3.90282],
			"to": [10.59992, 13.4, 6.30282],
			"rotation": {"angle": 22.5, "axis": "y", "origin": [10.83492, 11, 4.40282]},
			"faces": {
				"north": {"uv": [3.666, 4, 4.166, 4.5], "texture": "#0"},
				"east": {"uv": [0, 0, 2.4, 0.5], "texture": "#0"},
				"south": {"uv": [0, 0, 0.5, 0.5], "texture": "#0"},
				"west": {"uv": [0, 0, 2.4, 0.5], "texture": "#0"},
				"up": {"uv": [4, 3.666, 5, 5.064], "texture": "#0"},
				"down": {"uv": [6.333, 8.666, 7.166, 10.166], "texture": "#0"}
			}
		},
		{
			"from": [0.765, 18, 5],
			"to": [15.235, 19, 11],
			"rotation": {"angle": 0, "axis": "y", "origin": [8.9, 9.5, 5.5]},
			"faces": {
				"north": {"uv": [5.76, 2.133, 9.135, 2.45], "texture": "#2"},
				"east": {"uv": [5.76, 2.133, 8.068, 2.877], "texture": "#2"},
				"south": {"uv": [5.76, 2.133, 9.136, 3.09133], "texture": "#2"},
				"west": {"uv": [2.559, 2.345, 4.624, 2.878], "texture": "#2"},
				"up": {"uv": [5.76, 2.133, 9.136, 4.798], "texture": "#2"},
				"down": {"uv": [5.76, 2.133, 9.136, 4.798], "texture": "#2"}
			}
		},
		{
			"from": [0.765, 10, 5],
			"to": [15.235, 18, 6],
			"rotation": {"angle": 0, "axis": "y", "origin": [8.5, 9.5, 5.5]},
			"faces": {
				"north": {"uv": [7.893, 2.559, 11.268, 5.224], "texture": "#2"},
				"east": {"uv": [7.253, 4.053, 7.854, 7.143], "texture": "#2"},
				"south": {"uv": [5.76, 2.133, 9.136, 4.798], "texture": "#2"},
				"west": {"uv": [2.559, 2.559, 2.91667, 5.011], "texture": "#2"},
				"up": {"uv": [5.76, 2.133, 9.136, 4.798], "texture": "#2"},
				"down": {"uv": [5.76, 2.133, 9.136, 4.798], "texture": "#2"}
			}
		},
		{
			"from": [14.665, 10.2, 5.2],
			"to": [15.735, 11.6, 6.6],
			"rotation": {"angle": 45, "axis": "x", "origin": [9, 10.7, 6.7]},
			"faces": {
				"north": {"uv": [0.333, 13.666, 2.002, 14.798], "texture": "#0"},
				"east": {"uv": [0.333, 13.666, 2.002, 14.798], "texture": "#0"},
				"south": {"uv": [0.333, 13.666, 2.002, 14.798], "texture": "#0"},
				"west": {"uv": [0.333, 13.666, 2.002, 14.798], "texture": "#0"},
				"up": {"uv": [0.333, 13.666, 2.002, 14.798], "texture": "#0"},
				"down": {"uv": [0.333, 13.666, 2.002, 14.798], "texture": "#0"}
			}
		},
		{
			"from": [0.265, 10.2, 5.2],
			"to": [1.335, 11.6, 6.6],
			"rotation": {"angle": 45, "axis": "x", "origin": [7, 10.7, 6.7]},
			"faces": {
				"north": {"uv": [0.333, 13.666, 2.002, 14.798], "texture": "#0"},
				"east": {"uv": [0.333, 13.666, 2.002, 14.798], "texture": "#0"},
				"south": {"uv": [0.333, 13.666, 2.002, 14.798], "texture": "#0"},
				"west": {"uv": [0.333, 13.666, 2.002, 14.798], "texture": "#0"},
				"up": {"uv": [0.333, 13.666, 2.002, 14.798], "texture": "#0"},
				"down": {"uv": [0.333, 13.666, 2.002, 14.798], "texture": "#0"}
			}
		},
		{
			"from": [14.565, 10, 6],
			"to": [15.235, 18, 11],
			"rotation": {"angle": 0, "axis": "y", "origin": [8.9, 9.5, 5.5]},
			"faces": {
				"north": {"uv": [5.76, 2.133, 9.136, 4.798], "texture": "#2"},
				"east": {"uv": [5.76, 2.133, 7.216, 5.01133], "texture": "#2"},
				"south": {"uv": [5.76, 2.133, 6.36267, 5.01133], "texture": "#2"},
				"west": {"uv": [5.76, 2.133, 7.216, 5.01133], "texture": "#2"},
				"up": {"uv": [5.76, 2.133, 9.136, 4.798], "texture": "#2"},
				"down": {"uv": [5.76, 2.133, 9.136, 4.798], "texture": "#2"}
			}
		},
		{
			"from": [0.765, 10, 6],
			"to": [1.435, 18, 11],
			"rotation": {"angle": 0, "axis": "y", "origin": [8.1, 9.5, 5.5]},
			"faces": {
				"north": {"uv": [5.76, 2.133, 9.136, 4.798], "texture": "#2"},
				"east": {"uv": [5.76, 2.133, 9.136, 4.798], "texture": "#2"},
				"south": {"uv": [5.76, 2.133, 6.36267, 5.01133], "texture": "#2"},
				"west": {"uv": [2.559, 2.346, 4.625, 5.012], "texture": "#2"},
				"up": {"uv": [5.76, 2.133, 9.136, 4.798], "texture": "#2"},
				"down": {"uv": [5.76, 2.133, 9.136, 4.798], "texture": "#2"}
			}
		},
		{
			"from": [6.165, 10.3, 4.5],
			"to": [9.835, 12.1, 5.5],
			"rotation": {"angle": 0, "axis": "y", "origin": [8.5, 11.6, 5]},
			"faces": {
				"north": {"uv": [5.5, 12.25, 5.919, 12.506], "texture": "#1"},
				"east": {"uv": [5.625, 12.5, 5.794, 12.757], "texture": "#1"},
				"south": {"uv": [5.625, 12.5, 6.044, 12.882], "texture": "#1"},
				"west": {"uv": [5.625, 12.5, 6.044, 12.882], "texture": "#1"},
				"up": {"uv": [5.625, 12.5, 6.044, 12.882], "texture": "#1"},
				"down": {"uv": [5.625, 12.5, 6.044, 12.882], "texture": "#1"}
			}
		},
		{
			"from": [7, 18.3, 9.9],
			"to": [9, 18.6, 19],
			"rotation": {"angle": 0, "axis": "y", "origin": [8.5, 17.9, 11.2]},
			"faces": {
				"north": {"uv": [8.625, 11.75, 8.75, 12.55], "rotation": 270, "texture": "#1"},
				"east": {"uv": [8.625, 11.75, 8.75, 12.55], "rotation": 270, "texture": "#1"},
				"south": {"uv": [8.625, 11.75, 8.75, 12.55], "rotation": 270, "texture": "#1"},
				"west": {"uv": [8.625, 11.75, 8.75, 12.55], "rotation": 270, "texture": "#1"},
				"up": {"uv": [8.625, 11.75, 8.75, 12.55], "rotation": 270, "texture": "#1"},
				"down": {"uv": [8.625, 11.75, 8.75, 12.55], "rotation": 270, "texture": "#1"}
			}
		},
		{
			"from": [7, 18.3596, 11.01267],
			"to": [9, 18.6846, 12.26267],
			"rotation": {"angle": 22.5, "axis": "x", "origin": [8, 18.5346, 12.06267]},
			"faces": {
				"north": {"uv": [8.625, 11.75, 8.75, 12.55], "rotation": 270, "texture": "#1"},
				"east": {"uv": [8.625, 11.75, 8.75, 12.55], "rotation": 270, "texture": "#1"},
				"south": {"uv": [8.625, 11.75, 8.75, 12.55], "rotation": 270, "texture": "#1"},
				"west": {"uv": [8.625, 11.75, 8.75, 12.55], "rotation": 270, "texture": "#1"},
				"up": {"uv": [8.625, 11.75, 8.75, 12.55], "rotation": 270, "texture": "#1"},
				"down": {"uv": [8.625, 11.75, 8.75, 12.55], "rotation": 270, "texture": "#1"}
			}
		},
		{
			"from": [7, 6.3, 18.7],
			"to": [9, 18.3, 19],
			"rotation": {"angle": 0, "axis": "y", "origin": [8.5, 17.1, 18.3]},
			"faces": {
				"north": {"uv": [8.625, 11.75, 8.75, 12.55], "rotation": 270, "texture": "#1"},
				"east": {"uv": [8.625, 11.75, 8.75, 12.55], "rotation": 270, "texture": "#1"},
				"south": {"uv": [9.375, 11.75, 9.75, 12.05], "rotation": 270, "texture": "#1"},
				"west": {"uv": [8.625, 11.75, 8.75, 12.55], "rotation": 270, "texture": "#1"},
				"up": {"uv": [8.625, 11.75, 8.75, 12.55], "rotation": 270, "texture": "#1"},
				"down": {"uv": [8.625, 11.75, 8.75, 12.55], "rotation": 270, "texture": "#1"}
			}
		},
		{
			"from": [6.9, 6.3, 18.7],
			"to": [9.1, 8.3, 19.2],
			"rotation": {"angle": 0, "axis": "y", "origin": [8.5, 17.1, 18.3]},
			"faces": {
				"north": {"uv": [8.625, 11.75, 8.75, 12.55], "rotation": 270, "texture": "#1"},
				"east": {"uv": [8.625, 11.75, 8.75, 12.55], "rotation": 270, "texture": "#1"},
				"south": {"uv": [8.625, 11.75, 8.75, 12.55], "rotation": 270, "texture": "#1"},
				"west": {"uv": [8.625, 11.75, 8.75, 12.55], "rotation": 270, "texture": "#1"},
				"up": {"uv": [8.625, 11.75, 8.75, 12.55], "rotation": 270, "texture": "#1"},
				"down": {"uv": [8.625, 11.75, 8.75, 12.55], "rotation": 270, "texture": "#1"}
			}
		},
		{
			"from": [7.3, 6.8, 18.75],
			"to": [8.4, 7.9, 19.25],
			"rotation": {"angle": 45, "axis": "z", "origin": [7.85, 7.35, 19]},
			"faces": {
				"north": {"uv": [5.625, 12.5, 5.825, 12.75], "rotation": 270, "texture": "#1"},
				"east": {"uv": [5.625, 12.5, 5.825, 12.75], "rotation": 270, "texture": "#1"},
				"south": {"uv": [5.625, 12.5, 5.825, 12.75], "rotation": 270, "texture": "#1"},
				"west": {"uv": [5.625, 12.5, 5.825, 12.75], "rotation": 270, "texture": "#1"},
				"up": {"uv": [8.625, 11.75, 8.75, 12.55], "texture": "#1"},
				"down": {"uv": [5.625, 12.5, 5.825, 12.75], "rotation": 270, "texture": "#1"}
			}
		},
		{
			"from": [9.7, 7, 18.85],
			"to": [10.4, 7.7, 19.2],
			"rotation": {"angle": 0, "axis": "y", "origin": [10.6, 17.1, 18.3]},
			"faces": {
				"north": {"uv": [5.625, 12.5, 5.825, 12.75], "rotation": 270, "texture": "#1"},
				"east": {"uv": [5.625, 12.5, 5.825, 12.75], "rotation": 270, "texture": "#1"},
				"south": {"uv": [5.625, 12.5, 5.825, 12.75], "rotation": 270, "texture": "#1"},
				"west": {"uv": [5.625, 12.5, 5.825, 12.75], "rotation": 270, "texture": "#1"},
				"up": {"uv": [5.625, 12.5, 5.825, 12.75], "rotation": 270, "texture": "#1"},
				"down": {"uv": [5.625, 12.5, 5.825, 12.75], "rotation": 270, "texture": "#1"}
			}
		},
		{
			"from": [11.8, 7, 18.85],
			"to": [12.5, 7.7, 19.2],
			"rotation": {"angle": 0, "axis": "y", "origin": [12.7, 17.1, 18.3]},
			"faces": {
				"north": {"uv": [5.625, 12.5, 5.825, 12.75], "rotation": 270, "texture": "#1"},
				"east": {"uv": [5.625, 12.5, 5.825, 12.75], "rotation": 270, "texture": "#1"},
				"south": {"uv": [5.625, 12.5, 5.825, 12.75], "rotation": 270, "texture": "#1"},
				"west": {"uv": [5.625, 12.5, 5.825, 12.75], "rotation": 270, "texture": "#1"},
				"up": {"uv": [5.625, 12.5, 5.825, 12.75], "rotation": 270, "texture": "#1"},
				"down": {"uv": [5.625, 12.5, 5.825, 12.75], "rotation": 270, "texture": "#1"}
			}
		},
		{
			"from": [5.5, 7, 18.85],
			"to": [6.2, 7.7, 19.2],
			"rotation": {"angle": 0, "axis": "y", "origin": [6.4, 17.1, 18.3]},
			"faces": {
				"north": {"uv": [5.625, 12.5, 5.825, 12.75], "rotation": 270, "texture": "#1"},
				"east": {"uv": [5.625, 12.5, 5.825, 12.75], "rotation": 270, "texture": "#1"},
				"south": {"uv": [5.625, 12.5, 5.825, 12.75], "rotation": 270, "texture": "#1"},
				"west": {"uv": [5.625, 12.5, 5.825, 12.75], "rotation": 270, "texture": "#1"},
				"up": {"uv": [5.625, 12.5, 5.825, 12.75], "rotation": 270, "texture": "#1"},
				"down": {"uv": [5.625, 12.5, 5.825, 12.75], "rotation": 270, "texture": "#1"}
			}
		},
		{
			"from": [8.4, 19, 10.3],
			"to": [8.7, 19.1, 10.6],
			"rotation": {"angle": -45, "axis": "y", "origin": [8.55, 19.05, 10.45]},
			"faces": {
				"north": {"uv": [5.625, 12.5, 5.825, 12.75], "rotation": 270, "texture": "#1"},
				"east": {"uv": [5.625, 12.5, 5.825, 12.75], "rotation": 270, "texture": "#1"},
				"south": {"uv": [5.625, 12.5, 5.825, 12.75], "rotation": 270, "texture": "#1"},
				"west": {"uv": [5.625, 12.5, 5.825, 12.75], "rotation": 270, "texture": "#1"},
				"up": {"uv": [5.625, 12.5, 5.825, 12.75], "rotation": 270, "texture": "#1"},
				"down": {"uv": [5.625, 12.5, 5.825, 12.75], "rotation": 270, "texture": "#1"}
			}
		},
		{
			"from": [7.3, 19, 10.3],
			"to": [7.6, 19.1, 10.6],
			"rotation": {"angle": -45, "axis": "y", "origin": [7.45, 19.05, 10.45]},
			"faces": {
				"north": {"uv": [5.625, 12.5, 5.825, 12.75], "rotation": 270, "texture": "#1"},
				"east": {"uv": [5.625, 12.5, 5.825, 12.75], "rotation": 270, "texture": "#1"},
				"south": {"uv": [5.625, 12.5, 5.825, 12.75], "rotation": 270, "texture": "#1"},
				"west": {"uv": [5.625, 12.5, 5.825, 12.75], "rotation": 270, "texture": "#1"},
				"up": {"uv": [5.625, 12.5, 5.825, 12.75], "rotation": 270, "texture": "#1"},
				"down": {"uv": [5.625, 12.5, 5.825, 12.75], "rotation": 270, "texture": "#1"}
			}
		},
		{
			"from": [0.6, 11.8, 10.2],
			"to": [0.8, 12.3, 10.7],
			"rotation": {"angle": 45, "axis": "x", "origin": [0.75, 12.05, 10.45]},
			"faces": {
				"north": {"uv": [5, 10.75, 5.2, 11], "rotation": 270, "texture": "#1"},
				"east": {"uv": [5, 10.75, 5.2, 11], "rotation": 270, "texture": "#1"},
				"south": {"uv": [5, 10.75, 5.2, 11], "rotation": 270, "texture": "#1"},
				"west": {"uv": [5, 10.75, 5.2, 11], "rotation": 270, "texture": "#1"},
				"up": {"uv": [5, 10.75, 5.2, 11], "rotation": 270, "texture": "#1"},
				"down": {"uv": [5, 10.75, 5.2, 11], "rotation": 270, "texture": "#1"}
			}
		},
		{
			"from": [0.6, 14.8, 10.2],
			"to": [0.8, 15.3, 10.7],
			"rotation": {"angle": 45, "axis": "x", "origin": [0.75, 15.05, 10.45]},
			"faces": {
				"north": {"uv": [5, 10.75, 5.2, 11], "rotation": 270, "texture": "#1"},
				"east": {"uv": [5, 10.75, 5.2, 11], "rotation": 270, "texture": "#1"},
				"south": {"uv": [5, 10.75, 5.2, 11], "rotation": 270, "texture": "#1"},
				"west": {"uv": [5, 10.75, 5.2, 11], "rotation": 270, "texture": "#1"},
				"up": {"uv": [5, 10.75, 5.2, 11], "rotation": 270, "texture": "#1"},
				"down": {"uv": [5, 10.75, 5.2, 11], "rotation": 270, "texture": "#1"}
			}
		},
		{
			"from": [0.6, 17.8, 10.2],
			"to": [0.8, 18.3, 10.7],
			"rotation": {"angle": 45, "axis": "x", "origin": [0.75, 18.05, 10.45]},
			"faces": {
				"north": {"uv": [5, 10.75, 5.2, 11], "rotation": 270, "texture": "#1"},
				"east": {"uv": [5, 10.75, 5.2, 11], "rotation": 270, "texture": "#1"},
				"south": {"uv": [5, 10.75, 5.2, 11], "rotation": 270, "texture": "#1"},
				"west": {"uv": [5, 10.75, 5.2, 11], "rotation": 270, "texture": "#1"},
				"up": {"uv": [5, 10.75, 5.2, 11], "rotation": 270, "texture": "#1"},
				"down": {"uv": [5, 10.75, 5.2, 11], "rotation": 270, "texture": "#1"}
			}
		},
		{
			"from": [2.2, 19, 10.2],
			"to": [2.7, 19.2, 10.7],
			"rotation": {"angle": -45, "axis": "y", "origin": [2.45, 19.05, 10.45]},
			"faces": {
				"north": {"uv": [5, 10.75, 5.2, 11], "rotation": 270, "texture": "#1"},
				"east": {"uv": [5, 10.75, 5.2, 11], "rotation": 270, "texture": "#1"},
				"south": {"uv": [5, 10.75, 5.2, 11], "rotation": 270, "texture": "#1"},
				"west": {"uv": [5, 10.75, 5.2, 11], "rotation": 270, "texture": "#1"},
				"up": {"uv": [5, 10.75, 5.2, 11], "rotation": 270, "texture": "#1"},
				"down": {"uv": [5, 10.75, 5.2, 11], "rotation": 270, "texture": "#1"}
			}
		},
		{
			"from": [5.2, 19, 10.2],
			"to": [5.7, 19.2, 10.7],
			"rotation": {"angle": -45, "axis": "y", "origin": [5.45, 19.05, 10.45]},
			"faces": {
				"north": {"uv": [5, 10.75, 5.2, 11], "rotation": 270, "texture": "#1"},
				"east": {"uv": [5, 10.75, 5.2, 11], "rotation": 270, "texture": "#1"},
				"south": {"uv": [5, 10.75, 5.2, 11], "rotation": 270, "texture": "#1"},
				"west": {"uv": [5, 10.75, 5.2, 11], "rotation": 270, "texture": "#1"},
				"up": {"uv": [5, 10.75, 5.2, 11], "rotation": 270, "texture": "#1"},
				"down": {"uv": [5, 10.75, 5.2, 11], "rotation": 270, "texture": "#1"}
			}
		},
		{
			"from": [10.2, 19, 10.2],
			"to": [10.7, 19.2, 10.7],
			"rotation": {"angle": -45, "axis": "y", "origin": [10.45, 19.05, 10.45]},
			"faces": {
				"north": {"uv": [5, 10.75, 5.2, 11], "rotation": 270, "texture": "#1"},
				"east": {"uv": [5, 10.75, 5.2, 11], "rotation": 270, "texture": "#1"},
				"south": {"uv": [5, 10.75, 5.2, 11], "rotation": 270, "texture": "#1"},
				"west": {"uv": [5, 10.75, 5.2, 11], "rotation": 270, "texture": "#1"},
				"up": {"uv": [5, 10.75, 5.2, 11], "rotation": 270, "texture": "#1"},
				"down": {"uv": [5, 10.75, 5.2, 11], "rotation": 270, "texture": "#1"}
			}
		},
		{
			"from": [13.2, 19, 10.2],
			"to": [13.7, 19.2, 10.7],
			"rotation": {"angle": -45, "axis": "y", "origin": [13.45, 19.05, 10.45]},
			"faces": {
				"north": {"uv": [5, 10.75, 5.2, 11], "rotation": 270, "texture": "#1"},
				"east": {"uv": [5, 10.75, 5.2, 11], "rotation": 270, "texture": "#1"},
				"south": {"uv": [5, 10.75, 5.2, 11], "rotation": 270, "texture": "#1"},
				"west": {"uv": [5, 10.75, 5.2, 11], "rotation": 270, "texture": "#1"},
				"up": {"uv": [5, 10.75, 5.2, 11], "rotation": 270, "texture": "#1"},
				"down": {"uv": [5, 10.75, 5.2, 11], "rotation": 270, "texture": "#1"}
			}
		},
		{
			"from": [15.2, 11.8, 10.2],
			"to": [15.4, 12.3, 10.7],
			"rotation": {"angle": 45, "axis": "x", "origin": [15.25, 12.05, 10.45]},
			"faces": {
				"north": {"uv": [5, 10.75, 5.2, 11], "rotation": 270, "texture": "#1"},
				"east": {"uv": [5, 10.75, 5.2, 11], "rotation": 270, "texture": "#1"},
				"south": {"uv": [5, 10.75, 5.2, 11], "rotation": 270, "texture": "#1"},
				"west": {"uv": [5, 10.75, 5.2, 11], "rotation": 270, "texture": "#1"},
				"up": {"uv": [5, 10.75, 5.2, 11], "rotation": 270, "texture": "#1"},
				"down": {"uv": [5, 10.75, 5.2, 11], "rotation": 270, "texture": "#1"}
			}
		},
		{
			"from": [15.2, 14.8, 10.2],
			"to": [15.4, 15.3, 10.7],
			"rotation": {"angle": 45, "axis": "x", "origin": [15.25, 15.05, 10.45]},
			"faces": {
				"north": {"uv": [5, 10.75, 5.2, 11], "rotation": 270, "texture": "#1"},
				"east": {"uv": [5, 10.75, 5.2, 11], "rotation": 270, "texture": "#1"},
				"south": {"uv": [5, 10.75, 5.2, 11], "rotation": 270, "texture": "#1"},
				"west": {"uv": [5, 10.75, 5.2, 11], "rotation": 270, "texture": "#1"},
				"up": {"uv": [5, 10.75, 5.2, 11], "rotation": 270, "texture": "#1"},
				"down": {"uv": [5, 10.75, 5.2, 11], "rotation": 270, "texture": "#1"}
			}
		},
		{
			"from": [15.2, 17.8, 10.2],
			"to": [15.4, 18.3, 10.7],
			"rotation": {"angle": 45, "axis": "x", "origin": [15.25, 18.05, 10.45]},
			"faces": {
				"north": {"uv": [5, 10.75, 5.2, 11], "rotation": 270, "texture": "#1"},
				"east": {"uv": [5, 10.75, 5.2, 11], "rotation": 270, "texture": "#1"},
				"south": {"uv": [5, 10.75, 5.2, 11], "rotation": 270, "texture": "#1"},
				"west": {"uv": [5, 10.75, 5.2, 11], "rotation": 270, "texture": "#1"},
				"up": {"uv": [5, 10.75, 5.2, 11], "rotation": 270, "texture": "#1"},
				"down": {"uv": [5, 10.75, 5.2, 11], "rotation": 270, "texture": "#1"}
			}
		},
		{
			"from": [1.3, 6.3, 5.6],
			"to": [1.6, 8.3, 18.7],
			"rotation": {"angle": 0, "axis": "y", "origin": [2, 7.8, 7.9]},
			"faces": {
				"north": {"uv": [8.625, 11.75, 8.75, 12.55], "rotation": 270, "texture": "#1"},
				"east": {"uv": [8.625, 11.75, 8.75, 12.55], "rotation": 270, "texture": "#1"},
				"south": {"uv": [8.625, 11.75, 8.75, 12.55], "rotation": 270, "texture": "#1"},
				"west": {"uv": [8.625, 11.75, 8.875, 12.55], "rotation": 270, "texture": "#1"},
				"up": {"uv": [8.625, 11.75, 8.75, 12.55], "rotation": 270, "texture": "#1"},
				"down": {"uv": [8.625, 11.75, 8.75, 12.55], "rotation": 270, "texture": "#1"}
			}
		},
		{
			"from": [1.3, 6.3, 18.7],
			"to": [7, 8.3, 19],
			"rotation": {"angle": 0, "axis": "y", "origin": [8, 7.3, 18.85]},
			"faces": {
				"north": {"uv": [8.625, 11.75, 8.75, 12.55], "rotation": 270, "texture": "#1"},
				"east": {"uv": [8.625, 11.75, 8.75, 12.55], "rotation": 270, "texture": "#1"},
				"south": {"uv": [8.625, 11.75, 8.875, 12.55], "rotation": 270, "texture": "#1"},
				"west": {"uv": [8.625, 11.75, 8.75, 12.55], "rotation": 270, "texture": "#1"},
				"up": {"uv": [8.625, 11.75, 8.75, 12.55], "rotation": 270, "texture": "#1"},
				"down": {"uv": [8.625, 11.75, 8.75, 12.55], "rotation": 270, "texture": "#1"}
			}
		},
		{
			"from": [9, 6.3, 18.7],
			"to": [14.7, 8.3, 19],
			"rotation": {"angle": 0, "axis": "y", "origin": [8, 7.3, 18.85]},
			"faces": {
				"north": {"uv": [8.625, 11.75, 8.75, 12.55], "rotation": 270, "texture": "#1"},
				"east": {"uv": [8.625, 11.75, 8.75, 12.55], "rotation": 270, "texture": "#1"},
				"south": {"uv": [8.625, 11.75, 8.875, 12.55], "rotation": 270, "texture": "#1"},
				"west": {"uv": [8.625, 11.75, 8.75, 12.55], "rotation": 270, "texture": "#1"},
				"up": {"uv": [8.625, 11.75, 8.75, 12.55], "rotation": 270, "texture": "#1"},
				"down": {"uv": [8.625, 11.75, 8.75, 12.55], "rotation": 270, "texture": "#1"}
			}
		},
		{
			"from": [14.4, 6.3, 5.6],
			"to": [14.7, 8.3, 18.7],
			"rotation": {"angle": 0, "axis": "y", "origin": [14, 7.8, 7.9]},
			"faces": {
				"north": {"uv": [8.625, 11.75, 8.75, 12.55], "rotation": 270, "texture": "#1"},
				"east": {"uv": [8.625, 11.75, 8.875, 12.55], "rotation": 270, "texture": "#1"},
				"south": {"uv": [8.625, 11.75, 8.75, 12.55], "rotation": 270, "texture": "#1"},
				"west": {"uv": [8.625, 11.75, 8.75, 12.55], "rotation": 270, "texture": "#1"},
				"up": {"uv": [8.625, 11.75, 8.75, 12.55], "rotation": 270, "texture": "#1"},
				"down": {"uv": [8.625, 11.75, 8.75, 12.55], "rotation": 270, "texture": "#1"}
			}
		},
		{
			"from": [7, 18.425, 10.35],
			"to": [9, 18.725, 11.45],
			"rotation": {"angle": 0, "axis": "y", "origin": [8, 18.575, 11.4]},
			"faces": {
				"north": {"uv": [8.625, 11.75, 8.75, 12.55], "rotation": 270, "texture": "#1"},
				"east": {"uv": [8.625, 11.75, 8.75, 12.55], "rotation": 270, "texture": "#1"},
				"south": {"uv": [8.625, 11.75, 8.75, 12.55], "rotation": 270, "texture": "#1"},
				"west": {"uv": [8.625, 11.75, 8.75, 12.55], "rotation": 270, "texture": "#1"},
				"up": {"uv": [8.625, 11.75, 8.75, 12.55], "rotation": 270, "texture": "#1"},
				"down": {"uv": [8.625, 11.75, 8.75, 12.55], "rotation": 270, "texture": "#1"}
			}
		},
		{
			"from": [7, 18.675, 10.05],
			"to": [9, 19.075, 11.15],
			"rotation": {"angle": 0, "axis": "y", "origin": [8, 18.925, 11.1]},
			"faces": {
				"north": {"uv": [8.625, 11.75, 8.75, 12.55], "rotation": 270, "texture": "#1"},
				"east": {"uv": [8.625, 11.75, 8.75, 12.55], "rotation": 270, "texture": "#1"},
				"south": {"uv": [8.625, 11.75, 8.75, 12.55], "rotation": 270, "texture": "#1"},
				"west": {"uv": [8.625, 11.75, 8.75, 12.55], "rotation": 270, "texture": "#1"},
				"up": {"uv": [8.625, 11.75, 8.75, 12.55], "rotation": 270, "texture": "#1"},
				"down": {"uv": [8.625, 11.75, 8.75, 12.55], "rotation": 270, "texture": "#1"}
			}
		},
		{
			"from": [1.6, 6.3, 5.6],
			"to": [14.4, 8.3, 5.9],
			"rotation": {"angle": 0, "axis": "y", "origin": [7.7, 7.3, 5.75]},
			"faces": {
				"north": {"uv": [8.625, 11.75, 8.875, 12.55], "rotation": 270, "texture": "#1"},
				"east": {"uv": [8.625, 11.75, 8.75, 12.55], "rotation": 270, "texture": "#1"},
				"south": {"uv": [8.625, 11.75, 8.75, 12.55], "rotation": 270, "texture": "#1"},
				"west": {"uv": [8.625, 11.75, 8.75, 12.55], "rotation": 270, "texture": "#1"},
				"up": {"uv": [8.625, 11.75, 8.75, 12.55], "rotation": 270, "texture": "#1"},
				"down": {"uv": [8.625, 11.75, 8.75, 12.55], "rotation": 270, "texture": "#1"}
			}
		},
		{
			"from": [3.75326, 5.00797, 2.98471],
			"to": [6.14826, 8.60797, 4.98471],
			"rotation": {"angle": 45, "axis": "y", "origin": [6.38826, 8.20797, 3.48471]},
			"faces": {
				"north": {"uv": [5.625, 12.5, 6.075, 13], "rotation": 270, "texture": "#1"},
				"east": {"uv": [5.625, 12.5, 6.075, 13], "rotation": 270, "texture": "#1"},
				"south": {"uv": [5.625, 12.5, 6.075, 13], "rotation": 270, "texture": "#1"},
				"west": {"uv": [5.625, 12.5, 6.075, 13], "rotation": 270, "texture": "#1"},
				"up": {"uv": [5.625, 12.5, 6.075, 13], "rotation": 270, "texture": "#1"},
				"down": {"uv": [5.625, 12.5, 6.075, 13], "rotation": 270, "texture": "#1"}
			}
		},
		{
			"from": [10.14467, 5.00797, 2.88264],
			"to": [12.14467, 8.60797, 5.27764],
			"rotation": {"angle": 45, "axis": "y", "origin": [11.64467, 8.20797, 5.51764]},
			"faces": {
				"north": {"uv": [5.625, 12.5, 6.075, 13], "rotation": 270, "texture": "#1"},
				"east": {"uv": [5.625, 12.5, 6.075, 13], "rotation": 270, "texture": "#1"},
				"south": {"uv": [5.625, 12.5, 6.075, 13], "rotation": 270, "texture": "#1"},
				"west": {"uv": [5.625, 12.5, 6.075, 13], "rotation": 270, "texture": "#1"},
				"up": {"uv": [5.625, 12.5, 6.075, 13], "rotation": 270, "texture": "#1"},
				"down": {"uv": [5.625, 12.5, 6.075, 13], "rotation": 270, "texture": "#1"}
			}
		},
		{
			"from": [4.765, 5, 5],
			"to": [11.235, 10, 6.125],
			"rotation": {"angle": 0, "axis": "y", "origin": [8.5, 9.5, 5.5]},
			"faces": {
				"north": {"uv": [6, 12.375, 6.075, 12.5], "rotation": 270, "texture": "#1"},
				"east": {"uv": [5.625, 12.5, 6.075, 13], "rotation": 270, "texture": "#1"},
				"south": {"uv": [5.625, 12.5, 6.075, 13], "rotation": 270, "texture": "#1"},
				"west": {"uv": [5.625, 12.5, 6.075, 13], "rotation": 270, "texture": "#1"},
				"up": {"uv": [5.625, 12.5, 6.075, 13], "rotation": 270, "texture": "#1"},
				"down": {"uv": [5.625, 12.5, 6.075, 13], "rotation": 270, "texture": "#1"}
			}
		},
		{
			"from": [4.36547, 6.29142, 5],
			"to": [5.43547, 8.99142, 6.125],
			"rotation": {"angle": -22.5, "axis": "z", "origin": [7.10047, 8.49142, 5.5]},
			"faces": {
				"north": {"uv": [6, 12.375, 6.075, 12.5], "rotation": 270, "texture": "#1"},
				"east": {"uv": [5.625, 12.5, 6.075, 13], "rotation": 270, "texture": "#1"},
				"south": {"uv": [5.625, 12.5, 6.075, 13], "rotation": 270, "texture": "#1"},
				"west": {"uv": [5.625, 12.5, 6.075, 13], "rotation": 270, "texture": "#1"},
				"up": {"uv": [5.625, 12.5, 6.075, 13], "rotation": 270, "texture": "#1"},
				"down": {"uv": [5.625, 12.5, 6.075, 13], "rotation": 270, "texture": "#1"}
			}
		},
		{
			"from": [3.71491, 5.87917, 5],
			"to": [4.78491, 8.57917, 6.125],
			"rotation": {"angle": 22.5, "axis": "z", "origin": [6.44991, 8.07917, 5.5]},
			"faces": {
				"north": {"uv": [5.625, 12.5, 6.075, 13], "rotation": 270, "texture": "#1"},
				"east": {"uv": [5.625, 12.5, 6.075, 13], "rotation": 270, "texture": "#1"},
				"south": {"uv": [5.625, 12.5, 6.075, 13], "rotation": 270, "texture": "#1"},
				"west": {"uv": [5.625, 12.5, 6.075, 13], "rotation": 270, "texture": "#1"},
				"up": {"uv": [5.625, 12.5, 6.075, 13], "rotation": 270, "texture": "#1"},
				"down": {"uv": [5.625, 12.5, 6.075, 13], "rotation": 270, "texture": "#1"}
			}
		},
		{
			"from": [10.56453, 6.29142, 5],
			"to": [11.63453, 8.99142, 6.125],
			"rotation": {"angle": 22.5, "axis": "z", "origin": [8.89953, 8.49142, 5.5]},
			"faces": {
				"north": {"uv": [6, 12.375, 6.075, 12.5], "rotation": 270, "texture": "#1"},
				"east": {"uv": [5.625, 12.5, 6.075, 13], "rotation": 270, "texture": "#1"},
				"south": {"uv": [5.625, 12.5, 6.075, 13], "rotation": 270, "texture": "#1"},
				"west": {"uv": [5.625, 12.5, 6.075, 13], "rotation": 270, "texture": "#1"},
				"up": {"uv": [5.625, 12.5, 6.075, 13], "rotation": 270, "texture": "#1"},
				"down": {"uv": [5.625, 12.5, 6.075, 13], "rotation": 270, "texture": "#1"}
			}
		},
		{
			"from": [11.21509, 5.87917, 5],
			"to": [12.28509, 8.57917, 6.125],
			"rotation": {"angle": -22.5, "axis": "z", "origin": [9.55009, 8.07917, 5.5]},
			"faces": {
				"north": {"uv": [5.625, 12.5, 6.075, 13], "rotation": 270, "texture": "#1"},
				"east": {"uv": [5.625, 12.5, 6.075, 13], "rotation": 270, "texture": "#1"},
				"south": {"uv": [5.625, 12.5, 6.075, 13], "rotation": 270, "texture": "#1"},
				"west": {"uv": [5.625, 12.5, 6.075, 13], "rotation": 270, "texture": "#1"},
				"up": {"uv": [5.625, 12.5, 6.075, 13], "rotation": 270, "texture": "#1"},
				"down": {"uv": [5.625, 12.5, 6.075, 13], "rotation": 270, "texture": "#1"}
			}
		},
		{
			"from": [5.865, 4.51725, 5.21817],
			"to": [10.135, 5.28725, 6.14317],
			"rotation": {"angle": 0, "axis": "y", "origin": [8.5, 8.11725, 5.64317]},
			"faces": {
				"north": {"uv": [5.625, 12.5, 6.075, 13], "rotation": 270, "texture": "#1"},
				"east": {"uv": [5.625, 12.5, 6.075, 13], "rotation": 270, "texture": "#1"},
				"south": {"uv": [5.625, 12.5, 6.075, 13], "rotation": 270, "texture": "#1"},
				"west": {"uv": [5.625, 12.5, 6.075, 13], "rotation": 270, "texture": "#1"},
				"up": {"uv": [5.625, 12.5, 6.075, 13], "rotation": 270, "texture": "#1"},
				"down": {"uv": [5.625, 12.5, 6.075, 13], "rotation": 270, "texture": "#1"}
			}
		},
		{
			"from": [5.865, 4.60797, 3.30086],
			"to": [10.135, 8.60797, 3.47586],
			"rotation": {"angle": 0, "axis": "y", "origin": [8.5, 8.20797, 3.80086]},
			"faces": {
				"north": {"uv": [5.625, 12.5, 6.075, 13], "rotation": 270, "texture": "#1"},
				"east": {"uv": [5.625, 12.5, 6.075, 13], "rotation": 270, "texture": "#1"},
				"south": {"uv": [5.625, 12.5, 6.075, 13], "rotation": 270, "texture": "#1"},
				"west": {"uv": [5.625, 12.5, 6.075, 13], "rotation": 270, "texture": "#1"},
				"up": {"uv": [5.625, 12.5, 6.075, 13], "rotation": 270, "texture": "#1"},
				"down": {"uv": [5.625, 12.5, 6.075, 13], "rotation": 270, "texture": "#1"}
			}
		},
		{
			"from": [9.20733, 5.67209, 3.00086],
			"to": [9.70733, 7.54209, 3.30086],
			"rotation": {"angle": 0, "axis": "y", "origin": [8.00733, 6.60709, 3.15086]},
			"faces": {
				"north": {"uv": [12.278, 6.875, 12.25, 6.994], "texture": "#1"},
				"east": {"uv": [12.278, 6.875, 12.25, 6.994], "texture": "#1"},
				"south": {"uv": [12.278, 6.875, 12.25, 6.994], "texture": "#1"},
				"west": {"uv": [12.278, 6.875, 12.25, 6.994], "texture": "#1"},
				"up": {"uv": [12.278, 6.875, 12.25, 6.994], "texture": "#1"},
				"down": {"uv": [12.278, 6.875, 12.25, 6.994], "texture": "#1"}
			}
		},
		{
			"from": [6.30645, 5.66477, 3.00086],
			"to": [6.80645, 7.55977, 3.30086],
			"rotation": {"angle": 0, "axis": "y", "origin": [8.00645, 6.62477, 3.15086]},
			"faces": {
				"north": {"uv": [12.278, 6.875, 12.25, 6.994], "texture": "#1"},
				"east": {"uv": [12.278, 6.875, 12.25, 6.994], "texture": "#1"},
				"south": {"uv": [12.278, 6.875, 12.25, 6.994], "texture": "#1"},
				"west": {"uv": [12.278, 6.875, 12.25, 6.994], "texture": "#1"},
				"up": {"uv": [12.278, 6.875, 12.25, 6.994], "texture": "#1"},
				"down": {"uv": [12.278, 6.875, 12.25, 6.994], "texture": "#1"}
			}
		},
		{
			"from": [9.59211, 6.29315, 3.00086],
			"to": [10.09211, 7.38815, 3.30086],
			"rotation": {"angle": 45, "axis": "z", "origin": [8.39211, 6.45315, 3.15086]},
			"faces": {
				"north": {"uv": [12.278, 6.875, 12.25, 6.994], "texture": "#1"},
				"east": {"uv": [12.278, 6.875, 12.25, 6.994], "texture": "#1"},
				"south": {"uv": [12.278, 6.875, 12.25, 6.994], "texture": "#1"},
				"west": {"uv": [12.278, 6.875, 12.25, 6.994], "texture": "#1"},
				"up": {"uv": [12.278, 6.875, 12.25, 6.994], "texture": "#1"},
				"down": {"uv": [12.278, 6.875, 12.25, 6.994], "texture": "#1"}
			}
		},
		{
			"from": [7.31906, 4.00974, 3.00086],
			"to": [7.81906, 5.07974, 3.30086],
			"rotation": {"angle": 45, "axis": "z", "origin": [6.11906, 4.14474, 3.15086]},
			"faces": {
				"north": {"uv": [12.278, 6.875, 12.25, 6.994], "texture": "#1"},
				"east": {"uv": [12.278, 6.875, 12.25, 6.994], "texture": "#1"},
				"south": {"uv": [12.278, 6.875, 12.25, 6.994], "texture": "#1"},
				"west": {"uv": [12.278, 6.875, 12.25, 6.994], "texture": "#1"},
				"up": {"uv": [12.278, 6.875, 12.25, 6.994], "texture": "#1"},
				"down": {"uv": [12.278, 6.875, 12.25, 6.994], "texture": "#1"}
			}
		},
		{
			"from": [9.36534, 6.05874, 3.00086],
			"to": [9.86534, 7.15374, 3.30086],
			"rotation": {"angle": -45, "axis": "z", "origin": [7.99783, 6.60365, 3.15086]},
			"faces": {
				"north": {"uv": [12.278, 6.875, 12.25, 6.994], "texture": "#1"},
				"east": {"uv": [12.278, 6.875, 12.25, 6.994], "texture": "#1"},
				"south": {"uv": [12.278, 6.875, 12.25, 6.994], "texture": "#1"},
				"west": {"uv": [12.278, 6.875, 12.25, 6.994], "texture": "#1"},
				"up": {"uv": [12.278, 6.875, 12.25, 6.994], "texture": "#1"},
				"down": {"uv": [12.278, 6.875, 12.25, 6.994], "texture": "#1"}
			}
		},
		{
			"from": [6.1396, 6.08179, 3.00086],
			"to": [6.6396, 7.15179, 3.30086],
			"rotation": {"angle": -45, "axis": "z", "origin": [8.00711, 6.61938, 3.15086]},
			"faces": {
				"north": {"uv": [12.278, 6.875, 12.25, 6.994], "texture": "#1"},
				"east": {"uv": [12.278, 6.875, 12.25, 6.994], "texture": "#1"},
				"south": {"uv": [12.278, 6.875, 12.25, 6.994], "texture": "#1"},
				"west": {"uv": [12.278, 6.875, 12.25, 6.994], "texture": "#1"},
				"up": {"uv": [12.278, 6.875, 12.25, 6.994], "texture": "#1"},
				"down": {"uv": [12.278, 6.875, 12.25, 6.994], "texture": "#1"}
			}
		},
		{
			"from": [7.06305, 7.81638, 3.00086],
			"to": [8.93305, 8.31638, 3.30086],
			"rotation": {"angle": 0, "axis": "y", "origin": [8.49805, 8.21638, 1.80086]},
			"faces": {
				"north": {"uv": [12.278, 6.875, 12.25, 6.994], "texture": "#1"},
				"east": {"uv": [12.278, 6.875, 12.25, 6.994], "texture": "#1"},
				"south": {"uv": [12.278, 6.875, 12.25, 6.994], "texture": "#1"},
				"west": {"uv": [12.278, 6.875, 12.25, 6.994], "texture": "#1"},
				"up": {"uv": [12.278, 6.875, 12.25, 6.994], "texture": "#1"},
				"down": {"uv": [12.278, 6.875, 12.25, 6.994], "texture": "#1"}
			}
		},
		{
			"from": [5.865, 3.19225, 3.21817],
			"to": [10.135, 4.19225, 5.88817],
			"rotation": {"angle": 22.5, "axis": "x", "origin": [8.5, 3.69225, 6.81817]},
			"faces": {
				"north": {"uv": [5.625, 12.5, 6.075, 13], "rotation": 270, "texture": "#1"},
				"east": {"uv": [5.625, 12.5, 6.075, 13], "rotation": 270, "texture": "#1"},
				"south": {"uv": [5.625, 12.5, 6.075, 13], "rotation": 270, "texture": "#1"},
				"west": {"uv": [5.625, 12.5, 6.075, 13], "rotation": 270, "texture": "#1"},
				"up": {"uv": [5.625, 12.5, 6.075, 13], "rotation": 270, "texture": "#1"},
				"down": {"uv": [5.625, 12.5, 6.075, 13], "rotation": 270, "texture": "#1"}
			}
		},
		{
			"from": [4.92241, 4.7984, 4.65086],
			"to": [6.39241, 5.4984, 5.97086],
			"rotation": {"angle": -45, "axis": "z", "origin": [5.25741, 4.9984, 4.78586]},
			"faces": {
				"north": {"uv": [5.625, 12.5, 6.075, 13], "rotation": 270, "texture": "#1"},
				"east": {"uv": [5.625, 12.5, 6.075, 13], "rotation": 270, "texture": "#1"},
				"south": {"uv": [5.625, 12.5, 6.075, 13], "rotation": 270, "texture": "#1"},
				"west": {"uv": [5.625, 12.5, 6.075, 13], "rotation": 270, "texture": "#1"},
				"up": {"uv": [5.625, 12.5, 6.075, 13], "rotation": 270, "texture": "#1"},
				"down": {"uv": [5.625, 12.5, 6.075, 13], "rotation": 270, "texture": "#1"}
			}
		},
		{
			"from": [9.60759, 4.7984, 4.65086],
			"to": [11.07759, 5.4984, 5.97086],
			"rotation": {"angle": 45, "axis": "z", "origin": [10.74259, 4.9984, 4.78586]},
			"faces": {
				"north": {"uv": [5.625, 12.5, 6.075, 13], "rotation": 270, "texture": "#1"},
				"east": {"uv": [5.625, 12.5, 6.075, 13], "rotation": 270, "texture": "#1"},
				"south": {"uv": [5.625, 12.5, 6.075, 13], "rotation": 270, "texture": "#1"},
				"west": {"uv": [5.625, 12.5, 6.075, 13], "rotation": 270, "texture": "#1"},
				"up": {"uv": [5.625, 12.5, 6.075, 13], "rotation": 270, "texture": "#1"},
				"down": {"uv": [5.625, 12.5, 6.075, 13], "rotation": 270, "texture": "#1"}
			}
		},
		{
			"from": [5.865, 7.5, 5],
			"to": [10.135, 10, 6.3],
			"rotation": {"angle": 45, "axis": "x", "origin": [8.5, 10.1, 5.5]},
			"faces": {
				"north": {"uv": [5.625, 12.5, 6.075, 13], "rotation": 270, "texture": "#1"},
				"east": {"uv": [5.625, 12.5, 6.075, 13], "rotation": 270, "texture": "#1"},
				"south": {"uv": [5.625, 12.5, 6.075, 13], "rotation": 270, "texture": "#1"},
				"west": {"uv": [5.625, 12.5, 6.075, 13], "rotation": 270, "texture": "#1"},
				"up": {"uv": [5.625, 12.5, 6.075, 13], "rotation": 270, "texture": "#1"},
				"down": {"uv": [5.625, 12.5, 6.075, 13], "rotation": 270, "texture": "#1"}
			}
		},
		{
			"from": [6.76305, 5.41638, 3.15086],
			"to": [9.23305, 7.89138, 3.30086],
			"rotation": {"angle": 0, "axis": "y", "origin": [8.49805, 8.21638, 1.80086]},
			"faces": {
				"north": {"uv": [7.653, 10.375, 8.25, 10.869], "texture": "#1"},
				"east": {"uv": [12.278, 6.875, 12.25, 6.994], "texture": "#1"},
				"south": {"uv": [12.278, 6.875, 12.25, 6.994], "texture": "#1"},
				"west": {"uv": [12.278, 6.875, 12.25, 6.994], "texture": "#1"},
				"up": {"uv": [12.278, 6.875, 12.25, 6.994], "texture": "#1"},
				"down": {"uv": [12.278, 6.875, 12.25, 6.994], "texture": "#1"}
			}
		},
		{
			"from": [4.05326, 6.40797, 2.33471],
			"to": [5.75326, 8.10797, 4.83471],
			"rotation": {"angle": 45, "axis": "y", "origin": [6.38826, 8.00797, 3.33471]},
			"faces": {
				"north": {"uv": [12.278, 6.875, 12.25, 6.994], "texture": "#1"},
				"east": {"uv": [12.278, 6.875, 12.25, 6.994], "texture": "#1"},
				"south": {"uv": [12.278, 6.875, 12.25, 6.994], "texture": "#1"},
				"west": {"uv": [12.278, 6.875, 12.25, 6.994], "texture": "#1"},
				"up": {"uv": [12.278, 6.875, 12.25, 6.994], "texture": "#1"},
				"down": {"uv": [12.278, 6.875, 12.25, 6.994], "texture": "#1"}
			}
		},
		{
			"from": [10.24674, 6.40797, 2.33471],
			"to": [11.94674, 8.10797, 4.83471],
			"rotation": {"angle": -45, "axis": "y", "origin": [9.61174, 8.00797, 3.33471]},
			"faces": {
				"north": {"uv": [12.278, 6.875, 12.25, 6.994], "texture": "#1"},
				"east": {"uv": [12.278, 6.875, 12.25, 6.994], "texture": "#1"},
				"south": {"uv": [12.278, 6.875, 12.25, 6.994], "texture": "#1"},
				"west": {"uv": [12.278, 6.875, 12.25, 6.994], "texture": "#1"},
				"up": {"uv": [12.278, 6.875, 12.25, 6.994], "texture": "#1"},
				"down": {"uv": [12.278, 6.875, 12.25, 6.994], "texture": "#1"}
			}
		},
		{
			"from": [7.06305, 4.89781, 3.00086],
			"to": [8.93305, 5.39781, 3.30086],
			"rotation": {"angle": 0, "axis": "y", "origin": [8.49805, 5.29781, 1.80086]},
			"faces": {
				"north": {"uv": [12.278, 6.875, 12.25, 6.994], "texture": "#1"},
				"east": {"uv": [12.278, 6.875, 12.25, 6.994], "texture": "#1"},
				"south": {"uv": [12.278, 6.875, 12.25, 6.994], "texture": "#1"},
				"west": {"uv": [12.278, 6.875, 12.25, 6.994], "texture": "#1"},
				"up": {"uv": [12.278, 6.875, 12.25, 6.994], "texture": "#1"},
				"down": {"uv": [12.278, 6.875, 12.25, 6.994], "texture": "#1"}
			}
		},
		{
			"from": [3.15035, 10, 4.94813],
			"to": [5.37535, 13.3, 5.34813],
			"rotation": {"angle": 0, "axis": "y", "origin": [3.98535, 11, 4.14813]},
			"faces": {
				"north": {"uv": [1, 0.666, 1.925, 2.166], "texture": "#0"},
				"east": {"uv": [0, 0, 2.2, 1.5], "texture": "#missing"},
				"south": {"uv": [0, 0, 0.925, 1.5], "texture": "#missing"},
				"west": {"uv": [0, 0, 2.2, 1.5], "texture": "#missing"},
				"up": {"uv": [6, 8.333, 7, 9.732], "texture": "#missing"},
				"down": {"uv": [0, 0, 0.925, 2.2], "texture": "#missing"}
			}
		},
		{
			"from": [10.75035, 10, 4.94813],
			"to": [12.97535, 13.3, 5.84813],
			"rotation": {"angle": 0, "axis": "y", "origin": [11.58535, 11, 4.14813]},
			"faces": {
				"north": {"uv": [1, 0.666, 1.925, 2.166], "texture": "#0"},
				"east": {"uv": [0, 0, 2.2, 1.5], "texture": "#missing"},
				"south": {"uv": [0, 0, 0.925, 1.5], "texture": "#missing"},
				"west": {"uv": [0, 0, 2.2, 1.5], "texture": "#missing"},
				"up": {"uv": [6, 8.333, 7, 9.732], "texture": "#missing"},
				"down": {"uv": [0, 0, 0.925, 2.2], "texture": "#missing"}
			}
		},
		{
			"from": [2.05035, 10, 4.99813],
			"to": [6.37535, 13.3, 5.39813],
			"rotation": {"angle": 0, "axis": "y", "origin": [1.58535, 11, 4.19813]},
			"faces": {
				"north": {"uv": [6.333, 8.666, 7.258, 10.166], "texture": "#0"},
				"east": {"uv": [0, 0, 2.2, 1.5], "texture": "#0"},
				"south": {"uv": [0, 0, 0.925, 1.5], "texture": "#0"},
				"west": {"uv": [0, 0, 2.2, 1.5], "texture": "#0"},
				"up": {"uv": [6, 8.333, 7, 9.732], "texture": "#0"},
				"down": {"uv": [0, 0, 0.925, 2.2], "texture": "#0"}
			}
		},
		{
			"from": [9.65035, 10, 4.99813],
			"to": [13.97535, 13.3, 5.39813],
			"rotation": {"angle": 0, "axis": "y", "origin": [9.18535, 11, 4.19813]},
			"faces": {
				"north": {"uv": [6.333, 8.666, 7.258, 10.166], "texture": "#0"},
				"east": {"uv": [0, 0, 2.2, 1.5], "texture": "#missing"},
				"south": {"uv": [0, 0, 0.925, 1.5], "texture": "#missing"},
				"west": {"uv": [0, 0, 2.2, 1.5], "texture": "#missing"},
				"up": {"uv": [6, 8.333, 7, 9.732], "texture": "#missing"},
				"down": {"uv": [0, 0, 0.925, 2.2], "texture": "#missing"}
			}
		},
		{
			"from": [9.24674, 5.40797, 0.90971],
			"to": [12.94674, 9.10797, 2.35971],
			"rotation": {"angle": -45, "axis": "y", "origin": [9.61174, 8.00797, 3.33471]},
			"faces": {
				"north": {"uv": [7, 10, 7.347, 10.244], "texture": "#1"},
				"east": {"uv": [7, 10, 7.347, 10.244], "texture": "#1"},
				"south": {"uv": [7, 10, 7.347, 10.244], "texture": "#1"},
				"west": {"uv": [7, 10, 7.347, 10.244], "texture": "#1"},
				"up": {"uv": [7, 10, 7.347, 10.244], "texture": "#1"},
				"down": {"uv": [7, 10, 7.347, 10.244], "texture": "#1"}
			}
		},
		{
			"from": [3.05326, 5.40797, 1.10971],
			"to": [6.75326, 9.10797, 2.35971],
			"rotation": {"angle": 45, "axis": "y", "origin": [6.38826, 8.00797, 3.33471]},
			"faces": {
				"north": {"uv": [7, 10, 7.347, 10.244], "texture": "#1"},
				"east": {"uv": [7, 10, 7.347, 10.244], "texture": "#1"},
				"south": {"uv": [7, 10, 7.347, 10.244], "texture": "#1"},
				"west": {"uv": [7, 10, 7.347, 10.244], "texture": "#1"},
				"up": {"uv": [7, 10, 7.347, 10.244], "texture": "#1"},
				"down": {"uv": [7, 10, 7.347, 10.244], "texture": "#1"}
			}
		},
		{
			"from": [10.57956, 8.80797, 2.517],
			"to": [14.27956, 9.10797, 2.717],
			"rotation": {"angle": -45, "axis": "y", "origin": [12.42956, 7.28297, 2.617]},
			"faces": {
				"north": {"uv": [14, 4.875, 14.096, 4.994], "texture": "#1"},
				"east": {"uv": [14, 4.875, 14.096, 4.994], "texture": "#1"},
				"south": {"uv": [14, 4.875, 14.096, 4.994], "texture": "#1"},
				"west": {"uv": [14, 4.875, 14.096, 4.994], "texture": "#1"},
				"up": {"uv": [14, 4.875, 14.096, 4.994], "texture": "#1"},
				"down": {"uv": [14, 4.875, 14.096, 4.994], "texture": "#1"}
			}
		},
		{
			"from": [10.57956, 5.40797, 2.517],
			"to": [14.27956, 5.70797, 2.717],
			"rotation": {"angle": -45, "axis": "y", "origin": [12.42956, 7.28297, 2.617]},
			"faces": {
				"north": {"uv": [14, 4.875, 14.096, 4.994], "texture": "#1"},
				"east": {"uv": [14, 4.875, 14.096, 4.994], "texture": "#1"},
				"south": {"uv": [14, 4.875, 14.096, 4.994], "texture": "#1"},
				"west": {"uv": [14, 4.875, 14.096, 4.994], "texture": "#1"},
				"up": {"uv": [14, 4.875, 14.096, 4.994], "texture": "#1"},
				"down": {"uv": [14, 4.875, 14.096, 4.994], "texture": "#1"}
			}
		},
		{
			"from": [10.57956, 5.70797, 2.517],
			"to": [10.87956, 8.80797, 2.717],
			"rotation": {"angle": -45, "axis": "y", "origin": [12.42956, 7.28297, 2.617]},
			"faces": {
				"north": {"uv": [14, 4.875, 14.096, 4.994], "texture": "#1"},
				"east": {"uv": [14, 4.875, 14.096, 4.994], "texture": "#1"},
				"south": {"uv": [14, 4.875, 14.096, 4.994], "texture": "#1"},
				"west": {"uv": [14, 4.875, 14.096, 4.994], "texture": "#1"},
				"up": {"uv": [14, 4.875, 14.096, 4.994], "texture": "#1"},
				"down": {"uv": [14, 4.875, 14.096, 4.994], "texture": "#1"}
			}
		},
		{
			"from": [13.97956, 5.70797, 2.517],
			"to": [14.27956, 8.80797, 2.717],
			"rotation": {"angle": -45, "axis": "y", "origin": [12.42956, 7.28297, 2.617]},
			"faces": {
				"north": {"uv": [14, 4.875, 14.096, 4.994], "texture": "#1"},
				"east": {"uv": [14, 4.875, 14.096, 4.994], "texture": "#1"},
				"south": {"uv": [14, 4.875, 14.096, 4.994], "texture": "#1"},
				"west": {"uv": [14, 4.875, 14.096, 4.994], "texture": "#1"},
				"up": {"uv": [14, 4.875, 14.096, 4.994], "texture": "#1"},
				"down": {"uv": [14, 4.875, 14.096, 4.994], "texture": "#1"}
			}
		},
		{
			"from": [13.47956, 5.70797, 2.517],
			"to": [13.67956, 8.80797, 2.717],
			"rotation": {"angle": -45, "axis": "y", "origin": [12.42956, 7.28297, 2.617]},
			"faces": {
				"north": {"uv": [14, 4.875, 14.096, 4.994], "texture": "#1"},
				"east": {"uv": [14, 4.875, 14.096, 4.994], "texture": "#1"},
				"south": {"uv": [14, 4.875, 14.096, 4.994], "texture": "#1"},
				"west": {"uv": [14, 4.875, 14.096, 4.994], "texture": "#1"},
				"up": {"uv": [14, 4.875, 14.096, 4.994], "texture": "#1"},
				"down": {"uv": [14, 4.875, 14.096, 4.994], "texture": "#1"}
			}
		},
		{
			"from": [12.87956, 5.70797, 2.517],
			"to": [13.07956, 8.80797, 2.717],
			"rotation": {"angle": -45, "axis": "y", "origin": [12.42956, 7.28297, 2.617]},
			"faces": {
				"north": {"uv": [14, 4.875, 14.096, 4.994], "texture": "#1"},
				"east": {"uv": [14, 4.875, 14.096, 4.994], "texture": "#1"},
				"south": {"uv": [14, 4.875, 14.096, 4.994], "texture": "#1"},
				"west": {"uv": [14, 4.875, 14.096, 4.994], "texture": "#1"},
				"up": {"uv": [14, 4.875, 14.096, 4.994], "texture": "#1"},
				"down": {"uv": [14, 4.875, 14.096, 4.994], "texture": "#1"}
			}
		},
		{
			"from": [11.77956, 5.70797, 2.517],
			"to": [11.97956, 8.80797, 2.717],
			"rotation": {"angle": -45, "axis": "y", "origin": [12.42956, 7.28297, 2.617]},
			"faces": {
				"north": {"uv": [14, 4.875, 14.096, 4.994], "texture": "#1"},
				"east": {"uv": [14, 4.875, 14.096, 4.994], "texture": "#1"},
				"south": {"uv": [14, 4.875, 14.096, 4.994], "texture": "#1"},
				"west": {"uv": [14, 4.875, 14.096, 4.994], "texture": "#1"},
				"up": {"uv": [14, 4.875, 14.096, 4.994], "texture": "#1"},
				"down": {"uv": [14, 4.875, 14.096, 4.994], "texture": "#1"}
			}
		},
		{
			"from": [11.17956, 5.70797, 2.517],
			"to": [11.37956, 8.80797, 2.717],
			"rotation": {"angle": -45, "axis": "y", "origin": [12.42956, 7.28297, 2.617]},
			"faces": {
				"north": {"uv": [14, 4.875, 14.096, 4.994], "texture": "#1"},
				"east": {"uv": [14, 4.875, 14.096, 4.994], "texture": "#1"},
				"south": {"uv": [14, 4.875, 14.096, 4.994], "texture": "#1"},
				"west": {"uv": [14, 4.875, 14.096, 4.994], "texture": "#1"},
				"up": {"uv": [14, 4.875, 14.096, 4.994], "texture": "#1"},
				"down": {"uv": [14, 4.875, 14.096, 4.994], "texture": "#1"}
			}
		},
		{
			"from": [10.87956, 8.30797, 2.517],
			"to": [14.07956, 8.50797, 2.717],
			"rotation": {"angle": -45, "axis": "y", "origin": [12.42956, 7.28297, 2.617]},
			"faces": {
				"north": {"uv": [14, 4.875, 14.096, 4.994], "texture": "#1"},
				"east": {"uv": [14, 4.875, 14.096, 4.994], "texture": "#1"},
				"south": {"uv": [14, 4.875, 14.096, 4.994], "texture": "#1"},
				"west": {"uv": [14, 4.875, 14.096, 4.994], "texture": "#1"},
				"up": {"uv": [14, 4.875, 14.096, 4.994], "texture": "#1"},
				"down": {"uv": [14, 4.875, 14.096, 4.994], "texture": "#1"}
			}
		},
		{
			"from": [10.87956, 7.70797, 2.517],
			"to": [14.07956, 7.90797, 2.717],
			"rotation": {"angle": -45, "axis": "y", "origin": [12.42956, 7.28297, 2.617]},
			"faces": {
				"north": {"uv": [14, 4.875, 14.096, 4.994], "texture": "#1"},
				"east": {"uv": [14, 4.875, 14.096, 4.994], "texture": "#1"},
				"south": {"uv": [14, 4.875, 14.096, 4.994], "texture": "#1"},
				"west": {"uv": [14, 4.875, 14.096, 4.994], "texture": "#1"},
				"up": {"uv": [14, 4.875, 14.096, 4.994], "texture": "#1"},
				"down": {"uv": [14, 4.875, 14.096, 4.994], "texture": "#1"}
			}
		},
		{
			"from": [10.87956, 6.00797, 2.517],
			"to": [14.07956, 6.20797, 2.717],
			"rotation": {"angle": -45, "axis": "y", "origin": [12.42956, 7.28297, 2.617]},
			"faces": {
				"north": {"uv": [14, 4.875, 14.096, 4.994], "texture": "#1"},
				"east": {"uv": [14, 4.875, 14.096, 4.994], "texture": "#1"},
				"south": {"uv": [14, 4.875, 14.096, 4.994], "texture": "#1"},
				"west": {"uv": [14, 4.875, 14.096, 4.994], "texture": "#1"},
				"up": {"uv": [14, 4.875, 14.096, 4.994], "texture": "#1"},
				"down": {"uv": [14, 4.875, 14.096, 4.994], "texture": "#1"}
			}
		},
		{
			"from": [10.87956, 6.60797, 2.517],
			"to": [14.07956, 6.80797, 2.717],
			"rotation": {"angle": -45, "axis": "y", "origin": [12.42956, 7.28297, 2.617]},
			"faces": {
				"north": {"uv": [14, 4.875, 14.096, 4.994], "texture": "#1"},
				"east": {"uv": [14, 4.875, 14.096, 4.994], "texture": "#1"},
				"south": {"uv": [14, 4.875, 14.096, 4.994], "texture": "#1"},
				"west": {"uv": [14, 4.875, 14.096, 4.994], "texture": "#1"},
				"up": {"uv": [14, 4.875, 14.096, 4.994], "texture": "#1"},
				"down": {"uv": [14, 4.875, 14.096, 4.994], "texture": "#1"}
			}
		},
		{
			"from": [10.87956, 7.10797, 2.517],
			"to": [14.07956, 7.40797, 2.717],
			"rotation": {"angle": -45, "axis": "y", "origin": [12.42956, 7.28297, 2.617]},
			"faces": {
				"north": {"uv": [14, 4.875, 14.096, 4.994], "texture": "#1"},
				"east": {"uv": [14, 4.875, 14.096, 4.994], "texture": "#1"},
				"south": {"uv": [14, 4.875, 14.096, 4.994], "texture": "#1"},
				"west": {"uv": [14, 4.875, 14.096, 4.994], "texture": "#1"},
				"up": {"uv": [14, 4.875, 14.096, 4.994], "texture": "#1"},
				"down": {"uv": [14, 4.875, 14.096, 4.994], "texture": "#1"}
			}
		},
		{
			"from": [9.14674, 5.30797, 0.93471],
			"to": [13.04674, 9.20797, 1.25971],
			"rotation": {"angle": -45, "axis": "y", "origin": [9.61174, 8.00797, 3.33471]},
			"faces": {
				"north": {"uv": [14, 4.875, 14.096, 4.994], "texture": "#1"},
				"east": {"uv": [14, 4.875, 14.096, 4.994], "texture": "#1"},
				"south": {"uv": [14, 4.875, 14.096, 4.994], "texture": "#1"},
				"west": {"uv": [14, 4.875, 14.096, 4.994], "texture": "#1"},
				"up": {"uv": [14, 4.875, 14.096, 4.994], "texture": "#1"},
				"down": {"uv": [14, 4.875, 14.096, 4.994], "texture": "#1"}
			}
		},
		{
			"from": [2.95326, 5.30797, 1.13471],
			"to": [6.85326, 9.20797, 1.45971],
			"rotation": {"angle": 45, "axis": "y", "origin": [6.38826, 8.00797, 3.33471]},
			"faces": {
				"north": {"uv": [14, 4.875, 14.096, 4.994], "texture": "#1"},
				"east": {"uv": [14, 4.875, 14.096, 4.994], "texture": "#1"},
				"south": {"uv": [14, 4.875, 14.096, 4.994], "texture": "#1"},
				"west": {"uv": [14, 4.875, 14.096, 4.994], "texture": "#1"},
				"up": {"uv": [14, 4.875, 14.096, 4.994], "texture": "#1"},
				"down": {"uv": [14, 4.875, 14.096, 4.994], "texture": "#1"}
			}
		},
		{
			"from": [5.12044, 5.70797, 2.717],
			"to": [5.42044, 8.80797, 2.917],
			"rotation": {"angle": 45, "axis": "y", "origin": [3.57044, 7.28297, 2.617]},
			"faces": {
				"north": {"uv": [14, 4.875, 14.096, 4.994], "texture": "#1"},
				"east": {"uv": [14, 4.875, 14.096, 4.994], "texture": "#1"},
				"south": {"uv": [14, 4.875, 14.096, 4.994], "texture": "#1"},
				"west": {"uv": [14, 4.875, 14.096, 4.994], "texture": "#1"},
				"up": {"uv": [14, 4.875, 14.096, 4.994], "texture": "#1"},
				"down": {"uv": [14, 4.875, 14.096, 4.994], "texture": "#1"}
			}
		},
		{
			"from": [1.72044, 8.80797, 2.717],
			"to": [5.42044, 9.10797, 2.917],
			"rotation": {"angle": 45, "axis": "y", "origin": [3.57044, 7.28297, 2.617]},
			"faces": {
				"north": {"uv": [14, 4.875, 14.096, 4.994], "texture": "#1"},
				"east": {"uv": [14, 4.875, 14.096, 4.994], "texture": "#1"},
				"south": {"uv": [14, 4.875, 14.096, 4.994], "texture": "#1"},
				"west": {"uv": [14, 4.875, 14.096, 4.994], "texture": "#1"},
				"up": {"uv": [14, 4.875, 14.096, 4.994], "texture": "#1"},
				"down": {"uv": [14, 4.875, 14.096, 4.994], "texture": "#1"}
			}
		},
		{
			"from": [1.72044, 5.70797, 2.717],
			"to": [2.02044, 8.80797, 2.917],
			"rotation": {"angle": 45, "axis": "y", "origin": [3.57044, 7.28297, 2.617]},
			"faces": {
				"north": {"uv": [14, 4.875, 14.096, 4.994], "texture": "#1"},
				"east": {"uv": [14, 4.875, 14.096, 4.994], "texture": "#1"},
				"south": {"uv": [14, 4.875, 14.096, 4.994], "texture": "#1"},
				"west": {"uv": [14, 4.875, 14.096, 4.994], "texture": "#1"},
				"up": {"uv": [14, 4.875, 14.096, 4.994], "texture": "#1"},
				"down": {"uv": [14, 4.875, 14.096, 4.994], "texture": "#1"}
			}
		},
		{
			"from": [1.72044, 5.40797, 2.717],
			"to": [5.42044, 5.70797, 2.917],
			"rotation": {"angle": 45, "axis": "y", "origin": [3.57044, 7.28297, 2.617]},
			"faces": {
				"north": {"uv": [14, 4.875, 14.096, 4.994], "texture": "#1"},
				"east": {"uv": [14, 4.875, 14.096, 4.994], "texture": "#1"},
				"south": {"uv": [14, 4.875, 14.096, 4.994], "texture": "#1"},
				"west": {"uv": [14, 4.875, 14.096, 4.994], "texture": "#1"},
				"up": {"uv": [14, 4.875, 14.096, 4.994], "texture": "#1"},
				"down": {"uv": [14, 4.875, 14.096, 4.994], "texture": "#1"}
			}
		},
		{
			"from": [12.37956, 5.70797, 2.517],
			"to": [12.47956, 8.80797, 2.717],
			"rotation": {"angle": -45, "axis": "y", "origin": [12.42956, 7.28297, 2.617]},
			"faces": {
				"north": {"uv": [14, 4.875, 14.096, 4.994], "texture": "#1"},
				"east": {"uv": [14, 4.875, 14.096, 4.994], "texture": "#1"},
				"south": {"uv": [14, 4.875, 14.096, 4.994], "texture": "#1"},
				"west": {"uv": [14, 4.875, 14.096, 4.994], "texture": "#1"},
				"up": {"uv": [14, 4.875, 14.096, 4.994], "texture": "#1"},
				"down": {"uv": [14, 4.875, 14.096, 4.994], "texture": "#1"}
			}
		},
		{
			"from": [1.92044, 8.30797, 2.717],
			"to": [5.12044, 8.50797, 2.917],
			"rotation": {"angle": 45, "axis": "y", "origin": [3.57044, 7.28297, 2.617]},
			"faces": {
				"north": {"uv": [14.096, 4.875, 14, 4.994], "texture": "#1"},
				"east": {"uv": [14.096, 4.875, 14, 4.994], "texture": "#1"},
				"south": {"uv": [14.096, 4.875, 14, 4.994], "texture": "#1"},
				"west": {"uv": [14.096, 4.875, 14, 4.994], "texture": "#1"},
				"up": {"uv": [14.096, 4.875, 14, 4.994], "texture": "#1"},
				"down": {"uv": [14.096, 4.875, 14, 4.994], "texture": "#1"}
			}
		},
		{
			"from": [2.32044, 5.70797, 2.717],
			"to": [2.52044, 8.80797, 2.917],
			"rotation": {"angle": 45, "axis": "y", "origin": [3.57044, 7.28297, 2.617]},
			"faces": {
				"north": {"uv": [14.096, 4.875, 14, 4.994], "texture": "#1"},
				"east": {"uv": [14.096, 4.875, 14, 4.994], "texture": "#1"},
				"south": {"uv": [14.096, 4.875, 14, 4.994], "texture": "#1"},
				"west": {"uv": [14.096, 4.875, 14, 4.994], "texture": "#1"},
				"up": {"uv": [14.096, 4.875, 14, 4.994], "texture": "#1"},
				"down": {"uv": [14.096, 4.875, 14, 4.994], "texture": "#1"}
			}
		},
		{
			"from": [1.92044, 7.10797, 2.717],
			"to": [5.12044, 7.40797, 2.917],
			"rotation": {"angle": 45, "axis": "y", "origin": [3.57044, 7.28297, 2.617]},
			"faces": {
				"north": {"uv": [14.096, 4.875, 14, 4.994], "texture": "#1"},
				"east": {"uv": [14.096, 4.875, 14, 4.994], "texture": "#1"},
				"south": {"uv": [14.096, 4.875, 14, 4.994], "texture": "#1"},
				"west": {"uv": [14.096, 4.875, 14, 4.994], "texture": "#1"},
				"up": {"uv": [14.096, 4.875, 14, 4.994], "texture": "#1"},
				"down": {"uv": [14.096, 4.875, 14, 4.994], "texture": "#1"}
			}
		},
		{
			"from": [1.92044, 7.70797, 2.717],
			"to": [5.12044, 7.90797, 2.917],
			"rotation": {"angle": 45, "axis": "y", "origin": [3.57044, 7.28297, 2.617]},
			"faces": {
				"north": {"uv": [14.096, 4.875, 14, 4.994], "texture": "#1"},
				"east": {"uv": [14.096, 4.875, 14, 4.994], "texture": "#1"},
				"south": {"uv": [14.096, 4.875, 14, 4.994], "texture": "#1"},
				"west": {"uv": [14.096, 4.875, 14, 4.994], "texture": "#1"},
				"up": {"uv": [14.096, 4.875, 14, 4.994], "texture": "#1"},
				"down": {"uv": [14.096, 4.875, 14, 4.994], "texture": "#1"}
			}
		},
		{
			"from": [1.92044, 6.60797, 2.717],
			"to": [5.12044, 6.80797, 2.917],
			"rotation": {"angle": 45, "axis": "y", "origin": [3.57044, 7.28297, 2.617]},
			"faces": {
				"north": {"uv": [14.096, 4.875, 14, 4.994], "texture": "#1"},
				"east": {"uv": [14.096, 4.875, 14, 4.994], "texture": "#1"},
				"south": {"uv": [14.096, 4.875, 14, 4.994], "texture": "#1"},
				"west": {"uv": [14.096, 4.875, 14, 4.994], "texture": "#1"},
				"up": {"uv": [14.096, 4.875, 14, 4.994], "texture": "#1"},
				"down": {"uv": [14.096, 4.875, 14, 4.994], "texture": "#1"}
			}
		},
		{
			"from": [1.92044, 6.00797, 2.717],
			"to": [5.12044, 6.20797, 2.917],
			"rotation": {"angle": 45, "axis": "y", "origin": [3.57044, 7.28297, 2.617]},
			"faces": {
				"north": {"uv": [14.096, 4.875, 14, 4.994], "texture": "#1"},
				"east": {"uv": [14.096, 4.875, 14, 4.994], "texture": "#1"},
				"south": {"uv": [14.096, 4.875, 14, 4.994], "texture": "#1"},
				"west": {"uv": [14.096, 4.875, 14, 4.994], "texture": "#1"},
				"up": {"uv": [14.096, 4.875, 14, 4.994], "texture": "#1"},
				"down": {"uv": [14.096, 4.875, 14, 4.994], "texture": "#1"}
			}
		},
		{
			"from": [2.92044, 5.70797, 2.717],
			"to": [3.12044, 8.80797, 2.917],
			"rotation": {"angle": 45, "axis": "y", "origin": [3.57044, 7.28297, 2.617]},
			"faces": {
				"north": {"uv": [14.096, 4.875, 14, 4.994], "texture": "#1"},
				"east": {"uv": [14.096, 4.875, 14, 4.994], "texture": "#1"},
				"south": {"uv": [14.096, 4.875, 14, 4.994], "texture": "#1"},
				"west": {"uv": [14.096, 4.875, 14, 4.994], "texture": "#1"},
				"up": {"uv": [14.096, 4.875, 14, 4.994], "texture": "#1"},
				"down": {"uv": [14.096, 4.875, 14, 4.994], "texture": "#1"}
			}
		},
		{
			"from": [3.52044, 5.70797, 2.717],
			"to": [3.62044, 8.80797, 2.917],
			"rotation": {"angle": 45, "axis": "y", "origin": [3.57044, 7.28297, 2.617]},
			"faces": {
				"north": {"uv": [14.096, 4.875, 14, 4.994], "texture": "#1"},
				"east": {"uv": [14.096, 4.875, 14, 4.994], "texture": "#1"},
				"south": {"uv": [14.096, 4.875, 14, 4.994], "texture": "#1"},
				"west": {"uv": [14.096, 4.875, 14, 4.994], "texture": "#1"},
				"up": {"uv": [14.096, 4.875, 14, 4.994], "texture": "#1"},
				"down": {"uv": [14.096, 4.875, 14, 4.994], "texture": "#1"}
			}
		},
		{
			"from": [4.02044, 5.70797, 2.717],
			"to": [4.22044, 8.80797, 2.917],
			"rotation": {"angle": 45, "axis": "y", "origin": [3.57044, 7.28297, 2.617]},
			"faces": {
				"north": {"uv": [14.096, 4.875, 14, 4.994], "texture": "#1"},
				"east": {"uv": [14.096, 4.875, 14, 4.994], "texture": "#1"},
				"south": {"uv": [14.096, 4.875, 14, 4.994], "texture": "#1"},
				"west": {"uv": [14.096, 4.875, 14, 4.994], "texture": "#1"},
				"up": {"uv": [14.096, 4.875, 14, 4.994], "texture": "#1"},
				"down": {"uv": [14.096, 4.875, 14, 4.994], "texture": "#1"}
			}
		},
		{
			"from": [4.62044, 5.70797, 2.717],
			"to": [4.82044, 8.80797, 2.917],
			"rotation": {"angle": 45, "axis": "y", "origin": [3.57044, 7.28297, 2.617]},
			"faces": {
				"north": {"uv": [14.096, 4.875, 14, 4.994], "texture": "#1"},
				"east": {"uv": [14.096, 4.875, 14, 4.994], "texture": "#1"},
				"south": {"uv": [14.096, 4.875, 14, 4.994], "texture": "#1"},
				"west": {"uv": [14.096, 4.875, 14, 4.994], "texture": "#1"},
				"up": {"uv": [14.096, 4.875, 14, 4.994], "texture": "#1"},
				"down": {"uv": [14.096, 4.875, 14, 4.994], "texture": "#1"}
			}
		}
	],
	"display": {
		"thirdperson_righthand": {
			"rotation": [-70.5, -9.75, -6.25],
			"translation": [1.5, -6.5, -0.75],
			"scale": [0.5, 0.5, 0.5]
		},
		"thirdperson_lefthand": {
			"rotation": [-70.5, -9.75, -6.25],
			"translation": [1.5, -6.5, -0.75],
			"scale": [0.5, 0.5, 0.5]
		},
		"firstperson_righthand": {
			"rotation": [-102, 0, 0],
			"translation": [-0.75, -3.25, 3.25],
			"scale": [0.6, 0.6, 0.6]
		},
		"firstperson_lefthand": {
			"rotation": [-102, 0, 0],
			"translation": [-0.75, -3.25, 3.25],
			"scale": [0.6, 0.6, 0.6]
		},
		"ground": {
			"scale": [0.6, 0.6, 0.6]
		},
		"gui": {
			"rotation": [13.25, 161, 0],
			"translation": [-0.25, -2, 0],
			"scale": [0.7, 0.7, 0.7]
		},
		"head": {
			"translation": [0, -4, -4.25]
		},
		"fixed": {
			"translation": [0, -3.25, 0]
		}
	},
	"groups": [
		{
			"name": "Сфера",
			"origin": [8, 8, 8],
			"children": [
				{
					"name": "Линзы",
					"origin": [10.83492, 11, 4.40282],
					"children": [0, 1, 2, 3, 4, 5, 6, 7, 8, 9, 10, 11, 12, 13, 14, 15, 16, 17, 18, 19, 20, 21, 22, 23, 24, 25, 26, 27, 28, 29, 30, 31, 32, 33, 34, 35, 36, 37, 38, 39, 40, 41, 42, 43, 44, 45, 46, 47, 48, 49, 50, 51, 52, 53, 54, 55, 56, 57, 58]
				}, 59, 60, 61, 62, 63, 64, 65]
		},
		{
			"name": "Ремешки и заклёпки",
			"origin": [8, 8, 8],
			"children": [66, 67, 68, 69, 70, 71, 72, 73, 74, 75, 76, 77, 78, 79, 80, 81, 82, 83, 84, 85, 86, 87, 88, 89, 90, 91, 92]
		},
		{
			"name": "Намордник",
			"origin": [8, 8, 8],
			"children": [93, 94, 95, 96, 97, 98, 99, 100, 101, 102, 103, 104, 105, 106, 107, 108, 109, 110, 111, 112, 113, 114, 115, 116]
		}, 117, 118, 119, 120, 121, 122, 123, 124, 125, 126, 127, 128, 129, 130, 131, 132, 133, 134, 135, 136, 137, 138, 139, 140, 141, 142, 143, 144, 145, 146, 147, 148, 149, 150, 151, 152]
}